Looping_Hardware-design/project_1/.Xil/Vivado-6487-client70/hw_ila_data_1/zip_work/waveform.vcd
$date
        2021-Feb-25 14:00:56
$end
$version
        Vivado v2019.1 (64-bit)
$end
$timescale
        1ps
$end
$scope module dut $end
$var reg 1 " check_40G_sim_i/system_ila_0/inst/probe0_1 $end
$var reg 4 # check_40G_sim_i/system_ila_0/inst/probe1_1 [3:0] $end
$var reg 8 ' check_40G_sim_i/system_ila_0/inst/probe2_1 [7:0] $end
$var reg 12 / check_40G_sim_i/system_ila_0/inst/probe3_1 [11:0] $end
$var reg 3 ; check_40G_sim_i/system_ila_0/inst/probe4_1 [2:0] $end
$var reg 128 > check_40G_sim_i/system_ila_0/inst/net_slot_0_axis_tdata [127:0] $end
$var reg 70 `" check_40G_sim_i/system_ila_0/inst/net_slot_0_axis_tuser [69:0] $end
$var reg 1 H# check_40G_sim_i/system_ila_0/inst/net_slot_0_axis_tvalid $end
$var reg 1 I# check_40G_sim_i/system_ila_0/inst/net_slot_0_axis_tready $end
$var reg 1 J# check_40G_sim_i/system_ila_0/inst/net_slot_0_axis_tlast $end
$var reg 128 K# check_40G_sim_i/system_ila_0/inst/net_slot_1_axis_tdata [127:0] $end
$var reg 16 m$ check_40G_sim_i/system_ila_0/inst/net_slot_1_axis_tkeep [15:0] $end
$var reg 1 }$ check_40G_sim_i/system_ila_0/inst/net_slot_1_axis_tuser $end
$var reg 1 ~$ check_40G_sim_i/system_ila_0/inst/net_slot_1_axis_tvalid $end
$var reg 1 !% check_40G_sim_i/system_ila_0/inst/net_slot_1_axis_tready $end
$var reg 1 "% check_40G_sim_i/system_ila_0/inst/net_slot_1_axis_tlast $end
$var reg 128 #% check_40G_sim_i/system_ila_0/inst/net_slot_2_axis_tdata [127:0] $end
$var reg 70 E& check_40G_sim_i/system_ila_0/inst/net_slot_2_axis_tuser [69:0] $end
$var reg 1 -' check_40G_sim_i/system_ila_0/inst/net_slot_2_axis_tvalid $end
$var reg 1 .' check_40G_sim_i/system_ila_0/inst/net_slot_2_axis_tready $end
$var reg 1 /' check_40G_sim_i/system_ila_0/inst/net_slot_2_axis_tlast $end
$var reg 128 0' check_40G_sim_i/system_ila_0/inst/net_slot_3_axis_tdata [127:0] $end
$var reg 70 R( check_40G_sim_i/system_ila_0/inst/net_slot_3_axis_tuser [69:0] $end
$var reg 1 :) check_40G_sim_i/system_ila_0/inst/net_slot_3_axis_tvalid $end
$var reg 1 ;) check_40G_sim_i/system_ila_0/inst/net_slot_3_axis_tready $end
$var reg 1 <) check_40G_sim_i/system_ila_0/inst/net_slot_3_axis_tlast $end
$var reg 128 =) check_40G_sim_i/system_ila_0/inst/net_slot_4_axis_tdata [127:0] $end
$var reg 70 _* check_40G_sim_i/system_ila_0/inst/net_slot_4_axis_tuser [69:0] $end
$var reg 1 G+ check_40G_sim_i/system_ila_0/inst/net_slot_4_axis_tvalid $end
$var reg 1 H+ check_40G_sim_i/system_ila_0/inst/net_slot_4_axis_tready $end
$var reg 1 I+ check_40G_sim_i/system_ila_0/inst/net_slot_4_axis_tlast $end
$var reg 128 J+ check_40G_sim_i/system_ila_0/inst/net_slot_5_axis_tdata [127:0] $end
$var reg 70 l, check_40G_sim_i/system_ila_0/inst/net_slot_5_axis_tuser [69:0] $end
$var reg 1 T- check_40G_sim_i/system_ila_0/inst/net_slot_5_axis_tvalid $end
$var reg 1 U- check_40G_sim_i/system_ila_0/inst/net_slot_5_axis_tready $end
$var reg 1 V- check_40G_sim_i/system_ila_0/inst/net_slot_5_axis_tlast $end
$var reg 128 W- check_40G_sim_i/system_ila_0/inst/net_slot_6_axis_tdata [127:0] $end
$var reg 70 y. check_40G_sim_i/system_ila_0/inst/net_slot_6_axis_tuser [69:0] $end
$var reg 1 a/ check_40G_sim_i/system_ila_0/inst/net_slot_6_axis_tvalid $end
$var reg 1 b/ check_40G_sim_i/system_ila_0/inst/net_slot_6_axis_tlast $end
$var reg 3 c/ Interface__i1_s0___cplane_packetizer_0_eth_data_ [2:0] $end
$var reg 3 f/ Interface__i1_s1___uplane_packetiser_0_eth_data_ [2:0] $end
$var reg 3 i/ Interface__i1_s2___ecpri_mux_0_ctrl_user_data_out_ [2:0] $end
$var reg 3 l/ Interface__i1_s3___axis_data_fifo_5_M_AXIS_ [2:0] $end
$var reg 3 o/ Interface__i1_s4___ether_mux_0_eth_data_out_ [2:0] $end
$var reg 3 r/ Interface__i1_s5___axis_data_fifo_1_M_AXIS_ [2:0] $end
$var reg 3 u/ Interface__i1_s6___l_ethernet_0_axis_rx_0_ [2:0] $end
$var reg 3 x/ T_Channel__i1_s0___cplane_packetizer_0_eth_data_ [2:0] $end
$var reg 3 {/ T_Channel__i1_s1___uplane_packetiser_0_eth_data_ [2:0] $end
$var reg 3 ~/ T_Channel__i1_s2___ecpri_mux_0_ctrl_user_data_out_ [2:0] $end
$var reg 3 #0 T_Channel__i1_s3___axis_data_fifo_5_M_AXIS_ [2:0] $end
$var reg 3 &0 T_Channel__i1_s4___ether_mux_0_eth_data_out_ [2:0] $end
$var reg 3 )0 T_Channel__i1_s5___axis_data_fifo_1_M_AXIS_ [2:0] $end
$var reg 3 ,0 T_Channel__i1_s6___l_ethernet_0_axis_rx_0_ [2:0] $end
$var reg 1 /0 _TRIGGER $end
$var reg 1 00 _WINDOW $end
$var reg 1 10 _GAP $end
$upscope $end
$enddefinitions $end
#0
$dumpvars
0"
b0 #
b0 '
b0 /
b0 ;
b10000000001010111011111110010000010011101110111011000000000000000000000010111111111111111111111111111111111111111111111111 >
b101000000100000000000000000000000000000000000000000000000000000000 `"
0H#
1I#
0J#
b0 K#
b0 m$
0}$
0~$
1!%
0"%
b0 #%
b1000000100000000000000000000000000000000000000000000000000000000 E&
0-'
1.'
0/'
b0 0'
b0 R(
0:)
1;)
0<)
b0 =)
b0 _*
0G+
1H+
0I+
b0 J+
b0 l,
0T-
0U-
0V-
b0 W-
b0 y.
0a/
0b/
b0 c/
b0 f/
b0 i/
b0 l/
b0 o/
b0 r/
b0 u/
b0 x/
b0 {/
b0 ~/
b0 #0
b0 &0
b0 )0
b0 ,0
0/0
100
010
$end
#2
b1000001100000000000000000000000000000000000000000000000000000000 `"
1H#
b1 c/
b1 x/
#3
b1 '
b0 >
b101000000100000000000000000000000000000000000000000000000000000000 `"
0H#
b11010111011111110000000100000000000000000101110110011101101000001111111111111111111111111111111111111111111111111 K#
b1111111111111111 m$
1~$
b0 c/
b1 f/
b0 x/
b1 {/
#4
b1 #
b10 '
b100001 /
b10000100000000010000000000000001000001100100000000011100000000001111010011001000000000000000010010010101001101 K#
#5
b11 '
b0 /
b0 K#
b0 m$
0~$
b10000000001010111011111110010000010011101110111011000000000000000000000010111111111111111111111111111111111111111111111111 J+
b1000001100000000000000000000000000000000000000000000000000000000 l,
1T-
b0 f/
b0 {/
#6
b1111111111111111 m$
1~$
b1 f/
b1 {/
#7
b100 '
b1 K#
#8
b101 '
b10 K#
#9
b110 '
b11 K#
b1 m$
#10
b11 '
b0 K#
b1111111111111111 m$
#11
b100 '
b100 K#
#12
b101 '
b101 K#
#13
b110 '
b110 K#
b1 m$
#14
b11 '
b0 K#
b1111111111111111 m$
#15
b100 '
b111 K#
1U-
b1 r/
b1 )0
#16
b101 '
b1000 K#
b10000000001010111011111110010000010011101110111011000000000000000000000010111111111111111111111111111111111111111111111111 #%
b1000001100000000000000000000000000000000000000000000000000000000 E&
1-'
0T-
0U-
b1 i/
b0 r/
b1 ~/
b0 )0
#17
b110 '
b1001 K#
b1 m$
b0 #%
b1000000100000000000000000000000000000000000000000000000000000000 E&
0-'
b0 i/
b0 ~/
#18
b11 '
b0 K#
b1111111111111111 m$
#19
b100 '
b110000000100100000000000000000000000010000101010000000011100100000010100000000000000000000000000000001000000000000000000000000 >
b1000001100000000000000000000000000000000000000000000000000000000 `"
1H#
b1010 K#
b1 c/
b1 x/
#20
b101 '
b0 >
b101000000100000000000000000000000000000000000000000000000000000000 `"
0H#
b1011 K#
b10000000001010111011111110010000010011101110111011000000000000000000000010111111111111111111111111111111111111111111111111 =)
b1000001100000000000000000000000000000000000000000000000000000000 _*
1G+
b0 c/
b1 o/
b0 x/
b1 &0
#21
b110 '
b1110101000101010000010100000000000000000001000000000000010100000000000000001011111111110000111111111110111111110000100000000000 >
b1000000100000000000000000000000000000000000000000000000000000000 `"
1H#
b1100 K#
b1 m$
b0 =)
b0 _*
0G+
b1 c/
b0 o/
b1 x/
b0 &0
#22
b11 '
b11010101111111111010111111111001011110101111101001010001010010001011111011111010100001001111100001100000101010101100000001010101 >
b0 K#
b1111111111111111 m$
b110000000100100000000000000000000000010000101010000000011100100000010100000000000000000000000000000001000000000000000000000000 J+
1T-
1U-
b1 r/
b1 )0
#23
b100 '
b10001100011011101101111110110000111011111101110101111011101011100001101010111000100011110101101000000111111000110111000011100110 >
b1101 K#
b110000000100100000000000000000000000010000101010000000011100100000010100000000000000000000000000000001000000000000000000000000 #%
b1000001100000000000000000000000000000000000000000000000000000000 E&
1-'
b10000000001010111011111110010000010011101110111011000000000000000000000010111111111111111111111111111111111111111111111111 0'
b1000001100000000000000000000000000000000000000000000000000000000 R(
1:)
0T-
0U-
b1 i/
b1 l/
b0 r/
b1 ~/
b1 #0
b0 )0
#24
b101 '
b1010000001110110111101111000010110011101101011011110101100011101010100110010100110111001011001111111001111010000111000000010001 >
b1110 K#
b0 #%
b1000000100000000000000000000000000000000000000000000000000000000 E&
0-'
0:)
b1110101000101010000010100000000000000000001000000000000010100000000000000001011111111110000111111111110111111110000100000000000 J+
b1000000100000000000000000000000000000000000000000000000000000000 l,
1T-
1U-
b0 i/
b0 l/
b1 r/
b0 ~/
b0 #0
b1 )0
#25
b110 '
b11101000101111111011111010111110100011110011001001010111101101110011101000010000100010000010101010001010011110110111011101100000 >
b1111 K#
b1 m$
b1110101000101010000010100000000000000000001000000000000010100000000000000001011111111110000111111111110111111110000100000000000 #%
1-'
b11010101111111111010111111111001011110101111101001010001010010001011111011111010100001001111100001100000101010101100000001010101 J+
b1 i/
b1 ~/
#26
b11 '
b11000111100000110000101100011011100101100001100011110010100111111110010010110100101000010001000010000111110011110000101000011000 >
b0 K#
b1111111111111111 m$
b11010101111111111010111111111001011110101111101001010001010010001011111011111010100001001111100001100000101010101100000001010101 #%
b10001100011011101101111110110000111011111101110101111011101011100001101010111000100011110101101000000111111000110111000011100110 J+
#27
b100 '
b1110001101110011101111100000111101110111011011001011010001001101010110001100000000101111001101000111011111001000110101110110111 >
b10000 K#
b10001100011011101101111110110000111011111101110101111011101011100001101010111000100011110101101000000111111000110111000011100110 #%
b110000000100100000000000000000000000010000101010000000011100100000010100000000000000000000000000000001000000000000000000000000 =)
b1000001100000000000000000000000000000000000000000000000000000000 _*
1G+
b1010000001110110111101111000010110011101101011011110101100011101010100110010100110111001011001111111001111010000111000000010001 J+
b1 o/
b1 &0
#28
b101 '
b1100111110010000000101000001111110111000011100011100010111110101010110101101110111100111100010111001111011001001010000101111101 >
b10001 K#
b1010000001110110111101111000010110011101101011011110101100011101010100110010100110111001011001111111001111010000111000000010001 #%
b0 =)
b0 _*
0G+
b11101000101111111011111010111110100011110011001001010111101101110011101000010000100010000010101010001010011110110111011101100000 J+
b0 o/
b0 &0
#29
b110 '
b100001111011101110100011100011001001001010111011011100100000000010110001111100110001011011010011000010100101001000101110111011 >
b10010 K#
b1 m$
b11101000101111111011111010111110100011110011001001010111101101110011101000010000100010000010101010001010011110110111011101100000 #%
b1110101000101010000010100000000000000000001000000000000010100000000000000001011111111110000111111111110111111110000100000000000 =)
b1000000100000000000000000000000000000000000000000000000000000000 _*
1G+
b11000111100000110000101100011011100101100001100011110010100111111110010010110100101000010001000010000111110011110000101000011000 J+
b1 o/
b1 &0
#30
b11 '
b1111110100111001100111110000111101011010111001000101010010101101101110010000000111101111011000100110101110010100110011110110000 >
b0 K#
b1111111111111111 m$
b11000111100000110000101100011011100101100001100011110010100111111110010010110100101000010001000010000111110011110000101000011000 #%
b110000000100100000000000000000000000010000101010000000011100100000010100000000000000000000000000000001000000000000000000000000 0'
1:)
b11010101111111111010111111111001011110101111101001010001010010001011111011111010100001001111100001100000101010101100000001010101 =)
b1110001101110011101111100000111101110111011011001011010001001101010110001100000000101111001101000111011111001000110101110110111 J+
b1 l/
b1 #0
#31
b100 '
b11110011000101000011010111011110111010010010001001010101001011110101111100100001111001000110010101101110111000010101111101111 >
b10011 K#
b1110001101110011101111100000111101110111011011001011010001001101010110001100000000101111001101000111011111001000110101110110111 #%
0:)
b10001100011011101101111110110000111011111101110101111011101011100001101010111000100011110101101000000111111000110111000011100110 =)
b1100111110010000000101000001111110111000011100011100010111110101010110101101110111100111100010111001111011001001010000101111101 J+
b0 l/
b0 #0
#32
b101 '
b11101011010001101010010101010011000100010110011010010110111101001110001010111100001100011111001001110111111001111101111110110001 >
b10100 K#
b1100111110010000000101000001111110111000011100011100010111110101010110101101110111100111100010111001111011001001010000101111101 #%
b1110101000101010000010100000000000000000001000000000000010100000000000000001011111111110000111111111110111111110000100000000000 0'
b1000000100000000000000000000000000000000000000000000000000000000 R(
1:)
b1010000001110110111101111000010110011101101011011110101100011101010100110010100110111001011001111111001111010000111000000010001 =)
b100001111011101110100011100011001001001010111011011100100000000010110001111100110001011011010011000010100101001000101110111011 J+
b1 l/
b1 #0
#33
b110 '
b1011001001100100101011010111101000001110011100111101000101000010111111001101011011001000100011101001110010001000100111110011010 >
b10101 K#
b1 m$
b100001111011101110100011100011001001001010111011011100100000000010110001111100110001011011010011000010100101001000101110111011 #%
b11010101111111111010111111111001011110101111101001010001010010001011111011111010100001001111100001100000101010101100000001010101 0'
b11101000101111111011111010111110100011110011001001010111101101110011101000010000100010000010101010001010011110110111011101100000 =)
b1111110100111001100111110000111101011010111001000101010010101101101110010000000111101111011000100110101110010100110011110110000 J+
#34
b11 '
b1011100111000100000011001001101010111011110011001101110010011000100101101110000011100000100110100001001011100110111010110111110 >
b0 K#
b1111111111111111 m$
b1111110100111001100111110000111101011010111001000101010010101101101110010000000111101111011000100110101110010100110011110110000 #%
b10001100011011101101111110110000111011111101110101111011101011100001101010111000100011110101101000000111111000110111000011100110 0'
b11000111100000110000101100011011100101100001100011110010100111111110010010110100101000010001000010000111110011110000101000011000 =)
b11110011000101000011010111011110111010010010001001010101001011110101111100100001111001000110010101101110111000010101111101111 J+
#35
b100 '
b11010010000101110101111100100010111101101011110110011000100001001101101001000001100001011010010010011001111011010101111010000111 >
b10110 K#
b11110011000101000011010111011110111010010010001001010101001011110101111100100001111001000110010101101110111000010101111101111 #%
b1010000001110110111101111000010110011101101011011110101100011101010100110010100110111001011001111111001111010000111000000010001 0'
b1110001101110011101111100000111101110111011011001011010001001101010110001100000000101111001101000111011111001000110101110110111 =)
b11101011010001101010010101010011000100010110011010010110111101001110001010111100001100011111001001110111111001111101111110110001 J+
#36
b101 '
b1110010100010111110001110010000111001100100111000101010110100101100111011001110100000011011011100100000000101110001000101011000 >
b10111 K#
b11101011010001101010010101010011000100010110011010010110111101001110001010111100001100011111001001110111111001111101111110110001 #%
b11101000101111111011111010111110100011110011001001010111101101110011101000010000100010000010101010001010011110110111011101100000 0'
b1100111110010000000101000001111110111000011100011100010111110101010110101101110111100111100010111001111011001001010000101111101 =)
b1011001001100100101011010111101000001110011100111101000101000010111111001101011011001000100011101001110010001000100111110011010 J+
#37
b110 '
b100101000001000000000111001110101110110111101101001101001110001111100111000110111011010110100001000100101001100111101 >
b11000 K#
b1 m$
b1011001001100100101011010111101000001110011100111101000101000010111111001101011011001000100011101001110010001000100111110011010 #%
b11000111100000110000101100011011100101100001100011110010100111111110010010110100101000010001000010000111110011110000101000011000 0'
b100001111011101110100011100011001001001010111011011100100000000010110001111100110001011011010011000010100101001000101110111011 =)
b1011100111000100000011001001101010111011110011001101110010011000100101101110000011100000100110100001001011100110111010110111110 J+
#38
b11 '
b10111001100111010101000001100100101000101010010000100010110100111000110111101010100010010110010001001101110010001010100000101 >
b0 K#
b1111111111111111 m$
b1011100111000100000011001001101010111011110011001101110010011000100101101110000011100000100110100001001011100110111010110111110 #%
b1110001101110011101111100000111101110111011011001011010001001101010110001100000000101111001101000111011111001000110101110110111 0'
b1111110100111001100111110000111101011010111001000101010010101101101110010000000111101111011000100110101110010100110011110110000 =)
b11010010000101110101111100100010111101101011110110011000100001001101101001000001100001011010010010011001111011010101111010000111 J+
#39
b100 '
b11011101001001111001100110001001010011111101010001000101000000001111010011101000000001100011001100011001001010101110101100101000 >
b11001 K#
b11010010000101110101111100100010111101101011110110011000100001001101101001000001100001011010010010011001111011010101111010000111 #%
b1100111110010000000101000001111110111000011100011100010111110101010110101101110111100111100010111001111011001001010000101111101 0'
0;)
b11110011000101000011010111011110111010010010001001010101001011110101111100100001111001000110010101101110111000010101111101111 =)
b1110010100010111110001110010000111001100100111000101010110100101100111011001110100000011011011100100000000101110001000101011000 J+
b0 l/
b0 #0
#40
b101 '
b11100000100101111001100001000000100111110111001011010111111101101100011011000111101110101101100001000001001100000010010111001101 >
b11010 K#
b1110010100010111110001110010000111001100100111000101010110100101100111011001110100000011011011100100000000101110001000101011000 #%
1;)
b11101011010001101010010101010011000100010110011010010110111101001110001010111100001100011111001001110111111001111101111110110001 =)
b100101000001000000000111001110101110110111101101001101001110001111100111000110111011010110100001000100101001100111101 J+
b1 l/
b1 #0
#41
b110 '
b101100010001101010110101010001101100110010110100100001111001001010101111111101011000000010010001001000011001010011000111010011 >
b11011 K#
b1 m$
b100101000001000000000111001110101110110111101101001101001110001111100111000110111011010110100001000100101001100111101 #%
b100001111011101110100011100011001001001010111011011100100000000010110001111100110001011011010011000010100101001000101110111011 0'
b1011001001100100101011010111101000001110011100111101000101000010111111001101011011001000100011101001110010001000100111110011010 =)
b10111001100111010101000001100100101000101010010000100010110100111000110111101010100010010110010001001101110010001010100000101 J+
#42
b11 '
b101111110000111101100011100111010010101110100010001010000001110010011011101010100111101011111111010010100111001000100101101101 >
b0 K#
b1111111111111111 m$
b10111001100111010101000001100100101000101010010000100010110100111000110111101010100010010110010001001101110010001010100000101 #%
b1111110100111001100111110000111101011010111001000101010010101101101110010000000111101111011000100110101110010100110011110110000 0'
b1011100111000100000011001001101010111011110011001101110010011000100101101110000011100000100110100001001011100110111010110111110 =)
b11011101001001111001100110001001010011111101010001000101000000001111010011101000000001100011001100011001001010101110101100101000 J+
#43
b100 '
b101111101000000000000101001001001000011011100000110101101101011010010111000000001100101010100001000100100010000001101101101001 >
b11100 K#
b11011101001001111001100110001001010011111101010001000101000000001111010011101000000001100011001100011001001010101110101100101000 #%
b11110011000101000011010111011110111010010010001001010101001011110101111100100001111001000110010101101110111000010101111101111 0'
b11010010000101110101111100100010111101101011110110011000100001001101101001000001100001011010010010011001111011010101111010000111 =)
b11100000100101111001100001000000100111110111001011010111111101101100011011000111101110101101100001000001001100000010010111001101 J+
#44
b101 '
b10101000101110000001101011000110000001000101001001001101010000100101010110101000111011010110010101001111011100000111000010100011 >
b11101 K#
b11100000100101111001100001000000100111110111001011010111111101101100011011000111101110101101100001000001001100000010010111001101 #%
b11101011010001101010010101010011000100010110011010010110111101001110001010111100001100011111001001110111111001111101111110110001 0'
b1110010100010111110001110010000111001100100111000101010110100101100111011001110100000011011011100100000000101110001000101011000 =)
b101100010001101010110101010001101100110010110100100001111001001010101111111101011000000010010001001000011001010011000111010011 J+
#45
b110 '
b10010100000000011111000000010100110000111001010101101100011100110000000111111001001001101111000100001110110000101101011010111010 >
b11110 K#
b1 m$
b101100010001101010110101010001101100110010110100100001111001001010101111111101011000000010010001001000011001010011000111010011 #%
b1011001001100100101011010111101000001110011100111101000101000010111111001101011011001000100011101001110010001000100111110011010 0'
b100101000001000000000111001110101110110111101101001101001110001111100111000110111011010110100001000100101001100111101 =)
b101111110000111101100011100111010010101110100010001010000001110010011011101010100111101011111111010010100111001000100101101101 J+
#46
b11 '
b11111010011011011101011001111111111011100110111110010101110110100000000101110010110011001000100111000100000111100010010101000 >
b0 K#
b1111111111111111 m$
b101111110000111101100011100111010010101110100010001010000001110010011011101010100111101011111111010010100111001000100101101101 #%
b1011100111000100000011001001101010111011110011001101110010011000100101101110000011100000100110100001001011100110111010110111110 0'
b10111001100111010101000001100100101000101010010000100010110100111000110111101010100010010110010001001101110010001010100000101 =)
b101111101000000000000101001001001000011011100000110101101101011010010111000000001100101010100001000100100010000001101101101001 J+
#47
b100 '
b1001001100101011101111101010001110111010001101111111110001001110000001011111111001101100010001011111100000010101000000011110100 >
b11111 K#
b101111101000000000000101001001001000011011100000110101101101011010010111000000001100101010100001000100100010000001101101101001 #%
b11010010000101110101111100100010111101101011110110011000100001001101101001000001100001011010010010011001111011010101111010000111 0'
b11011101001001111001100110001001010011111101010001000101000000001111010011101000000001100011001100011001001010101110101100101000 =)
b10101000101110000001101011000110000001000101001001001101010000100101010110101000111011010110010101001111011100000111000010100011 J+
#48
b101 '
b11010101101110000011111011111001101000101111111000000101111011111010001010001001010010000100110101100011000010110101110001101010 >
b100000 K#
b10101000101110000001101011000110000001000101001001001101010000100101010110101000111011010110010101001111011100000111000010100011 #%
b1110010100010111110001110010000111001100100111000101010110100101100111011001110100000011011011100100000000101110001000101011000 0'
b11100000100101111001100001000000100111110111001011010111111101101100011011000111101110101101100001000001001100000010010111001101 =)
b10010100000000011111000000010100110000111001010101101100011100110000000111111001001001101111000100001110110000101101011010111010 J+
#49
b110 '
b1001000100101001101101011011101000010000101101100001010101101001001010100000101000110101111111000010111101101000001000001011110 >
b100001 K#
b1 m$
b10010100000000011111000000010100110000111001010101101100011100110000000111111001001001101111000100001110110000101101011010111010 #%
b100101000001000000000111001110101110110111101101001101001110001111100111000110111011010110100001000100101001100111101 0'
b101100010001101010110101010001101100110010110100100001111001001010101111111101011000000010010001001000011001010011000111010011 =)
b11111010011011011101011001111111111011100110111110010101110110100000000101110010110011001000100111000100000111100010010101000 J+
#50
b11 '
b11000011001011001111111111111101100110101101101110001101111000100000001001100010000010000110000011001110100100110011111011011101 >
b0 K#
b1111111111111111 m$
b11111010011011011101011001111111111011100110111110010101110110100000000101110010110011001000100111000100000111100010010101000 #%
b10111001100111010101000001100100101000101010010000100010110100111000110111101010100010010110010001001101110010001010100000101 0'
b101111110000111101100011100111010010101110100010001010000001110010011011101010100111101011111111010010100111001000100101101101 =)
b1001001100101011101111101010001110111010001101111111110001001110000001011111111001101100010001011111100000010101000000011110100 J+
#51
b100 '
b1100100010010000000111100001100110010110100011010001011100010011011011101000000101110000100100100001010111001100001111100101 >
b100010 K#
b1001001100101011101111101010001110111010001101111111110001001110000001011111111001101100010001011111100000010101000000011110100 #%
b11011101001001111001100110001001010011111101010001000101000000001111010011101000000001100011001100011001001010101110101100101000 0'
b101111101000000000000101001001001000011011100000110101101101011010010111000000001100101010100001000100100010000001101101101001 =)
b11010101101110000011111011111001101000101111111000000101111011111010001010001001010010000100110101100011000010110101110001101010 J+
#52
b101 '
b10110111101100000110101111011001011110011010110001101001011101010111100100111000110110100010100000111110000101111111101100010011 >
b100011 K#
b11010101101110000011111011111001101000101111111000000101111011111010001010001001010010000100110101100011000010110101110001101010 #%
b11100000100101111001100001000000100111110111001011010111111101101100011011000111101110101101100001000001001100000010010111001101 0'
b10101000101110000001101011000110000001000101001001001101010000100101010110101000111011010110010101001111011100000111000010100011 =)
b1001000100101001101101011011101000010000101101100001010101101001001010100000101000110101111111000010111101101000001000001011110 J+
#53
b110 '
b10111100001111111111010100001110110010101010001001011001101001001111110101011111101011010011100110001100111101011010010101001100 >
b100100 K#
b1 m$
b1001000100101001101101011011101000010000101101100001010101101001001010100000101000110101111111000010111101101000001000001011110 #%
b101100010001101010110101010001101100110010110100100001111001001010101111111101011000000010010001001000011001010011000111010011 0'
b10010100000000011111000000010100110000111001010101101100011100110000000111111001001001101111000100001110110000101101011010111010 =)
b11000011001011001111111111111101100110101101101110001101111000100000001001100010000010000110000011001110100100110011111011011101 J+
#54
b11 '
b10101000010111001111001110110111001000010001100100011001011101011001010100101000000010001000100001010000000000100110111110111 >
b0 K#
b1111111111111111 m$
b11000011001011001111111111111101100110101101101110001101111000100000001001100010000010000110000011001110100100110011111011011101 #%
b101111110000111101100011100111010010101110100010001010000001110010011011101010100111101011111111010010100111001000100101101101 0'
b11111010011011011101011001111111111011100110111110010101110110100000000101110010110011001000100111000100000111100010010101000 =)
b1100100010010000000111100001100110010110100011010001011100010011011011101000000101110000100100100001010111001100001111100101 J+
#55
b100 '
b111101011100111100110000101100100010110110101111010111001101110000100010000110000011101100110111010100110100000100001001011010 >
b100101 K#
b1100100010010000000111100001100110010110100011010001011100010011011011101000000101110000100100100001010111001100001111100101 #%
b101111101000000000000101001001001000011011100000110101101101011010010111000000001100101010100001000100100010000001101101101001 0'
b1001001100101011101111101010001110111010001101111111110001001110000001011111111001101100010001011111100000010101000000011110100 =)
b10110111101100000110101111011001011110011010110001101001011101010111100100111000110110100010100000111110000101111111101100010011 J+
#56
b101 '
b10111111110010011010101001110001110011011100100111000100001000110011101000011101101001011100100111110100100110110101001111011 >
b100110 K#
b10110111101100000110101111011001011110011010110001101001011101010111100100111000110110100010100000111110000101111111101100010011 #%
b10101000101110000001101011000110000001000101001001001101010000100101010110101000111011010110010101001111011100000111000010100011 0'
b11010101101110000011111011111001101000101111111000000101111011111010001010001001010010000100110101100011000010110101110001101010 =)
b10111100001111111111010100001110110010101010001001011001101001001111110101011111101011010011100110001100111101011010010101001100 J+
#57
b110 '
b1010000000011000110011011000111010000011011101110110100100110111100100111011001100110000011011000000010011011100100001001000010 >
b100111 K#
b1 m$
b10111100001111111111010100001110110010101010001001011001101001001111110101011111101011010011100110001100111101011010010101001100 #%
b10010100000000011111000000010100110000111001010101101100011100110000000111111001001001101111000100001110110000101101011010111010 0'
b1001000100101001101101011011101000010000101101100001010101101001001010100000101000110101111111000010111101101000001000001011110 =)
b10101000010111001111001110110111001000010001100100011001011101011001010100101000000010001000100001010000000000100110111110111 J+
#58
b11 '
b1001000010110101000001000111000111011010010011000000111110111111010111100011001110101000010101111010101011100010101000000101010 >
b0 K#
b1111111111111111 m$
b10101000010111001111001110110111001000010001100100011001011101011001010100101000000010001000100001010000000000100110111110111 #%
b11111010011011011101011001111111111011100110111110010101110110100000000101110010110011001000100111000100000111100010010101000 0'
b11000011001011001111111111111101100110101101101110001101111000100000001001100010000010000110000011001110100100110011111011011101 =)
b111101011100111100110000101100100010110110101111010111001101110000100010000110000011101100110111010100110100000100001001011010 J+
#59
b100 '
b10010110011100110010000011100000110010110000100100000110011000000110000100110001110000111100010000010110101101010111111101000 >
b101000 K#
b111101011100111100110000101100100010110110101111010111001101110000100010000110000011101100110111010100110100000100001001011010 #%
b1001001100101011101111101010001110111010001101111111110001001110000001011111111001101100010001011111100000010101000000011110100 0'
b1100100010010000000111100001100110010110100011010001011100010011011011101000000101110000100100100001010111001100001111100101 =)
b10111111110010011010101001110001110011011100100111000100001000110011101000011101101001011100100111110100100110110101001111011 J+
#60
b101 '
b11011000011100111001100000100110010010011001000100100001000010001011001011010011100111001010000001100010010011001000010010100000 >
b101001 K#
b10111111110010011010101001110001110011011100100111000100001000110011101000011101101001011100100111110100100110110101001111011 #%
b11010101101110000011111011111001101000101111111000000101111011111010001010001001010010000100110101100011000010110101110001101010 0'
b10110111101100000110101111011001011110011010110001101001011101010111100100111000110110100010100000111110000101111111101100010011 =)
b1010000000011000110011011000111010000011011101110110100100110111100100111011001100110000011011000000010011011100100001001000010 J+
#61
b110 '
b101000100111110001010011100010010111001001101100000101001101010101000101110101101000001111011011100011010111011010001100111010 >
b101010 K#
b1 m$
b1010000000011000110011011000111010000011011101110110100100110111100100111011001100110000011011000000010011011100100001001000010 #%
b1001000100101001101101011011101000010000101101100001010101101001001010100000101000110101111111000010111101101000001000001011110 0'
b10111100001111111111010100001110110010101010001001011001101001001111110101011111101011010011100110001100111101011010010101001100 =)
b1001000010110101000001000111000111011010010011000000111110111111010111100011001110101000010101111010101011100010101000000101010 J+
#62
b11 '
b10100011001101001100110010001011000010000000110100111000100010101110010010111111111111000101001011110011101110000111100000010001 >
b0 K#
b1111111111111111 m$
b1001000010110101000001000111000111011010010011000000111110111111010111100011001110101000010101111010101011100010101000000101010 #%
b11000011001011001111111111111101100110101101101110001101111000100000001001100010000010000110000011001110100100110011111011011101 0'
b10101000010111001111001110110111001000010001100100011001011101011001010100101000000010001000100001010000000000100110111110111 =)
b10010110011100110010000011100000110010110000100100000110011000000110000100110001110000111100010000010110101101010111111101000 J+
#63
b100 '
b1010001111011001110001110010010110100101110101110010000001001110110010110001010100110010000011101110001000110110110111001100 >
b101011 K#
b10010110011100110010000011100000110010110000100100000110011000000110000100110001110000111100010000010110101101010111111101000 #%
b1100100010010000000111100001100110010110100011010001011100010011011011101000000101110000100100100001010111001100001111100101 0'
b111101011100111100110000101100100010110110101111010111001101110000100010000110000011101100110111010100110100000100001001011010 =)
b11011000011100111001100000100110010010011001000100100001000010001011001011010011100111001010000001100010010011001000010010100000 J+
#64
b101 '
b11000000000011101011101111101101110101010100111110001000000001001011101101100011100100000111100100110010011011101011000111001111 >
b101100 K#
b11011000011100111001100000100110010010011001000100100001000010001011001011010011100111001010000001100010010011001000010010100000 #%
b10110111101100000110101111011001011110011010110001101001011101010111100100111000110110100010100000111110000101111111101100010011 0'
b10111111110010011010101001110001110011011100100111000100001000110011101000011101101001011100100111110100100110110101001111011 =)
b101000100111110001010011100010010111001001101100000101001101010101000101110101101000001111011011100011010111011010001100111010 J+
