Looping_Hardware-design/project_1/.Xil/Vivado-24165-client32/hw_ila_data_2/zip_work/waveform.vcd
$date
        2023-Mar-25 12:08:50
$end
$version
        Vivado v2019.1 (64-bit)
$end
$timescale
        1ps
$end
$scope module dut $end
$var reg 4 " check_40G_sim_i/system_ila_1/inst/probe0_1 [3:0] $end
$var reg 8 & check_40G_sim_i/system_ila_1/inst/probe1_1 [7:0] $end
$var reg 128 . check_40G_sim_i/system_ila_1/inst/net_slot_0_axis_tdata [127:0] $end
$var reg 16 P" check_40G_sim_i/system_ila_1/inst/net_slot_0_axis_tkeep [15:0] $end
$var reg 1 `" check_40G_sim_i/system_ila_1/inst/net_slot_0_axis_tvalid $end
$var reg 1 a" check_40G_sim_i/system_ila_1/inst/net_slot_0_axis_tready $end
$var reg 1 b" check_40G_sim_i/system_ila_1/inst/net_slot_0_axis_tlast $end
$var reg 64 c" check_40G_sim_i/system_ila_1/inst/net_slot_1_axis_tdata [63:0] $end
$var reg 8 E# check_40G_sim_i/system_ila_1/inst/net_slot_1_axis_tkeep [7:0] $end
$var reg 8 M# check_40G_sim_i/system_ila_1/inst/net_slot_1_axis_tuser [7:0] $end
$var reg 1 U# check_40G_sim_i/system_ila_1/inst/net_slot_1_axis_tvalid $end
$var reg 1 V# check_40G_sim_i/system_ila_1/inst/net_slot_1_axis_tready $end
$var reg 1 W# check_40G_sim_i/system_ila_1/inst/net_slot_1_axis_tlast $end
$var reg 128 X# check_40G_sim_i/system_ila_1/inst/net_slot_2_axis_tdata [127:0] $end
$var reg 16 z$ check_40G_sim_i/system_ila_1/inst/net_slot_2_axis_tkeep [15:0] $end
$var reg 1 ,% check_40G_sim_i/system_ila_1/inst/net_slot_2_axis_tuser $end
$var reg 1 -% check_40G_sim_i/system_ila_1/inst/net_slot_2_axis_tvalid $end
$var reg 1 .% check_40G_sim_i/system_ila_1/inst/net_slot_2_axis_tready $end
$var reg 1 /% check_40G_sim_i/system_ila_1/inst/net_slot_2_axis_tlast $end
$var reg 128 0% check_40G_sim_i/system_ila_1/inst/net_slot_3_axis_tdata [127:0] $end
$var reg 16 R& check_40G_sim_i/system_ila_1/inst/net_slot_3_axis_tkeep [15:0] $end
$var reg 1 b& check_40G_sim_i/system_ila_1/inst/net_slot_3_axis_tvalid $end
$var reg 1 c& check_40G_sim_i/system_ila_1/inst/net_slot_3_axis_tready $end
$var reg 1 d& check_40G_sim_i/system_ila_1/inst/net_slot_3_axis_tlast $end
$var reg 48 e& check_40G_sim_i/system_ila_1/inst/net_slot_4_axis_tdata [47:0] $end
$var reg 1 7' check_40G_sim_i/system_ila_1/inst/net_slot_4_axis_tvalid $end
$var reg 1 8' check_40G_sim_i/system_ila_1/inst/net_slot_4_axis_tready $end
$var reg 1 9' check_40G_sim_i/system_ila_1/inst/net_slot_4_axis_tlast $end
$var reg 32 :' check_40G_sim_i/system_ila_1/inst/net_slot_5_axis_tdata [31:0] $end
$var reg 1 Z' check_40G_sim_i/system_ila_1/inst/net_slot_5_axis_tvalid $end
$var reg 1 [' check_40G_sim_i/system_ila_1/inst/net_slot_5_axis_tready $end
$var reg 1 \' check_40G_sim_i/system_ila_1/inst/net_slot_5_axis_tlast $end
$var reg 3 ]' Interface__i2_s0___uplane_packetiser_0_eth_data1_ [2:0] $end
$var reg 3 `' Interface__i2_s1___axis_data_fifo_5_M_AXIS_ [2:0] $end
$var reg 3 c' Interface__i2_s2___ethernet_mux_0_eth_data_out_ [2:0] $end
$var reg 3 f' Interface__i2_s3___tkeep_cleaner_FAPI_0_master_ [2:0] $end
$var reg 3 i' Interface__i2_s4___Data_Gen_1_application_header_ [2:0] $end
$var reg 3 l' Interface__i2_s5___Data_Gen_1_section_header_ [2:0] $end
$var reg 3 o' T_Channel__i2_s0___uplane_packetiser_0_eth_data1_ [2:0] $end
$var reg 3 r' T_Channel__i2_s1___axis_data_fifo_5_M_AXIS_ [2:0] $end
$var reg 3 u' T_Channel__i2_s2___ethernet_mux_0_eth_data_out_ [2:0] $end
$var reg 3 x' T_Channel__i2_s3___tkeep_cleaner_FAPI_0_master_ [2:0] $end
$var reg 3 {' T_Channel__i2_s4___Data_Gen_1_application_header_ [2:0] $end
$var reg 3 ~' T_Channel__i2_s5___Data_Gen_1_section_header_ [2:0] $end
$var reg 1 #( _TRIGGER $end
$var reg 1 $( _WINDOW $end
$var reg 1 %( _GAP $end
$upscope $end
$enddefinitions $end
#0
$dumpvars
b1111 "
b0 &
b10101000000000000000000000000000000000000000000000000000000000000000000000000000000000000000000000000000000000000000000000000 .
b0 P"
0`"
0a"
0b"
b1000100000000111111111111111111111111111111111111111111111111 c"
b11111111 E#
b0 M#
0U#
1V#
0W#
b0 X#
b0 z$
0,%
0-%
1.%
0/%
b0 0%
b0 R&
0b&
1c&
0d&
b11001010100111001101100100000000 e&
07'
08'
09'
b111100101001110000101010010000 :'
0Z'
0['
0\'
b0 ]'
b0 `'
b0 c'
b0 f'
b0 i'
b0 l'
b0 o'
b0 r'
b0 u'
b0 x'
b0 {'
b0 ~'
0#(
1$(
0%(
$end
#99
1a"
#100
b1 &
b1000000000000000010000001010101010100010000110011001000100001000100000000111111111111111111111111111111111111111111111111 .
b1111111111111111 P"
1`"
b1 ]'
b1 o'
1#(
#101
b10 &
b11111111010101110 .
b1111 P"
b1000000000000000010000001010101010100010000110011001000100001000100000000111111111111111111111111111111111111111111111111 0%
b1111111111111111 R&
1b&
b1 f'
b1 x'
#102
b11 &
b1100001110101000010000000001001111011100010000101000001001000000000000000100000000000100001001000000000000 .
b1111111111111111 P"
b11111111010101110 0%
b1111 R&
0b&
18'
1Z'
1['
b0 f'
b1 l'
b0 x'
b1 ~'
#103
b100 &
b11001000000000000000000000000000000000000000000000000000000000000000000000000000000000000000000000000000000000000000000000000 .
b10100001000000000100111101110001000010100000100100000000000000010000000000010000100100000000000000000000000000011111111010101110 0%
b1111111111111111 R&
1b&
b11110001001011000000000000110 e&
17'
b1100001111010010110000000000000 :'
0Z'
0['
b1 f'
b1 i'
b0 l'
b1 x'
b1 {'
b0 ~'
#104
b101 &
b11010000000000000000000000000000000000000000000000000000000000000000000000000000000000000000000000000000000000000000000000000 .
b1100001110 0%
b11001010100111001101100100000000 e&
07'
08'
b111100101001110000101010010000 :'
b0 i'
b0 {'
#105
b110 &
b11011000000000000000000000000000000000000000000000000000000000000000000000000000000000000000000000000000000000000000000000000 .
b1000000000000000010000001010101010100010000110011001000100001000100000000111111111111111111111111111111111111111111111111 X#
b1111111111111111 z$
1-%
b11001000000000000000000000000 0%
b1 c'
b1 u'
#106
b100 &
b11100000000000000000000000000000000000000000000000000000000000000000000000000000000000000000000000000000000000000000000000000 .
b0 X#
b0 z$
0-%
0.%
b11010000000000000000000000000 0%
b0 c'
b0 u'
#107
b101 &
b11101000000000000000000000000000000000000000000000000000000000000000000000000000000000000000000000000000000000000000000000000 .
b10100001000000000100111101110001000010100000100100000000000000010000000000010000100100000000000000000000000000011111111010101110 X#
b1111111111111111 z$
1-%
1.%
b11011000000000000000000000000 0%
b1 c'
b1 u'
#108
b110 &
b11110000000000000000000000000000000000000000000000000000000000000000000000000000000000000000000000000000000000000000000000000 .
b1100001110 X#
0-%
0.%
b11100000000000000000000000000 0%
b0 c'
b0 u'
#109
b100 &
b11111000000000000000000000000000000000000000000000000000000000000000000000000000000000000000000000000000000000000000000000000 .
1-%
1.%
b11101000000000000000000000000 0%
b1 c'
b1 u'
#110
b101 &
b100000000000000000000000000000000000000000000000000000000000000000000000000000000000000000000000000000000000000000000000000000 .
b11001000000000000000000000000 X#
0-%
0.%
b11110000000000000000000000000 0%
b0 c'
b0 u'
#111
b110 &
b100001000000000000000000000000000000000000000000000000000000000000000000000000000000000000000000000000000000000000000000000000 .
1-%
1.%
b11111000000000000000000000000 0%
b1 c'
b1 u'
#112
b100 &
b100010000000000000000000000000000000000000000000000000000000000000000000000000000000000000000000000000000000000000000000000000 .
b11010000000000000000000000000 X#
0-%
0.%
b100000000000000000000000000000 0%
b0 c'
b0 u'
#113
b101 &
b100011000000000000000000000000000000000000000000000000000000000000000000000000000000000000000000000000000000000000000000000000 .
1-%
1.%
b100001000000000000000000000000 0%
b1 c'
b1 u'
#114
b110 &
b100100000000000000000000000000000000000000000000000000000000000000000000000000000000000000000000000000000000000000000000000000 .
b11011000000000000000000000000 X#
0-%
0.%
b100010000000000000000000000000 0%
b0 c'
b0 u'
#115
b100 &
b100101000000000000000000000000000000000000000000000000000000000000000000000000000000000000000000000000000000000000000000000000 .
1-%
1.%
b100011000000000000000000000000 0%
b1 c'
b1 u'
#116
b101 &
b100110000000000000000000000000000000000000000000000000000000000000000000000000000000000000000000000000000000000000000000000000 .
b11100000000000000000000000000 X#
0-%
0.%
b100100000000000000000000000000 0%
b0 c'
b0 u'
#117
b110 &
b100111000000000000000000000000000000000000000000000000000000000000000000000000000000000000000000000000000000000000000000000000 .
1-%
1.%
b100101000000000000000000000000 0%
b1 c'
b1 u'
#118
b100 &
b101000000000000000000000000000000000000000000000000000000000000000000000000000000000000000000000000000000000000000000000000000 .
b11101000000000000000000000000 X#
0-%
0.%
b100110000000000000000000000000 0%
b0 c'
b0 u'
#119
b101 &
b101001000000000000000000000000000000000000000000000000000000000000000000000000000000000000000000000000000000000000000000000000 .
1-%
1.%
b100111000000000000000000000000 0%
b1 c'
b1 u'
#120
b110 &
b101010000000000000000000000000000000000000000000000000000000000000000000000000000000000000000000000000000000000000000000000000 .
b11110000000000000000000000000 X#
0-%
0.%
b101000000000000000000000000000 0%
b0 c'
b0 u'
#121
b100 &
b101011000000000000000000000000000000000000000000000000000000000000000000000000000000000000000000000000000000000000000000000000 .
1-%
1.%
b101001000000000000000000000000 0%
b1 c'
b1 u'
#122
b101 &
b101100000000000000000000000000000000000000000000000000000000000000000000000000000000000000000000000000000000000000000000000000 .
b11111000000000000000000000000 X#
0-%
0.%
b101010000000000000000000000000 0%
b0 c'
b0 u'
#123
b110 &
b101101000000000000000000000000000000000000000000000000000000000000000000000000000000000000000000000000000000000000000000000000 .
1-%
1.%
b101011000000000000000000000000 0%
b1 c'
b1 u'
#124
b100 &
b101110000000000000000000000000000000000000000000000000000000000000000000000000000000000000000000000000000000000000000000000000 .
b100000000000000000000000000000 X#
0-%
0.%
b101100000000000000000000000000 0%
b0 c'
b0 u'
#125
b101 &
b101111000000000000000000000000000000000000000000000000000000000000000000000000000000000000000000000000000000000000000000000000 .
1-%
1.%
b101101000000000000000000000000 0%
b1 c'
b1 u'
#126
b110 &
b110000000000000000000000000000000000000000000000000000000000000000000000000000000000000000000000000000000000000000000000000000 .
b100001000000000000000000000000 X#
0-%
0.%
b101110000000000000000000000000 0%
b0 c'
b0 u'
#127
b100 &
b110001000000000000000000000000000000000000000000000000000000000000000000000000000000000000000000000000000000000000000000000000 .
1-%
1.%
b101111000000000000000000000000 0%
b1 c'
b1 u'
#128
b101 &
b110010000000000000000000000000000000000000000000000000000000000000000000000000000000000000000000000000000000000000000000000000 .
b100010000000000000000000000000 X#
0-%
0.%
b110000000000000000000000000000 0%
b0 c'
b0 u'
#129
b110 &
b110011000000000000000000000000000000000000000000000000000000000000000000000000000000000000000000000000000000000000000000000000 .
1-%
1.%
b110001000000000000000000000000 0%
b1 c'
b1 u'
#130
b100 &
b110100000000000000000000000000000000000000000000000000000000000000000000000000000000000000000000000000000000000000000000000000 .
b100011000000000000000000000000 X#
0-%
0.%
b110010000000000000000000000000 0%
b0 c'
b0 u'
#131
b101 &
b110101000000000000000000000000000000000000000000000000000000000000000000000000000000000000000000000000000000000000000000000000 .
1-%
1.%
b110011000000000000000000000000 0%
b1 c'
b1 u'
#132
b110 &
b110110000000000000000000000000000000000000000000000000000000000000000000000000000000000000000000000000000000000000000000000000 .
b100100000000000000000000000000 X#
0-%
0.%
b110100000000000000000000000000 0%
b0 c'
b0 u'
#133
b100 &
b110111000000000000000000000000000000000000000000000000000000000000000000000000000000000000000000000000000000000000000000000000 .
1-%
1.%
b110101000000000000000000000000 0%
b1 c'
b1 u'
#134
b101 &
b111000000000000000000000000000000000000000000000000000000000000000000000000000000000000000000000000000000000000000000000000000 .
b100101000000000000000000000000 X#
0-%
0.%
b110110000000000000000000000000 0%
b0 c'
b0 u'
#135
b110 &
b111001000000000000000000000000000000000000000000000000000000000000000000000000000000000000000000000000000000000000000000000000 .
1-%
1.%
b110111000000000000000000000000 0%
b1 c'
b1 u'
#136
b100 &
b111010000000000000000000000000000000000000000000000000000000000000000000000000000000000000000000000000000000000000000000000000 .
b100110000000000000000000000000 X#
0-%
0.%
b111000000000000000000000000000 0%
b0 c'
b0 u'
#137
b101 &
b111011000000000000000000000000000000000000000000000000000000000000000000000000000000000000000000000000000000000000000000000000 .
1-%
1.%
b111001000000000000000000000000 0%
b1 c'
b1 u'
#138
b110 &
b111100000000000000000000000000000000000000000000000000000000000000000000000000000000000000000000000000000000000000000000000000 .
b100111000000000000000000000000 X#
0-%
0.%
b111010000000000000000000000000 0%
b0 c'
b0 u'
#139
b100 &
b111101000000000000000000000000000000000000000000000000000000000000000000000000000000000000000000000000000000000000000000000000 .
1-%
1.%
b111011000000000000000000000000 0%
b1 c'
b1 u'
#140
b101 &
b111110000000000000000000000000000000000000000000000000000000000000000000000000000000000000000000000000000000000000000000000000 .
b101000000000000000000000000000 X#
0-%
0.%
b111100000000000000000000000000 0%
b0 c'
b0 u'
#141
b110 &
b111111000000000000000000000000000000000000000000000000000000000000000000000000000000000000000000000000000000000000000000000000 .
1-%
1.%
b111101000000000000000000000000 0%
b1 c'
b1 u'
#142
b100 &
b1000000000000000000000000000000000000000000000000000000000000000000000000000000000000000000000000000000000000000000000000000000 .
b101001000000000000000000000000 X#
0-%
0.%
b111110000000000000000000000000 0%
b0 c'
b0 u'
#143
b101 &
b1000001000000000000000000000000000000000000000000000000000000000000000000000000000000000000000000000000000000000000000000000000 .
1-%
1.%
b111111000000000000000000000000 0%
b1 c'
b1 u'
#144
b110 &
b1000010000000000000000000000000000000000000000000000000000000000000000000000000000000000000000000000000000000000000000000000000 .
b101010000000000000000000000000 X#
0-%
0.%
b1000000000000000000000000000000 0%
b0 c'
b0 u'
#145
b100 &
b1000011000000000000000000000000000000000000000000000000000000000000000000000000000000000000000000000000000000000000000000000000 .
1-%
1.%
b1000001000000000000000000000000 0%
b1 c'
b1 u'
#146
b101 &
b1000100000000000000000000000000000000000000000000000000000000000000000000000000000000000000000000000000000000000000000000000000 .
b101011000000000000000000000000 X#
0-%
0.%
b1000010000000000000000000000000 0%
b0 c'
b0 u'
#147
b110 &
b1000101000000000000000000000000000000000000000000000000000000000000000000000000000000000000000000000000000000000000000000000000 .
1-%
1.%
b1000011000000000000000000000000 0%
b1 c'
b1 u'
#148
b100 &
b1000110000000000000000000000000000000000000000000000000000000000000000000000000000000000000000000000000000000000000000000000000 .
b101100000000000000000000000000 X#
0-%
0.%
b1000100000000000000000000000000 0%
b0 c'
b0 u'
#149
b101 &
b1000111000000000000000000000000000000000000000000000000000000000000000000000000000000000000000000000000000000000000000000000000 .
1-%
1.%
b1000101000000000000000000000000 0%
b1 c'
b1 u'
#150
b110 &
b1001000000000000000000000000000000000000000000000000000000000000000000000000000000000000000000000000000000000000000000000000000 .
b101101000000000000000000000000 X#
0-%
0.%
b1000110000000000000000000000000 0%
b0 c'
b0 u'
#151
b100 &
b1001001000000000000000000000000000000000000000000000000000000000000000000000000000000000000000000000000000000000000000000000000 .
1-%
1.%
b1000111000000000000000000000000 0%
b1 c'
b1 u'
#152
b101 &
b1001010000000000000000000000000000000000000000000000000000000000000000000000000000000000000000000000000000000000000000000000000 .
b101110000000000000000000000000 X#
0-%
0.%
b1001000000000000000000000000000 0%
b0 c'
b0 u'
#153
b110 &
b1001011000000000000000000000000000000000000000000000000000000000000000000000000000000000000000000000000000000000000000000000000 .
1-%
1.%
b1001001000000000000000000000000 0%
b1 c'
b1 u'
#154
b100 &
b1001100000000000000000000000000000000000000000000000000000000000000000000000000000000000000000000000000000000000000000000000000 .
b101111000000000000000000000000 X#
0-%
0.%
b1001010000000000000000000000000 0%
b0 c'
b0 u'
#155
b101 &
b1001101000000000000000000000000000000000000000000000000000000000000000000000000000000000000000000000000000000000000000000000000 .
1-%
1.%
b1001011000000000000000000000000 0%
b1 c'
b1 u'
#156
b110 &
b1001110000000000000000000000000000000000000000000000000000000000000000000000000000000000000000000000000000000000000000000000000 .
b110000000000000000000000000000 X#
0-%
0.%
b1001100000000000000000000000000 0%
b0 c'
b0 u'
#157
b100 &
b1001111000000000000000000000000000000000000000000000000000000000000000000000000000000000000000000000000000000000000000000000000 .
1-%
1.%
b1001101000000000000000000000000 0%
b1 c'
b1 u'
#158
b101 &
b1010000000000000000000000000000000000000000000000000000000000000000000000000000000000000000000000000000000000000000000000000000 .
b110001000000000000000000000000 X#
0-%
0.%
b1001110000000000000000000000000 0%
b0 c'
b0 u'
#159
b110 &
b1010001000000000000000000000000000000000000000000000000000000000000000000000000000000000000000000000000000000000000000000000000 .
1-%
1.%
b1001111000000000000000000000000 0%
b1 c'
b1 u'
#160
b100 &
b1010010000000000000000000000000000000000000000000000000000000000000000000000000000000000000000000000000000000000000000000000000 .
b110010000000000000000000000000 X#
0-%
0.%
b1010000000000000000000000000000 0%
b0 c'
b0 u'
#161
b101 &
b1010011000000000000000000000000000000000000000000000000000000000000000000000000000000000000000000000000000000000000000000000000 .
1-%
1.%
b1010001000000000000000000000000 0%
b1 c'
b1 u'
#162
b110 &
b1010100000000000000000000000000000000000000000000000000000000000000000000000000000000000000000000000000000000000000000000000000 .
b110011000000000000000000000000 X#
0-%
0.%
b1010010000000000000000000000000 0%
b0 c'
b0 u'
#163
b100 &
b1010101000000000000000000000000000000000000000000000000000000000000000000000000000000000000000000000000000000000000000000000000 .
1-%
1.%
b1010011000000000000000000000000 0%
b1 c'
b1 u'
#164
b101 &
b1010110000000000000000000000000000000000000000000000000000000000000000000000000000000000000000000000000000000000000000000000000 .
b110100000000000000000000000000 X#
0-%
0.%
b1010100000000000000000000000000 0%
b0 c'
b0 u'
#165
b110 &
b1010111000000000000000000000000000000000000000000000000000000000000000000000000000000000000000000000000000000000000000000000000 .
1-%
1.%
b1010101000000000000000000000000 0%
b1 c'
b1 u'
#166
b100 &
b1011000000000000000000000000000000000000000000000000000000000000000000000000000000000000000000000000000000000000000000000000000 .
b110101000000000000000000000000 X#
0-%
0.%
b1010110000000000000000000000000 0%
b0 c'
b0 u'
#167
b101 &
b1011001000000000000000000000000000000000000000000000000000000000000000000000000000000000000000000000000000000000000000000000000 .
1-%
1.%
b1010111000000000000000000000000 0%
b1 c'
b1 u'
#168
b110 &
b1011010000000000000000000000000000000000000000000000000000000000000000000000000000000000000000000000000000000000000000000000000 .
b110110000000000000000000000000 X#
0-%
0.%
b1011000000000000000000000000000 0%
b0 c'
b0 u'
#169
b100 &
b1011011000000000000000000000000000000000000000000000000000000000000000000000000000000000000000000000000000000000000000000000000 .
1-%
1.%
b1011001000000000000000000000000 0%
b1 c'
b1 u'
#170
b101 &
b1011100000000000000000000000000000000000000000000000000000000000000000000000000000000000000000000000000000000000000000000000000 .
b110111000000000000000000000000 X#
0-%
0.%
b1011010000000000000000000000000 0%
b0 c'
b0 u'
#171
b110 &
b1011101000000000000000000000000000000000000000000000000000000000000000000000000000000000000000000000000000000000000000000000000 .
1-%
1.%
b1011011000000000000000000000000 0%
b1 c'
b1 u'
#172
b100 &
b1011110000000000000000000000000000000000000000000000000000000000000000000000000000000000000000000000000000000000000000000000000 .
b111000000000000000000000000000 X#
0-%
0.%
b1011100000000000000000000000000 0%
b0 c'
b0 u'
#173
b101 &
b1011111000000000000000000000000000000000000000000000000000000000000000000000000000000000000000000000000000000000000000000000000 .
1-%
1.%
b1011101000000000000000000000000 0%
b1 c'
b1 u'
#174
b110 &
b1100000000000000000000000000000000000000000000000000000000000000000000000000000000000000000000000000000000000000000000000000000 .
b111001000000000000000000000000 X#
0-%
0.%
b1011110000000000000000000000000 0%
b0 c'
b0 u'
#175
b100 &
b1100001000000000000000000000000000000000000000000000000000000000000000000000000000000000000000000000000000000000000000000000000 .
1-%
1.%
b1011111000000000000000000000000 0%
b1 c'
b1 u'
#176
b101 &
b1100010000000000000000000000000000000000000000000000000000000000000000000000000000000000000000000000000000000000000000000000000 .
b111010000000000000000000000000 X#
0-%
0.%
b1100000000000000000000000000000 0%
b0 c'
b0 u'
#177
b110 &
b1100011000000000000000000000000000000000000000000000000000000000000000000000000000000000000000000000000000000000000000000000000 .
1-%
1.%
b1100001000000000000000000000000 0%
b1 c'
b1 u'
#178
b100 &
b0 .
b111011000000000000000000000000 X#
0-%
0.%
b1100010000000000000000000000000 0%
b0 c'
b0 u'
#179
b101 &
b1000000000000000000000000000000000000000000000000000000000000000000000000000000000000000000000000000000000000000000000000 .
1-%
1.%
b1100011000000000000000000000000 0%
b1 c'
b1 u'
#180
b110 &
b10000000000000000000000000000000000000000000000000000000000000000000000000000000000000000000000000000000000000000000000000 .
b111100000000000000000000000000 X#
0-%
0.%
b0 0%
b0 c'
b0 u'
#181
b100 &
b11000000000000000000000000000000000000000000000000000000000000000000000000000000000000000000000000000000000000000000000000 .
1-%
1.%
b1000000000000000000000000 0%
b1 c'
b1 u'
#182
b101 &
b100000000000000000000000000000000000000000000000000000000000000000000000000000000000000000000000000000000000000000000000000 .
b111101000000000000000000000000 X#
0-%
0.%
b10000000000000000000000000 0%
b0 c'
b0 u'
#183
b110 &
b101000000000000000000000000000000000000000000000000000000000000000000000000000000000000000000000000000000000000000000000000 .
1-%
1.%
b11000000000000000000000000 0%
b1 c'
b1 u'
#184
b100 &
b110000000000000000000000000000000000000000000000000000000000000000000000000000000000000000000000000000000000000000000000000 .
b111110000000000000000000000000 X#
0-%
0.%
b100000000000000000000000000 0%
b0 c'
b0 u'
#185
b101 &
b111000000000000000000000000000000000000000000000000000000000000000000000000000000000000000000000000000000000000000000000000 .
1-%
1.%
b101000000000000000000000000 0%
b1 c'
b1 u'
#186
b110 &
b1000000000000000000000000000000000000000000000000000000000000000000000000000000000000000000000000000000000000000000000000000 .
b111111000000000000000000000000 X#
0-%
0.%
b110000000000000000000000000 0%
b0 c'
b0 u'
#187
b100 &
b1001000000000000000000000000000000000000000000000000000000000000000000000000000000000000000000000000000000000000000000000000 .
1-%
1.%
b111000000000000000000000000 0%
b1 c'
b1 u'
#188
b101 &
b1010000000000000000000000000000000000000000000000000000000000000000000000000000000000000000000000000000000000000000000000000 .
b1000000000000000000000000000000 X#
0-%
0.%
b1000000000000000000000000000 0%
b0 c'
b0 u'
#189
b110 &
b1011000000000000000000000000000000000000000000000000000000000000000000000000000000000000000000000000000000000000000000000000 .
1-%
1.%
b1001000000000000000000000000 0%
b1 c'
b1 u'
#190
b100 &
b1100000000000000000000000000000000000000000000000000000000000000000000000000000000000000000000000000000000000000000000000000 .
b1000001000000000000000000000000 X#
0-%
0.%
b1010000000000000000000000000 0%
b0 c'
b0 u'
#191
b101 &
b1101000000000000000000000000000000000000000000000000000000000000000000000000000000000000000000000000000000000000000000000000 .
1-%
1.%
b1011000000000000000000000000 0%
b1 c'
b1 u'
#192
b110 &
b1110000000000000000000000000000000000000000000000000000000000000000000000000000000000000000000000000000000000000000000000000 .
1b"
b1000010000000000000000000000000 X#
0-%
0.%
b1100000000000000000000000000 0%
b0 c'
b10 o'
b0 u'
#193
b1 &
b1000000000000000010000001010101010100010000110011001000100001000100000000111111111111111111111111111111111111111111111111 .
0`"
0a"
0b"
1-%
1.%
b1101000000000000000000000000 0%
b0 ]'
b1 c'
b0 o'
b1 u'
#194
b1000011000000000000000000000000 X#
0-%
0.%
b1110000000000000000000000000 0%
b1111 R&
1d&
b0 c'
b0 u'
b10 x'
#195
1`"
1a"
1-%
1.%
0b&
0d&
b1 ]'
b1 c'
b0 f'
b1 o'
b1 u'
b0 x'
#196
b10 &
b11111111010101110 .
b1111 P"
b1000100000000000000000000000000 X#
0-%
0.%
b1000000000000000010000001010101010100010000110011001000100001000100000000111111111111111111111111111111111111111111111111 0%
b1111111111111111 R&
1b&
b0 c'
b1 f'
b0 u'
b1 x'
#197
b11 &
b1111000000000000100000000000010001111011100010000101000001001000000000000000100000000000100001010000000000101 .
b1111111111111111 P"
1-%
1.%
b11111111010101110 0%
b1111 R&
0b&
18'
1Z'
1['
b1 c'
b0 f'
b1 l'
b1 u'
b0 x'
b1 ~'
#198
b100 &
b1111000000000000000000000000000000000000000000000000000000000000000000000000000000000000000000000000000000000000000000000000 .
b1000101000000000000000000000000 X#
0-%
0.%
b10000000000001000111101110001000010100000100100000000000000010000000000010000101000000000010100000000000000011111111010101110 0%
b1111111111111111 R&
1b&
b11110001011010000000000000111 e&
17'
b1000001111010110111000000000000 :'
0Z'
0['
b0 c'
b1 f'
b1 i'
b0 l'
b0 u'
b1 x'
b1 {'
b0 ~'
#199
b101 &
b10000000000000000000000000000000000000000000000000000000000000000000000000000000000000000000000000000000000000000000000000000 .
1-%
1.%
b1111000000000 0%
b11001010100111001101100100000000 e&
07'
08'
b111100101001110000101010010000 :'
b1 c'
b0 i'
b1 u'
b0 {'
#200
b110 &
b10001000000000000000000000000000000000000000000000000000000000000000000000000000000000000000000000000000000000000000000000000 .
b1000110000000000000000000000000 X#
0-%
0.%
b1111000000000000000000000000 0%
b0 c'
b0 u'
#201
b100 &
b10010000000000000000000000000000000000000000000000000000000000000000000000000000000000000000000000000000000000000000000000000 .
1-%
1.%
b10000000000000000000000000000 0%
b1 c'
b1 u'
#202
b101 &
b10011000000000000000000000000000000000000000000000000000000000000000000000000000000000000000000000000000000000000000000000000 .
b1000111000000000000000000000000 X#
0-%
0.%
b10001000000000000000000000000 0%
b0 c'
b0 u'
#203
b110 &
b10100000000000000000000000000000000000000000000000000000000000000000000000000000000000000000000000000000000000000000000000000 .
1-%
1.%
b10010000000000000000000000000 0%
b1 c'
b1 u'
#204
b100 &
b10101000000000000000000000000000000000000000000000000000000000000000000000000000000000000000000000000000000000000000000000000 .
b1001000000000000000000000000000 X#
0-%
0.%
b10011000000000000000000000000 0%
b0 c'
b0 u'
#205
b101 &
b10110000000000000000000000000000000000000000000000000000000000000000000000000000000000000000000000000000000000000000000000000 .
1-%
1.%
b10100000000000000000000000000 0%
b1 c'
b1 u'
#206
b110 &
b10111000000000000000000000000000000000000000000000000000000000000000000000000000000000000000000000000000000000000000000000000 .
b1001001000000000000000000000000 X#
0-%
0.%
b10101000000000000000000000000 0%
b0 c'
b0 u'
#207
b100 &
b11000000000000000000000000000000000000000000000000000000000000000000000000000000000000000000000000000000000000000000000000000 .
1-%
1.%
b10110000000000000000000000000 0%
b1 c'
b1 u'
#208
b101 &
b11001000000000000000000000000000000000000000000000000000000000000000000000000000000000000000000000000000000000000000000000000 .
b1001010000000000000000000000000 X#
0-%
0.%
b10111000000000000000000000000 0%
b0 c'
b0 u'
#209
b110 &
b11010000000000000000000000000000000000000000000000000000000000000000000000000000000000000000000000000000000000000000000000000 .
1-%
1.%
b11000000000000000000000000000 0%
b1 c'
b1 u'
#210
b100 &
b11011000000000000000000000000000000000000000000000000000000000000000000000000000000000000000000000000000000000000000000000000 .
b1001011000000000000000000000000 X#
0-%
0.%
b11001000000000000000000000000 0%
b0 c'
b0 u'
#211
b101 &
b11100000000000000000000000000000000000000000000000000000000000000000000000000000000000000000000000000000000000000000000000000 .
1-%
1.%
b11010000000000000000000000000 0%
b1 c'
b1 u'
#212
b110 &
b11101000000000000000000000000000000000000000000000000000000000000000000000000000000000000000000000000000000000000000000000000 .
b1001100000000000000000000000000 X#
0-%
0.%
b11011000000000000000000000000 0%
b0 c'
b0 u'
#213
b100 &
b11110000000000000000000000000000000000000000000000000000000000000000000000000000000000000000000000000000000000000000000000000 .
1-%
1.%
b11100000000000000000000000000 0%
b1 c'
b1 u'
#214
b101 &
b11111000000000000000000000000000000000000000000000000000000000000000000000000000000000000000000000000000000000000000000000000 .
b1001101000000000000000000000000 X#
0-%
0.%
b11101000000000000000000000000 0%
b0 c'
b0 u'
#215
b110 &
b100000000000000000000000000000000000000000000000000000000000000000000000000000000000000000000000000000000000000000000000000000 .
1-%
1.%
b11110000000000000000000000000 0%
b1 c'
b1 u'
#216
b100 &
b100001000000000000000000000000000000000000000000000000000000000000000000000000000000000000000000000000000000000000000000000000 .
b1001110000000000000000000000000 X#
0-%
0.%
b11111000000000000000000000000 0%
b0 c'
b0 u'
#217
b101 &
b100010000000000000000000000000000000000000000000000000000000000000000000000000000000000000000000000000000000000000000000000000 .
1-%
1.%
b100000000000000000000000000000 0%
b1 c'
b1 u'
#218
b110 &
b100011000000000000000000000000000000000000000000000000000000000000000000000000000000000000000000000000000000000000000000000000 .
b1001111000000000000000000000000 X#
0-%
0.%
b100001000000000000000000000000 0%
b0 c'
b0 u'
#219
b100 &
b100100000000000000000000000000000000000000000000000000000000000000000000000000000000000000000000000000000000000000000000000000 .
1-%
1.%
b100010000000000000000000000000 0%
b1 c'
b1 u'
#220
b101 &
b100101000000000000000000000000000000000000000000000000000000000000000000000000000000000000000000000000000000000000000000000000 .
b1010000000000000000000000000000 X#
0-%
0.%
b100011000000000000000000000000 0%
b0 c'
b0 u'
#221
b110 &
b100110000000000000000000000000000000000000000000000000000000000000000000000000000000000000000000000000000000000000000000000000 .
1-%
1.%
b100100000000000000000000000000 0%
b1 c'
b1 u'
#222
b100 &
b100111000000000000000000000000000000000000000000000000000000000000000000000000000000000000000000000000000000000000000000000000 .
b1010001000000000000000000000000 X#
0-%
0.%
b100101000000000000000000000000 0%
b0 c'
b0 u'
