Looping_Hardware-design/project_1/.Xil/Vivado-16979-client32/hw_ila_data_1/zip_work/waveform.vcd
$date
        2022-Oct-13 17:24:03
$end
$version
        Vivado v2019.1 (64-bit)
$end
$timescale
        1ps
$end
$scope module dut $end
$var reg 2 " check_40G_sim_i/system_ila_0/inst/probe0_1 [1:0] $end
$var reg 4 $ check_40G_sim_i/system_ila_0/inst/probe1_1 [3:0] $end
$var reg 8 ( check_40G_sim_i/system_ila_0/inst/probe2_1 [7:0] $end
$var reg 128 0 check_40G_sim_i/system_ila_0/inst/net_slot_0_axis_tdata [127:0] $end
$var reg 16 R" check_40G_sim_i/system_ila_0/inst/net_slot_0_axis_tkeep [15:0] $end
$var reg 1 b" check_40G_sim_i/system_ila_0/inst/net_slot_0_axis_tuser $end
$var reg 1 c" check_40G_sim_i/system_ila_0/inst/net_slot_0_axis_tvalid $end
$var reg 1 d" check_40G_sim_i/system_ila_0/inst/net_slot_0_axis_tready $end
$var reg 1 e" check_40G_sim_i/system_ila_0/inst/net_slot_0_axis_tlast $end
$var reg 128 f" check_40G_sim_i/system_ila_0/inst/net_slot_1_axis_tdata [127:0] $end
$var reg 16 *$ check_40G_sim_i/system_ila_0/inst/net_slot_1_axis_tkeep [15:0] $end
$var reg 1 :$ check_40G_sim_i/system_ila_0/inst/net_slot_1_axis_tuser $end
$var reg 1 ;$ check_40G_sim_i/system_ila_0/inst/net_slot_1_axis_tvalid $end
$var reg 1 <$ check_40G_sim_i/system_ila_0/inst/net_slot_1_axis_tready $end
$var reg 1 =$ check_40G_sim_i/system_ila_0/inst/net_slot_1_axis_tlast $end
$var reg 128 >$ check_40G_sim_i/system_ila_0/inst/net_slot_2_axis_tdata [127:0] $end
$var reg 1 `% check_40G_sim_i/system_ila_0/inst/net_slot_2_axis_tvalid $end
$var reg 1 a% check_40G_sim_i/system_ila_0/inst/net_slot_2_axis_tready $end
$var reg 1 b% check_40G_sim_i/system_ila_0/inst/net_slot_2_axis_tlast $end
$var reg 64 c% check_40G_sim_i/system_ila_0/inst/net_slot_3_axis_tdata [63:0] $end
$var reg 1 E& check_40G_sim_i/system_ila_0/inst/net_slot_3_axis_tvalid $end
$var reg 1 F& check_40G_sim_i/system_ila_0/inst/net_slot_3_axis_tready $end
$var reg 1 G& check_40G_sim_i/system_ila_0/inst/net_slot_3_axis_tlast $end
$var reg 128 H& check_40G_sim_i/system_ila_0/inst/net_slot_4_axis_tdata [127:0] $end
$var reg 1 j' check_40G_sim_i/system_ila_0/inst/net_slot_4_axis_tvalid $end
$var reg 1 k' check_40G_sim_i/system_ila_0/inst/net_slot_4_axis_tready $end
$var reg 1 l' check_40G_sim_i/system_ila_0/inst/net_slot_4_axis_tlast $end
$var reg 64 m' check_40G_sim_i/system_ila_0/inst/net_slot_5_axis_tdata [63:0] $end
$var reg 8 O( check_40G_sim_i/system_ila_0/inst/net_slot_5_axis_tkeep [7:0] $end
$var reg 1 W( check_40G_sim_i/system_ila_0/inst/net_slot_5_axis_tuser $end
$var reg 1 X( check_40G_sim_i/system_ila_0/inst/net_slot_5_axis_tvalid $end
$var reg 1 Y( check_40G_sim_i/system_ila_0/inst/net_slot_5_axis_tlast $end
$var reg 3 Z( Interface__i1_s0___ecpri_demux_0_control_data_out_ [2:0] $end
$var reg 3 ]( Interface__i1_s1___ecpri_demux_0_user_data_out_ [2:0] $end
$var reg 3 `( Interface__i1_s2___cplane_depacketizer_0_beam_data_ [2:0] $end
$var reg 3 c( Interface__i1_s3___cplane_depacketizer_0_beam_info_V_ [2:0] $end
$var reg 3 f( Interface__i1_s4___uplane_depacketiser_0_data_out_ [2:0] $end
$var reg 3 i( Interface__i1_s5___xxv_ethernet_0_axis_rx_0_ [2:0] $end
$var reg 3 l( T_Channel__i1_s0___ecpri_demux_0_control_data_out_ [2:0] $end
$var reg 3 o( T_Channel__i1_s1___ecpri_demux_0_user_data_out_ [2:0] $end
$var reg 3 r( T_Channel__i1_s2___cplane_depacketizer_0_beam_data_ [2:0] $end
$var reg 3 u( T_Channel__i1_s3___cplane_depacketizer_0_beam_info_V_ [2:0] $end
$var reg 3 x( T_Channel__i1_s4___uplane_depacketiser_0_data_out_ [2:0] $end
$var reg 3 {( T_Channel__i1_s5___xxv_ethernet_0_axis_rx_0_ [2:0] $end
$var reg 1 ~( _TRIGGER $end
$var reg 1 !) _WINDOW $end
$var reg 1 ") _GAP $end
$upscope $end
$enddefinitions $end
#0
$dumpvars
b1 "
b0 $
b1 (
b0 0
b1111111111111111 R"
0b"
0c"
1d"
0e"
b1011100101100100011101110010001010100010011000000000000000000000101110010110 f"
b111111111111 *$
0:$
0;$
1<$
1=$
b0 >$
0`%
1a%
0b%
b0 c%
0E&
1F&
0G&
b0 H&
0j'
1k'
0l'
b1011001000100101101010000010010110101000001001011001111000100101 m'
b11111111 O(
0W(
0X(
0Y(
b11 Z(
b0 ](
b11 `(
b11 c(
b11 f(
b0 i(
b11 l(
b0 o(
b11 r(
b11 u(
b11 x(
b0 {(
0~(
1!)
0")
$end
#97
b1000100000000010101010100010000110011001000100001000100000000 m'
#100
1X(
b1 i(
b1 {(
1~(
#101
b100000000000000001000000100010001010001000011001100100010 m'
#102
b111000000010100000000000100001111111010101110 m'
#103
b1000101000001001110100100001000000011100100 m'
#104
b1110100000001101110111100000110111011110000011010001101100000000 m'
#105
b1111110000001101111100100000110111110010000011011110100000001101 m'
#106
b1000000001110000001100000111000000110000011101111110000001101 m'
#107
b10010000001110000110100000111000011010000011100001000000001110 m'
#108
b11100000001110001011100000111000101110000011100010010000001110 m'
#109
b100110000001110010000100000111001000010000011100011100000001110 m'
#110
b110000000001110010101100000111001010110000011100100110000001110 m'
#111
b111010000001110011010100000111001101010000011100110000000001110 m'
#112
b1000100000001110011111100000111001111110000011100111010000001110 m'
#113
b1001110000001110100100100000111010010010000011101000100000001110 m'
#114
b1011000000001110101001100000111010100110000011101001110000001110 m'
#115
b1100010000001110101110100000111010111010000011101011000000001110 m'
#116
b1101100000001110110011100000111011001110000011101100010000001110 m'
#117
b1110110000001110111000100000111011100010000011101101100000001110 m'
#118
b1111111101100000111011110110000011101110110000001110 m'
#119
b1010000001111000010100000111100001010000011110000000000001111 m'
#120
b0 "
b100001111111010101110000100010100010000110011001000100001000100000000010101010100010000110011001000100001000100000000 f"
b1111111111111111 *$
1;$
0=$
b10100000001111000111100000111100011110000011110001010000001111 m'
b1 ](
b1 o(
#121
0;$
b11110000001111001100100000111100110010000011110010100000001111 m'
b0 ](
b0 o(
#122
b101000000001111010001100000111101000110000011110011110000001111 m'
#123
b1 "
b11011110000011010001101100000000000000000000000000000100010100000100111010010000100000001110010000000000000000000001110000000101 f"
1;$
b110010000001111010110100000111101011010000011110101000000001111 m'
b1 ](
b1 o(
#124
b110000011101111110000001101111111000000110111110010000011011111001000001101111010000000110111101000000011011101111000001101 f"
b111100000001111011011100000111101101110000011110110010000001111 m'
#125
0;$
b1000110000001111100000100000111110000010000011110111100000001111 m'
b0 ](
b0 o(
#126
b101110000011100010010000001110001001000000111000011010000011100001101000001110000100000000111000010000000011100000011000001110 f"
1;$
b1010000000001111100101100000111110010110000011111000110000001111 m'
b1 ](
b1 o(
#127
0;$
b1011010000001111101010100000111110101010000011111010000000001111 m'
b0 ](
b0 o(
#128
b1010110000011100100110000001110010011000000111001000010000011100100001000001110001110000000111000111000000011100010111000001110 f"
1;$
b1100100000001111101111100000111110111110000011111011010000001111 m'
b1 ](
b1 o(
#129
0;$
b1101110000001111110100100000111111010010000011111100100000001111 m'
b0 ](
b0 o(
#130
b1111110000011100111010000001110011101000000111001101010000011100110101000001110011000000000111001100000000011100101011000001110 f"
1;$
b1111000000001111111001100000111111100110000011111101110000001111 m'
b1 ](
b1 o(
#131
0;$
b10000010000111110100000111111111010000011111111000000001111 m'
b0 ](
b0 o(
#132
b10100110000011101001110000001110100111000000111010010010000011101001001000001110100010000000111010001000000011100111111000001110 f"
1;$
b1100000010000000011100001000000001110000100000000010000010000 m'
b1 ](
b1 o(
#133
0;$
b10110000010000001000100001000000100010000100000001100000010000 m'
b0 ](
b0 o(
#134
b11001110000011101100010000001110110001000000111010111010000011101011101000001110101100000000111010110000000011101010011000001110 f"
1;$
b100000000010000001101100001000000110110000100000010110000010000 m'
b1 ](
b1 o(
#135
0;$
b101010000010000010010100001000001001010000100000100000000010000 m'
b0 ](
b0 o(
#136
b11110110000011101110110000001110111011000000111011100010000011101110001000001110110110000000111011011000000011101100111000001110 f"
1;$
b110100000010000010111100001000001011110000100000101010000010000 m'
b1 ](
b1 o(
#137
0;$
b111110000010000011100100001000001110010000100000110100000010000 m'
b0 ](
b0 o(
#138
b11110000011110001010000001111000101000000111100001010000011110000101000001111000000000000111100000000000011111111011000001110 f"
1;$
b1001000000010000100001100001000010000110000100000111110000010000 m'
b1 ](
b1 o(
#139
0;$
b1010010000010000100110100001000010011010000100001001000000010000 m'
b0 ](
b0 o(
#140
b1000110000011110011110000001111001111000000111100110010000011110011001000001111001010000000111100101000000011110001111000001111 f"
1;$
b1011100000010000101011100001000010101110000100001010010000010000 m'
b1 ](
b1 o(
#141
0;$
b1100110000010000110000100001000011000010000100001011100000010000 m'
b0 ](
b0 o(
#142
b1101110000011110110010000001111011001000000111101011010000011110101101000001111010100000000111101010000000011110100011000001111 f"
1;$
b1110000000010000110101100001000011010110000100001100110000010000 m'
b1 ](
b1 o(
#143
0;$
b1111010000010000111010100001000011101010000100001110000000010000 m'
b0 ](
b0 o(
#144
b10010110000011111000110000001111100011000000111110000010000011111000001000001111011110000000111101111000000011110110111000001111 f"
1;$
b100000010001111111100001000011111110000100001111010000010000 m'
b1 ](
b1 o(
#145
0;$
b1110000010001000100100001000100010010000100010000100000010001 m'
b0 ](
b0 o(
#146
b10111110000011111011010000001111101101000000111110101010000011111010101000001111101000000000111110100000000011111001011000001111 f"
1;$
b11000000010001001001100001000100100110000100010001110000010001 m'
b1 ](
b1 o(
#147
0;$
b100010000010001001110100001000100111010000100010011000000010001 m'
b0 ](
b0 o(
#148
b11100110000011111101110000001111110111000000111111010010000011111101001000001111110010000000111111001000000011111011111000001111 f"
1;$
b101100000010001010011100001000101001110000100010100010000010001 m'
b1 ](
b1 o(
#149
0;$
b110110000010001011000100001000101100010000100010101100000010001 m'
b0 ](
b0 o(
#150
b1110000100000000010000010000000001000001000011111010000011111111101000001111111100000000111111110000000011111110011000001111 f"
1;$
b1000000000010001011101100001000101110110000100010110110000010001 m'
b1 ](
b1 o(
#151
0;$
b1001010000010001100010100001000110001010000100011000000000010001 m'
b0 ](
b0 o(
#152
b110110000100000010110000010000001011000001000000100010000100000010001000010000000110000001000000011000000100000000111000010000 f"
1;$
b1010100000010001100111100001000110011110000100011001010000010001 m'
b1 ](
b1 o(
#153
0;$
b1011110000010001101100100001000110110010000100011010100000010001 m'
b0 ](
b0 o(
#154
b1011110000100000101010000010000010101000001000001001010000100000100101000010000010000000001000001000000000100000011011000010000 f"
1;$
b1101000000010001110001100001000111000110000100011011110000010001 m'
b1 ](
b1 o(
#155
0;$
b1110010000010001110110100001000111011010000100011101000000010001 m'
b0 ](
b0 o(
#156
b10000110000100000111110000010000011111000001000001110010000100000111001000010000011010000001000001101000000100000101111000010000 f"
1;$
b1111100000010001111011100001000111101110000100011110010000010001 m'
b1 ](
b1 o(
#157
0;$
b110000010010000000100001001000000010000100101111100000010001 m'
b0 ](
b0 o(
#158
b10101110000100001010010000010000101001000001000010011010000100001001101000010000100100000001000010010000000100001000011000010000 f"
1;$
b10000000010010000101100001001000010110000100100000110000010010 m'
b1 ](
b1 o(
#159
0;$
b11010000010010001010100001001000101010000100100010000000010010 m'
b0 ](
b0 o(
#160
b11010110000100001100110000010000110011000001000011000010000100001100001000010000101110000001000010111000000100001010111000010000 f"
1;$
b100100000010010001111100001001000111110000100100011010000010010 m'
b1 ](
b1 o(
#161
0;$
b101110000010010010100100001001001010010000100100100100000010010 m'
b0 ](
b0 o(
#162
b11111110000100001111010000010000111101000001000011101010000100001110101000010000111000000001000011100000000100001101011000010000 f"
1;$
b111000000010010011001100001001001100110000100100101110000010010 m'
b1 ](
b1 o(
#163
0;$
b1000010000010010011110100001001001111010000100100111000000010010 m'
b0 ](
b0 o(
#164
b100110000100010001110000010001000111000001000100010010000100010001001000010001000010000001000100001000000100011111111000010000 f"
1;$
b1001100000010010100011100001001010001110000100101000010000010010 m'
b1 ](
b1 o(
#165
0;$
b1010110000010010101000100001001010100010000100101001100000010010 m'
b0 ](
b0 o(
#166
b1001110000100010100010000010001010001000001000100111010000100010011101000010001001100000001000100110000000100010010011000010001 f"
1;$
b1100000000010010101101100001001010110110000100101010110000010010 m'
b1 ](
b1 o(
#167
0;$
b1101010000010010110010100001001011001010000100101100000000010010 m'
b0 ](
b0 o(
#168
b1110110000100010110110000010001011011000001000101100010000100010110001000010001010110000001000101011000000100010100111000010001 f"
1;$
b1110100000010010110111100001001011011110000100101101010000010010 m'
b1 ](
b1 o(
#169
0;$
b1111110000010010111100100001001011110010000100101110100000010010 m'
b0 ](
b0 o(
#170
b10011110000100011001010000010001100101000001000110001010000100011000101000010001100000000001000110000000000100010111011000010001 f"
1;$
b1000000010011000001100001001100000110000100111111110000010010 m'
b1 ](
b1 o(
#171
0;$
b10010000010011000110100001001100011010000100110001000000010011 m'
b0 ](
b0 o(
#172
b11000110000100011011110000010001101111000001000110110010000100011011001000010001101010000001000110101000000100011001111000010001 f"
1;$
b11100000010011001011100001001100101110000100110010010000010011 m'
b1 ](
b1 o(
#173
0;$
b100110000010011010000100001001101000010000100110011100000010011 m'
b0 ](
b0 o(
#174
b11101110000100011110010000010001111001000001000111011010000100011101101000010001110100000001000111010000000100011100011000010001 f"
1;$
b110000000010011010101100001001101010110000100110100110000010011 m'
b1 ](
b1 o(
#175
0;$
b111010000010011011010100001001101101010000100110110000000010011 m'
b0 ](
b0 o(
#176
b10110000100100000110000010010000011000001001000000010000100100000001000010010111110000001000111111000000100011110111000010001 f"
1;$
b1000100000010011011111100001001101111110000100110111010000010011 m'
b1 ](
b1 o(
#177
0;$
b1001110000010011100100100001001110010010000100111000100000010011 m'
b0 ](
b0 o(
#178
b111110000100100011010000010010001101000001001000101010000100100010101000010010001000000001001000100000000100100001011000010010 f"
1;$
b1011000000010011101001100001001110100110000100111001110000010011 m'
b1 ](
b1 o(
#179
0;$
b1100010000010011101110100001001110111010000100111011000000010011 m'
b0 ](
b0 o(
#180
b1100110000100100101110000010010010111000001001001010010000100100101001000010010010010000001001001001000000100100011111000010010 f"
1;$
b1101100000010011110011100001001111001110000100111100010000010011 m'
b1 ](
b1 o(
#181
0;$
b1110110000010011111000100001001111100010000100111101100000010011 m'
b0 ](
b0 o(
#182
b10001110000100101000010000010010100001000001001001111010000100100111101000010010011100000001001001110000000100100110011000010010 f"
1;$
b10100111101100001001111110110000100111110110000010011 m'
b1 ](
b1 o(
#183
0;$
b1010000010100000010100001010000001010000101000000000000010100 m'
b0 ](
b0 o(
#184
b10110110000100101010110000010010101011000001001010100010000100101010001000010010100110000001001010011000000100101000111000010010 f"
1;$
b10100000010100000111100001010000011110000101000001010000010100 m'
b1 ](
b1 o(
#185
0;$
b11110000010100001100100001010000110010000101000010100000010100 m'
b0 ](
b0 o(
#186
b11011110000100101101010000010010110101000001001011001010000100101100101000010010110000000001001011000000000100101011011000010010 f"
1;$
b101000000010100010001100001010001000110000101000011110000010100 m'
b1 ](
b1 o(
#187
0;$
b110010000010100010110100001010001011010000101000101000000010100 m'
b0 ](
b0 o(
#188
b110000100111111110000010010111111000001001011110010000100101111001000010010111010000001001011101000000100101101111000010010 f"
1;$
b111100000010100011011100001010001101110000101000110010000010100 m'
b1 ](
b1 o(
#189
0;$
b1000110000010100100000100001010010000010000101000111100000010100 m'
b0 ](
b0 o(
#190
b101110000100110010010000010011001001000001001100011010000100110001101000010011000100000001001100010000000100110000011000010011 f"
1;$
b1010000000010100100101100001010010010110000101001000110000010100 m'
b1 ](
b1 o(
#191
0;$
b1011010000010100101010100001010010101010000101001010000000010100 m'
b0 ](
b0 o(
#192
b1010110000100110100110000010011010011000001001101000010000100110100001000010011001110000001001100111000000100110010111000010011 f"
1;$
b1100100000010100101111100001010010111110000101001011010000010100 m'
b1 ](
b1 o(
#193
0;$
b1101110000010100110100100001010011010010000101001100100000010100 m'
b0 ](
b0 o(
#194
b1111110000100110111010000010011011101000001001101101010000100110110101000010011011000000001001101100000000100110101011000010011 f"
1;$
b1111000000010100111001100001010011100110000101001101110000010100 m'
b1 ](
b1 o(
#195
0;$
b10000010101111110100001010011111010000101001111000000010100 m'
b0 ](
b0 o(
#196
b10100110000100111001110000010011100111000001001110010010000100111001001000010011100010000001001110001000000100110111111000010011 f"
1;$
b1100000010101000011100001010100001110000101010000010000010101 m'
b1 ](
b1 o(
#197
0;$
b10110000010101001000100001010100100010000101010001100000010101 m'
b0 ](
b0 o(
#198
b11001110000100111100010000010011110001000001001110111010000100111011101000010011101100000001001110110000000100111010011000010011 f"
1;$
b100000000010101001101100001010100110110000101010010110000010101 m'
b1 ](
b1 o(
#199
0;$
b101010000010101010010100001010101001010000101010100000000010101 m'
b0 ](
b0 o(
#200
b11110110000100111110110000010011111011000001001111100010000100111110001000010011110110000001001111011000000100111100111000010011 f"
1;$
b110100000010101010111100001010101011110000101010101010000010101 m'
b1 ](
b1 o(
#201
0;$
b111110000010101011100100001010101110010000101010110100000010101 m'
b0 ](
b0 o(
#202
b11110000101000001010000010100000101000001010000001010000101000000101000010100000000000001010000000000000101001111011000010011 f"
1;$
b1001000000010101100001100001010110000110000101010111110000010101 m'
b1 ](
b1 o(
#203
0;$
b1010010000010101100110100001010110011010000101011001000000010101 m'
b0 ](
b0 o(
#204
b1000110000101000011110000010100001111000001010000110010000101000011001000010100001010000001010000101000000101000001111000010100 f"
1;$
b1011100000010101101011100001010110101110000101011010010000010101 m'
b1 ](
b1 o(
#205
0;$
b1100110000010101110000100001010111000010000101011011100000010101 m'
b0 ](
b0 o(
#206
b1101110000101000110010000010100011001000001010001011010000101000101101000010100010100000001010001010000000101000100011000010100 f"
1;$
b1110000000010101110101100001010111010110000101011100110000010101 m'
b1 ](
b1 o(
#207
0;$
b1111010000010101111010100001010111101010000101011110000000010101 m'
b0 ](
b0 o(
#208
b10010110000101001000110000010100100011000001010010000010000101001000001000010100011110000001010001111000000101000110111000010100 f"
1;$
b100000010110111111100001010111111110000101011111010000010101 m'
b1 ](
b1 o(
#209
0;$
b1110000010110000100100001011000010010000101100000100000010110 m'
b0 ](
b0 o(
#210
b10111110000101001011010000010100101101000001010010101010000101001010101000010100101000000001010010100000000101001001011000010100 f"
1;$
b11000000010110001001100001011000100110000101100001110000010110 m'
b1 ](
b1 o(
#211
0;$
b100010000010110001110100001011000111010000101100011000000010110 m'
b0 ](
b0 o(
#212
b11100110000101001101110000010100110111000001010011010010000101001101001000010100110010000001010011001000000101001011111000010100 f"
1;$
b101100000010110010011100001011001001110000101100100010000010110 m'
b1 ](
b1 o(
#213
0;$
b110110000010110011000100001011001100010000101100101100000010110 m'
b0 ](
b0 o(
#214
b1110000101010000010000010101000001000001010111111010000101001111101000010100111100000001010011110000000101001110011000010100 f"
1;$
b1000000000010110011101100001011001110110000101100110110000010110 m'
b1 ](
b1 o(
#215
0;$
b1001010000010110100010100001011010001010000101101000000000010110 m'
b0 ](
b0 o(
#216
b110110000101010010110000010101001011000001010100100010000101010010001000010101000110000001010100011000000101010000111000010101 f"
1;$
b1010100000010110100111100001011010011110000101101001010000010110 m'
b1 ](
b1 o(
#217
0;$
b1011110000010110101100100001011010110010000101101010100000010110 m'
b0 ](
b0 o(
#218
b1011110000101010101010000010101010101000001010101001010000101010100101000010101010000000001010101000000000101010011011000010101 f"
1;$
b1101000000010110110001100001011011000110000101101011110000010110 m'
b1 ](
b1 o(
#219
0;$
b1110010000010110110110100001011011011010000101101101000000010110 m'
b0 ](
b0 o(
#220
b10000110000101010111110000010101011111000001010101110010000101010111001000010101011010000001010101101000000101010101111000010101 f"
1;$
b1111100000010110111011100001011011101110000101101110010000010110 m'
b1 ](
b1 o(
#221
0;$
b110000010111000000100001011100000010000101111111100000010110 m'
b0 ](
b0 o(
#222
b10101110000101011010010000010101101001000001010110011010000101011001101000010101100100000001010110010000000101011000011000010101 f"
1;$
b10000000010111000101100001011100010110000101110000110000010111 m'
b1 ](
b1 o(
#223
0;$
b11010000010111001010100001011100101010000101110010000000010111 m'
b0 ](
b0 o(
#224
b11010110000101011100110000010101110011000001010111000010000101011100001000010101101110000001010110111000000101011010111000010101 f"
1;$
b100100000010111001111100001011100111110000101110011010000010111 m'
b1 ](
b1 o(
#225
0;$
b101110000010111010100100001011101010010000101110100100000010111 m'
b0 ](
b0 o(
#226
b11111110000101011111010000010101111101000001010111101010000101011110101000010101111000000001010111100000000101011101011000010101 f"
1;$
b111000000010111011001100001011101100110000101110101110000010111 m'
b1 ](
b1 o(
#227
0;$
b1000010000010111011110100001011101111010000101110111000000010111 m'
b0 ](
b0 o(
#228
b100110000101100001110000010110000111000001011000010010000101100001001000010110000010000001011000001000000101101111111000010101 f"
1;$
b1001100000010111100011100001011110001110000101111000010000010111 m'
b1 ](
b1 o(
#229
0;$
b1010110000010111101000100001011110100010000101111001100000010111 m'
b0 ](
b0 o(
#230
b1001110000101100100010000010110010001000001011000111010000101100011101000010110001100000001011000110000000101100010011000010110 f"
1;$
b1100000000010111101101100001011110110110000101111010110000010111 m'
b1 ](
b1 o(
#231
0;$
b1101010000010111110010100001011111001010000101111100000000010111 m'
b0 ](
b0 o(
#232
b1110110000101100110110000010110011011000001011001100010000101100110001000010110010110000001011001011000000101100100111000010110 f"
1;$
b1110100000010111110111100001011111011110000101111101010000010111 m'
b1 ](
b1 o(
#233
0;$
b1111110000010111111100100001011111110010000101111110100000010111 m'
b0 ](
b0 o(
#234
b10011110000101101001010000010110100101000001011010001010000101101000101000010110100000000001011010000000000101100111011000010110 f"
1;$
b1000000011000000001100001100000000110000110001111110000010111 m'
b1 ](
b1 o(
#235
0;$
b10010000011000000110100001100000011010000110000001000000011000 m'
b0 ](
b0 o(
#236
b11000110000101101011110000010110101111000001011010110010000101101011001000010110101010000001011010101000000101101001111000010110 f"
1;$
b11100000011000001011100001100000101110000110000010010000011000 m'
b1 ](
b1 o(
#237
0;$
b100110000011000010000100001100001000010000110000011100000011000 m'
b0 ](
b0 o(
#238
b11101110000101101110010000010110111001000001011011011010000101101101101000010110110100000001011011010000000101101100011000010110 f"
1;$
b110000000011000010101100001100001010110000110000100110000011000 m'
b1 ](
b1 o(
#239
0;$
b111010000011000011010100001100001101010000110000110000000011000 m'
b0 ](
b0 o(
#240
b10110000101110000110000010111000011000001011100000010000101110000001000010111111110000001011011111000000101101110111000010110 f"
1;$
b1000100000011000011111100001100001111110000110000111010000011000 m'
b1 ](
b1 o(
#241
0;$
b1001110000011000100100100001100010010010000110001000100000011000 m'
b0 ](
b0 o(
#242
b111110000101110011010000010111001101000001011100101010000101110010101000010111001000000001011100100000000101110001011000010111 f"
1;$
b1011000000011000101001100001100010100110000110001001110000011000 m'
b1 ](
b1 o(
#243
0;$
b1100010000011000101110100001100010111010000110001011000000011000 m'
b0 ](
b0 o(
#244
b1100110000101110101110000010111010111000001011101010010000101110101001000010111010010000001011101001000000101110011111000010111 f"
1;$
b1101100000011000110011100001100011001110000110001100010000011000 m'
b1 ](
b1 o(
#245
0;$
b1110110000011000111000100001100011100010000110001101100000011000 m'
b0 ](
b0 o(
#246
b10001110000101111000010000010111100001000001011101111010000101110111101000010111011100000001011101110000000101110110011000010111 f"
1;$
b11001111101100001100011110110000110001110110000011000 m'
b1 ](
b1 o(
#247
0;$
b1010000011001000010100001100100001010000110010000000000011001 m'
b0 ](
b0 o(
#248
b10110110000101111010110000010111101011000001011110100010000101111010001000010111100110000001011110011000000101111000111000010111 f"
1;$
b10100000011001000111100001100100011110000110010001010000011001 m'
b1 ](
b1 o(
#249
0;$
b11110000011001001100100001100100110010000110010010100000011001 m'
b0 ](
b0 o(
#250
b11011110000101111101010000010111110101000001011111001010000101111100101000010111110000000001011111000000000101111011011000010111 f"
1;$
b101000000011001010001100001100101000110000110010011110000011001 m'
b1 ](
b1 o(
#251
0;$
b110010000011001010110100001100101011010000110010101000000011001 m'
b0 ](
b0 o(
#252
b110000110001111110000010111111111000001011111110010000101111111001000010111111010000001011111101000000101111101111000010111 f"
1;$
b111100000011001011011100001100101101110000110010110010000011001 m'
b1 ](
b1 o(
#253
0;$
b1000110000011001100000100001100110000010000110010111100000011001 m'
b0 ](
b0 o(
#254
b101110000110000010010000011000001001000001100000011010000110000001101000011000000100000001100000010000000110000000011000011000 f"
1;$
b1010000000011001100101100001100110010110000110011000110000011001 m'
b1 ](
b1 o(
#255
0;$
b1011010000011001101010100001100110101010000110011010000000011001 m'
b0 ](
b0 o(
#256
b1010110000110000100110000011000010011000001100001000010000110000100001000011000001110000001100000111000000110000010111000011000 f"
1;$
b1100100000011001101111100001100110111110000110011011010000011001 m'
b1 ](
b1 o(
#257
0;$
b1101110000011001110100100001100111010010000110011100100000011001 m'
b0 ](
b0 o(
#258
b1111110000110000111010000011000011101000001100001101010000110000110101000011000011000000001100001100000000110000101011000011000 f"
1;$
b1111000000011001111001100001100111100110000110011101110000011001 m'
b1 ](
b1 o(
#259
0;$
b10000011010111110100001100111111010000110011111000000011001 m'
b0 ](
b0 o(
#260
b10100110000110001001110000011000100111000001100010010010000110001001001000011000100010000001100010001000000110000111111000011000 f"
1;$
b1100000011010000011100001101000001110000110100000010000011010 m'
b1 ](
b1 o(
#261
0;$
b10110000011010001000100001101000100010000110100001100000011010 m'
b0 ](
b0 o(
#262
b11001110000110001100010000011000110001000001100010111010000110001011101000011000101100000001100010110000000110001010011000011000 f"
1;$
b100000000011010001101100001101000110110000110100010110000011010 m'
b1 ](
b1 o(
#263
0;$
b101010000011010010010100001101001001010000110100100000000011010 m'
b0 ](
b0 o(
#264
b11110110000110001110110000011000111011000001100011100010000110001110001000011000110110000001100011011000000110001100111000011000 f"
1;$
b110100000011010010111100001101001011110000110100101010000011010 m'
b1 ](
b1 o(
#265
0;$
b111110000011010011100100001101001110010000110100110100000011010 m'
b0 ](
b0 o(
#266
b11110000110010001010000011001000101000001100100001010000110010000101000011001000000000001100100000000000110011111011000011000 f"
1;$
b110101101100000100111010101110100111110000011010 m'
b11 O(
1Y(
b1 ](
b1 o(
b10 {(
#267
0;$
b10000011010111110100001100111111010000110011111000000011001 m'
b11111111 O(
0X(
0Y(
b0 ](
b0 i(
b0 o(
b0 {(
#268
b1000110000110010011110000011001001111000001100100110010000110010011001000011001001010000001100100101000000110010001111000011001 f"
1;$
b1 ](
b1 o(
#269
0;$
b0 ](
b0 o(
#270
b1101110000110010110010000011001011001000001100101011010000110010101101000011001010100000001100101010000000110010100011000011001 f"
1;$
b1 ](
b1 o(
#271
0;$
b0 ](
b0 o(
#272
b10010110000110011000110000011001100011000001100110000010000110011000001000011001011110000001100101111000000110010110111000011001 f"
1;$
b1 ](
b1 o(
#273
0;$
b0 ](
b0 o(
#274
b10111110000110011011010000011001101101000001100110101010000110011010101000011001101000000001100110100000000110011001011000011001 f"
1;$
b1 ](
b1 o(
#275
0;$
b0 ](
b0 o(
#276
b11100110000110011101110000011001110111000001100111010010000110011101001000011001110010000001100111001000000110011011111000011001 f"
1;$
b1 ](
b1 o(
#277
0;$
b0 ](
b0 o(
#278
b1110000110100000010000011010000001000001101011111010000110011111101000011001111100000001100111110000000110011110011000011001 f"
1;$
b1 ](
b1 o(
#279
0;$
b0 ](
b0 o(
#280
b110110000110100010110000011010001011000001101000100010000110100010001000011010000110000001101000011000000110100000111000011010 f"
1;$
b1 ](
b1 o(
#281
0;$
b0 ](
b0 o(
#282
b1011110000110100101010000011010010101000001101001001010000110100100101000011010010000000001101001000000000110100011011000011010 f"
1;$
b1 ](
b1 o(
#283
0;$
b0 ](
b0 o(
#284
b111010101110100111110000011010011111000001101001110010000110100111001000011010011010000001101001101000000110100101111000011010 f"
1;$
b1 ](
b1 o(
#285
b11010110110000010011101010111010011111000001101000000000000000001101011011000001 f"
b111111111111 *$
1=$
b10 o(
#286
0;$
b0 ](
b0 o(
#466
b1000100000000010101010100010000110011001000100001000100000000 m'
#469
1X(
b1 i(
b1 {(
#470
b100000000000000001000000100010001010001000011001100100010 m'
#471
b101111000000010000000000000100001111111010101110 m'
#472
b1000101000001001110100100001000000011100101 m'
#473
b1001000000011010100001100001101010000110000110100001100100011011 m'
#474
b1010010000011010100110100001101010011010000110101001000000011010 m'
#475
b1011100000011010101011100001101010101110000110101010010000011010 m'
#476
b1100110000011010110000100001101011000010000110101011100000011010 m'
#477
b1110000000011010110101100001101011010110000110101100110000011010 m'
#478
b1111010000011010111010100001101011101010000110101110000000011010 m'
#479
b100000011011111111100001101011111110000110101111010000011010 m'
#480
b1110000011011000100100001101100010010000110110000100000011011 m'
#481
b11000000011011001001100001101100100110000110110001110000011011 m'
#482
b100010000011011001110100001101100111010000110110011000000011011 m'
#483
b101100000011011010011100001101101001110000110110100010000011011 m'
#484
b110110000011011011000100001101101100010000110110101100000011011 m'
#485
b1000000000011011011101100001101101110110000110110110110000011011 m'
#486
b1001010000011011100010100001101110001010000110111000000000011011 m'
#487
b1010100000011011100111100001101110011110000110111001010000011011 m'
#488
b1011110000011011101100100001101110110010000110111010100000011011 m'
#489
b0 "
b100001111111010101110000100010100010000110011001000100001000100000000010101010100010000110011001000100001000100000000 f"
b1111111111111111 *$
1;$
0=$
b1101000000011011110001100001101111000110000110111011110000011011 m'
b1 ](
b1 o(
#490
0;$
b1110010000011011110110100001101111011010000110111101000000011011 m'
b0 ](
b0 o(
