Looping_Hardware-design/project_1/.Xil/Vivado-3053-client32/hw_ila_data_3/zip_work/waveform.vcd
$date
        2023-Mar-30 10:50:40
$end
$version
        Vivado v2019.1 (64-bit)
$end
$timescale
        1ps
$end
$scope module dut $end
$var reg 8 " CU_Integration_sim_i/system_ila_2/inst/probe0_1 [7:0] $end
$var reg 4 * CU_Integration_sim_i/system_ila_2/inst/probe1_1 [3:0] $end
$var reg 12 . CU_Integration_sim_i/system_ila_2/inst/probe2_1 [11:0] $end
$var reg 8 : CU_Integration_sim_i/system_ila_2/inst/probe3_1 [7:0] $end
$var reg 128 B CU_Integration_sim_i/system_ila_2/inst/net_slot_0_axis_tdata [127:0] $end
$var reg 1 d" CU_Integration_sim_i/system_ila_2/inst/net_slot_0_axis_tvalid $end
$var reg 1 e" CU_Integration_sim_i/system_ila_2/inst/net_slot_0_axis_tready $end
$var reg 1 f" CU_Integration_sim_i/system_ila_2/inst/net_slot_0_axis_tlast $end
$var reg 128 g" CU_Integration_sim_i/system_ila_2/inst/net_slot_1_axis_tdata [127:0] $end
$var reg 1 +$ CU_Integration_sim_i/system_ila_2/inst/net_slot_1_axis_tvalid $end
$var reg 1 ,$ CU_Integration_sim_i/system_ila_2/inst/net_slot_1_axis_tready $end
$var reg 1 -$ CU_Integration_sim_i/system_ila_2/inst/net_slot_1_axis_tlast $end
$var reg 128 .$ CU_Integration_sim_i/system_ila_2/inst/net_slot_2_axis_tdata [127:0] $end
$var reg 1 P% CU_Integration_sim_i/system_ila_2/inst/net_slot_2_axis_tvalid $end
$var reg 1 Q% CU_Integration_sim_i/system_ila_2/inst/net_slot_2_axis_tready $end
$var reg 1 R% CU_Integration_sim_i/system_ila_2/inst/net_slot_2_axis_tlast $end
$var reg 128 S% CU_Integration_sim_i/system_ila_2/inst/net_slot_3_axis_tdata [127:0] $end
$var reg 1 u& CU_Integration_sim_i/system_ila_2/inst/net_slot_3_axis_tvalid $end
$var reg 1 v& CU_Integration_sim_i/system_ila_2/inst/net_slot_3_axis_tready $end
$var reg 1 w& CU_Integration_sim_i/system_ila_2/inst/net_slot_3_axis_tlast $end
$var reg 128 x& CU_Integration_sim_i/system_ila_2/inst/net_slot_4_axis_tdata [127:0] $end
$var reg 1 <( CU_Integration_sim_i/system_ila_2/inst/net_slot_4_axis_tvalid $end
$var reg 1 =( CU_Integration_sim_i/system_ila_2/inst/net_slot_4_axis_tready $end
$var reg 1 >( CU_Integration_sim_i/system_ila_2/inst/net_slot_4_axis_tlast $end
$var reg 128 ?( CU_Integration_sim_i/system_ila_2/inst/net_slot_5_axis_tdata [127:0] $end
$var reg 1 a) CU_Integration_sim_i/system_ila_2/inst/net_slot_5_axis_tvalid $end
$var reg 1 b) CU_Integration_sim_i/system_ila_2/inst/net_slot_5_axis_tready $end
$var reg 1 c) CU_Integration_sim_i/system_ila_2/inst/net_slot_5_axis_tlast $end
$var reg 128 d) CU_Integration_sim_i/system_ila_2/inst/net_slot_6_axis_tdata [127:0] $end
$var reg 1 (+ CU_Integration_sim_i/system_ila_2/inst/net_slot_6_axis_tvalid $end
$var reg 1 )+ CU_Integration_sim_i/system_ila_2/inst/net_slot_6_axis_tready $end
$var reg 1 *+ CU_Integration_sim_i/system_ila_2/inst/net_slot_6_axis_tlast $end
$var reg 128 ++ CU_Integration_sim_i/system_ila_2/inst/net_slot_7_axis_tdata [127:0] $end
$var reg 1 M, CU_Integration_sim_i/system_ila_2/inst/net_slot_7_axis_tvalid $end
$var reg 1 N, CU_Integration_sim_i/system_ila_2/inst/net_slot_7_axis_tready $end
$var reg 1 O, CU_Integration_sim_i/system_ila_2/inst/net_slot_7_axis_tlast $end
$var reg 3 P, Interface__i3_s0___uplane_depacketiser_0_data_out1_ [2:0] $end
$var reg 3 S, Interface__i3_s1___uplane_depacketiser_0_data_out2_ [2:0] $end
$var reg 3 V, Interface__i3_s2___uplane_depacketiser_0_data_out3_ [2:0] $end
$var reg 3 Y, Interface__i3_s3___uplane_depacketiser_0_data_out4_ [2:0] $end
$var reg 3 \, Interface__i3_s4___uplane_depacketiser_0_data_out5_ [2:0] $end
$var reg 3 _, Interface__i3_s5___uplane_depacketiser_0_data_out6_ [2:0] $end
$var reg 3 b, Interface__i3_s6___uplane_depacketiser_0_data_out7_ [2:0] $end
$var reg 3 e, Interface__i3_s7___uplane_depacketiser_0_data_out8_ [2:0] $end
$var reg 3 h, T_Channel__i3_s0___uplane_depacketiser_0_data_out1_ [2:0] $end
$var reg 3 k, T_Channel__i3_s1___uplane_depacketiser_0_data_out2_ [2:0] $end
$var reg 3 n, T_Channel__i3_s2___uplane_depacketiser_0_data_out3_ [2:0] $end
$var reg 3 q, T_Channel__i3_s3___uplane_depacketiser_0_data_out4_ [2:0] $end
$var reg 3 t, T_Channel__i3_s4___uplane_depacketiser_0_data_out5_ [2:0] $end
$var reg 3 w, T_Channel__i3_s5___uplane_depacketiser_0_data_out6_ [2:0] $end
$var reg 3 z, T_Channel__i3_s6___uplane_depacketiser_0_data_out7_ [2:0] $end
$var reg 3 }, T_Channel__i3_s7___uplane_depacketiser_0_data_out8_ [2:0] $end
$var reg 1 "- _TRIGGER $end
$var reg 1 #- _WINDOW $end
$var reg 1 $- _GAP $end
$upscope $end
$enddefinitions $end
#0
$dumpvars
b1 "
b0 *
b0 .
b1 :
b0 B
0d"
1e"
0f"
b0 g"
0+$
1,$
0-$
b0 .$
0P%
1Q%
0R%
b0 S%
0u&
1v&
0w&
b0 x&
0<(
1=(
0>(
b0 ?(
0a)
1b)
0c)
b0 d)
0(+
1)+
0*+
b0 ++
0M,
1N,
0O,
b0 P,
b0 S,
b0 V,
b11 Y,
b11 \,
b11 _,
b11 b,
b11 e,
b0 h,
b0 k,
b0 n,
b11 q,
b11 t,
b11 w,
b11 z,
b11 },
0"-
1#-
0$-
$end
#97
b10 "
b1 *
#98
b11 "
b1110010 .
#99
b100 "
b0 .
#100
b101 "
b100000000000000000000000000000000110000000000000000000000000000001000000000000000000000000000000001 B
1d"
b100000000000000000000000000000000110000000000000000000000000000001000000000000000000000000000000001 g"
b100000000000000000000000000000000110000000000000000000000000000001000000000000000000000000000000001 .$
b100000000000000000000000000000000110000000000000000000000000000001000000000000000000000000000000001 S%
b100000000000000000000000000000000110000000000000000000000000000001000000000000000000000000000000001 x&
b100000000000000000000000000000000110000000000000000000000000000001000000000000000000000000000000001 ?(
b100000000000000000000000000000000110000000000000000000000000000001000000000000000000000000000000001 d)
b100000000000000000000000000000000110000000000000000000000000000001000000000000000000000000000000001 ++
b1 P,
b1 h,
1"-
#101
b10 :
b1000000000000000000000000000000001110000000000000000000000000000011000000000000000000000000000000101 B
b1000000000000000000000000000000001110000000000000000000000000000011000000000000000000000000000000101 g"
b1000000000000000000000000000000001110000000000000000000000000000011000000000000000000000000000000101 .$
b1000000000000000000000000000000001110000000000000000000000000000011000000000000000000000000000000101 S%
b1000000000000000000000000000000001110000000000000000000000000000011000000000000000000000000000000101 x&
b1000000000000000000000000000000001110000000000000000000000000000011000000000000000000000000000000101 ?(
b1000000000000000000000000000000001110000000000000000000000000000011000000000000000000000000000000101 d)
b1000000000000000000000000000000001110000000000000000000000000000011000000000000000000000000000000101 ++
#102
b11 :
b1100000000000000000000000000000010110000000000000000000000000000101000000000000000000000000000001001 B
b1100000000000000000000000000000010110000000000000000000000000000101000000000000000000000000000001001 g"
b1100000000000000000000000000000010110000000000000000000000000000101000000000000000000000000000001001 .$
b1100000000000000000000000000000010110000000000000000000000000000101000000000000000000000000000001001 S%
b1100000000000000000000000000000010110000000000000000000000000000101000000000000000000000000000001001 x&
b1100000000000000000000000000000010110000000000000000000000000000101000000000000000000000000000001001 ?(
b1100000000000000000000000000000010110000000000000000000000000000101000000000000000000000000000001001 d)
b1100000000000000000000000000000010110000000000000000000000000000101000000000000000000000000000001001 ++
#103
b1 :
b10000000000000000000000000000000011110000000000000000000000000000111000000000000000000000000000001101 B
b10000000000000000000000000000000011110000000000000000000000000000111000000000000000000000000000001101 g"
b10000000000000000000000000000000011110000000000000000000000000000111000000000000000000000000000001101 .$
b10000000000000000000000000000000011110000000000000000000000000000111000000000000000000000000000001101 S%
b10000000000000000000000000000000011110000000000000000000000000000111000000000000000000000000000001101 x&
b10000000000000000000000000000000011110000000000000000000000000000111000000000000000000000000000001101 ?(
b10000000000000000000000000000000011110000000000000000000000000000111000000000000000000000000000001101 d)
b10000000000000000000000000000000011110000000000000000000000000000111000000000000000000000000000001101 ++
#104
b10 :
b10100000000000000000000000000000100110000000000000000000000000001001000000000000000000000000000010001 B
b10100000000000000000000000000000100110000000000000000000000000001001000000000000000000000000000010001 g"
b10100000000000000000000000000000100110000000000000000000000000001001000000000000000000000000000010001 .$
b10100000000000000000000000000000100110000000000000000000000000001001000000000000000000000000000010001 S%
b10100000000000000000000000000000100110000000000000000000000000001001000000000000000000000000000010001 x&
b10100000000000000000000000000000100110000000000000000000000000001001000000000000000000000000000010001 ?(
b10100000000000000000000000000000100110000000000000000000000000001001000000000000000000000000000010001 d)
b10100000000000000000000000000000100110000000000000000000000000001001000000000000000000000000000010001 ++
#105
b11 :
b11000000000000000000000000000000101110000000000000000000000000001011000000000000000000000000000010101 B
b11000000000000000000000000000000101110000000000000000000000000001011000000000000000000000000000010101 g"
b11000000000000000000000000000000101110000000000000000000000000001011000000000000000000000000000010101 .$
b11000000000000000000000000000000101110000000000000000000000000001011000000000000000000000000000010101 S%
b11000000000000000000000000000000101110000000000000000000000000001011000000000000000000000000000010101 x&
b11000000000000000000000000000000101110000000000000000000000000001011000000000000000000000000000010101 ?(
b11000000000000000000000000000000101110000000000000000000000000001011000000000000000000000000000010101 d)
b11000000000000000000000000000000101110000000000000000000000000001011000000000000000000000000000010101 ++
#106
b1 :
b11100000000000000000000000000000110110000000000000000000000000001101000000000000000000000000000011001 B
b11100000000000000000000000000000110110000000000000000000000000001101000000000000000000000000000011001 g"
b11100000000000000000000000000000110110000000000000000000000000001101000000000000000000000000000011001 .$
b11100000000000000000000000000000110110000000000000000000000000001101000000000000000000000000000011001 S%
b11100000000000000000000000000000110110000000000000000000000000001101000000000000000000000000000011001 x&
b11100000000000000000000000000000110110000000000000000000000000001101000000000000000000000000000011001 ?(
b11100000000000000000000000000000110110000000000000000000000000001101000000000000000000000000000011001 d)
b11100000000000000000000000000000110110000000000000000000000000001101000000000000000000000000000011001 ++
#107
b10 :
b100000000000000000000000000000000111110000000000000000000000000001111000000000000000000000000000011101 B
b100000000000000000000000000000000111110000000000000000000000000001111000000000000000000000000000011101 g"
b100000000000000000000000000000000111110000000000000000000000000001111000000000000000000000000000011101 .$
b100000000000000000000000000000000111110000000000000000000000000001111000000000000000000000000000011101 S%
b100000000000000000000000000000000111110000000000000000000000000001111000000000000000000000000000011101 x&
b100000000000000000000000000000000111110000000000000000000000000001111000000000000000000000000000011101 ?(
b100000000000000000000000000000000111110000000000000000000000000001111000000000000000000000000000011101 d)
b100000000000000000000000000000000111110000000000000000000000000001111000000000000000000000000000011101 ++
#108
b11 :
b100100000000000000000000000000001000110000000000000000000000000010001000000000000000000000000000100001 B
b100100000000000000000000000000001000110000000000000000000000000010001000000000000000000000000000100001 g"
b100100000000000000000000000000001000110000000000000000000000000010001000000000000000000000000000100001 .$
b100100000000000000000000000000001000110000000000000000000000000010001000000000000000000000000000100001 S%
b100100000000000000000000000000001000110000000000000000000000000010001000000000000000000000000000100001 x&
b100100000000000000000000000000001000110000000000000000000000000010001000000000000000000000000000100001 ?(
b100100000000000000000000000000001000110000000000000000000000000010001000000000000000000000000000100001 d)
b100100000000000000000000000000001000110000000000000000000000000010001000000000000000000000000000100001 ++
#109
b1 :
b101000000000000000000000000000001001110000000000000000000000000010011000000000000000000000000000100101 B
b101000000000000000000000000000001001110000000000000000000000000010011000000000000000000000000000100101 g"
b101000000000000000000000000000001001110000000000000000000000000010011000000000000000000000000000100101 .$
b101000000000000000000000000000001001110000000000000000000000000010011000000000000000000000000000100101 S%
b101000000000000000000000000000001001110000000000000000000000000010011000000000000000000000000000100101 x&
b101000000000000000000000000000001001110000000000000000000000000010011000000000000000000000000000100101 ?(
b101000000000000000000000000000001001110000000000000000000000000010011000000000000000000000000000100101 d)
b101000000000000000000000000000001001110000000000000000000000000010011000000000000000000000000000100101 ++
#110
b10 :
b101100000000000000000000000000001010110000000000000000000000000010101000000000000000000000000000101001 B
b101100000000000000000000000000001010110000000000000000000000000010101000000000000000000000000000101001 g"
b101100000000000000000000000000001010110000000000000000000000000010101000000000000000000000000000101001 .$
b101100000000000000000000000000001010110000000000000000000000000010101000000000000000000000000000101001 S%
b101100000000000000000000000000001010110000000000000000000000000010101000000000000000000000000000101001 x&
b101100000000000000000000000000001010110000000000000000000000000010101000000000000000000000000000101001 ?(
b101100000000000000000000000000001010110000000000000000000000000010101000000000000000000000000000101001 d)
b101100000000000000000000000000001010110000000000000000000000000010101000000000000000000000000000101001 ++
#111
b11 :
b110000000000000000000000000000001011110000000000000000000000000010111000000000000000000000000000101101 B
b110000000000000000000000000000001011110000000000000000000000000010111000000000000000000000000000101101 g"
b110000000000000000000000000000001011110000000000000000000000000010111000000000000000000000000000101101 .$
b110000000000000000000000000000001011110000000000000000000000000010111000000000000000000000000000101101 S%
b110000000000000000000000000000001011110000000000000000000000000010111000000000000000000000000000101101 x&
b110000000000000000000000000000001011110000000000000000000000000010111000000000000000000000000000101101 ?(
b110000000000000000000000000000001011110000000000000000000000000010111000000000000000000000000000101101 d)
b110000000000000000000000000000001011110000000000000000000000000010111000000000000000000000000000101101 ++
#112
b1 :
b110100000000000000000000000000001100110000000000000000000000000011001000000000000000000000000000110001 B
b110100000000000000000000000000001100110000000000000000000000000011001000000000000000000000000000110001 g"
b110100000000000000000000000000001100110000000000000000000000000011001000000000000000000000000000110001 .$
b110100000000000000000000000000001100110000000000000000000000000011001000000000000000000000000000110001 S%
b110100000000000000000000000000001100110000000000000000000000000011001000000000000000000000000000110001 x&
b110100000000000000000000000000001100110000000000000000000000000011001000000000000000000000000000110001 ?(
b110100000000000000000000000000001100110000000000000000000000000011001000000000000000000000000000110001 d)
b110100000000000000000000000000001100110000000000000000000000000011001000000000000000000000000000110001 ++
#113
b10 :
b111000000000000000000000000000001101110000000000000000000000000011011000000000000000000000000000110101 B
b111000000000000000000000000000001101110000000000000000000000000011011000000000000000000000000000110101 g"
b111000000000000000000000000000001101110000000000000000000000000011011000000000000000000000000000110101 .$
b111000000000000000000000000000001101110000000000000000000000000011011000000000000000000000000000110101 S%
b111000000000000000000000000000001101110000000000000000000000000011011000000000000000000000000000110101 x&
b111000000000000000000000000000001101110000000000000000000000000011011000000000000000000000000000110101 ?(
b111000000000000000000000000000001101110000000000000000000000000011011000000000000000000000000000110101 d)
b111000000000000000000000000000001101110000000000000000000000000011011000000000000000000000000000110101 ++
#114
b11 :
b111100000000000000000000000000001110110000000000000000000000000011101000000000000000000000000000111001 B
b111100000000000000000000000000001110110000000000000000000000000011101000000000000000000000000000111001 g"
b111100000000000000000000000000001110110000000000000000000000000011101000000000000000000000000000111001 .$
b111100000000000000000000000000001110110000000000000000000000000011101000000000000000000000000000111001 S%
b111100000000000000000000000000001110110000000000000000000000000011101000000000000000000000000000111001 x&
b111100000000000000000000000000001110110000000000000000000000000011101000000000000000000000000000111001 ?(
b111100000000000000000000000000001110110000000000000000000000000011101000000000000000000000000000111001 d)
b111100000000000000000000000000001110110000000000000000000000000011101000000000000000000000000000111001 ++
#115
b1 :
b1000000000000000000000000000000001111110000000000000000000000000011111000000000000000000000000000111101 B
b1000000000000000000000000000000001111110000000000000000000000000011111000000000000000000000000000111101 g"
b1000000000000000000000000000000001111110000000000000000000000000011111000000000000000000000000000111101 .$
b1000000000000000000000000000000001111110000000000000000000000000011111000000000000000000000000000111101 S%
b1000000000000000000000000000000001111110000000000000000000000000011111000000000000000000000000000111101 x&
b1000000000000000000000000000000001111110000000000000000000000000011111000000000000000000000000000111101 ?(
b1000000000000000000000000000000001111110000000000000000000000000011111000000000000000000000000000111101 d)
b1000000000000000000000000000000001111110000000000000000000000000011111000000000000000000000000000111101 ++
#116
b10 :
b1000100000000000000000000000000010000110000000000000000000000000100001000000000000000000000000001000001 B
b1000100000000000000000000000000010000110000000000000000000000000100001000000000000000000000000001000001 g"
b1000100000000000000000000000000010000110000000000000000000000000100001000000000000000000000000001000001 .$
b1000100000000000000000000000000010000110000000000000000000000000100001000000000000000000000000001000001 S%
b1000100000000000000000000000000010000110000000000000000000000000100001000000000000000000000000001000001 x&
b1000100000000000000000000000000010000110000000000000000000000000100001000000000000000000000000001000001 ?(
b1000100000000000000000000000000010000110000000000000000000000000100001000000000000000000000000001000001 d)
b1000100000000000000000000000000010000110000000000000000000000000100001000000000000000000000000001000001 ++
#117
b11 :
b1001000000000000000000000000000010001110000000000000000000000000100011000000000000000000000000001000101 B
b1001000000000000000000000000000010001110000000000000000000000000100011000000000000000000000000001000101 g"
b1001000000000000000000000000000010001110000000000000000000000000100011000000000000000000000000001000101 .$
b1001000000000000000000000000000010001110000000000000000000000000100011000000000000000000000000001000101 S%
b1001000000000000000000000000000010001110000000000000000000000000100011000000000000000000000000001000101 x&
b1001000000000000000000000000000010001110000000000000000000000000100011000000000000000000000000001000101 ?(
b1001000000000000000000000000000010001110000000000000000000000000100011000000000000000000000000001000101 d)
b1001000000000000000000000000000010001110000000000000000000000000100011000000000000000000000000001000101 ++
#118
b1 :
b1001100000000000000000000000000010010110000000000000000000000000100101000000000000000000000000001001001 B
b1001100000000000000000000000000010010110000000000000000000000000100101000000000000000000000000001001001 g"
b1001100000000000000000000000000010010110000000000000000000000000100101000000000000000000000000001001001 .$
b1001100000000000000000000000000010010110000000000000000000000000100101000000000000000000000000001001001 S%
b1001100000000000000000000000000010010110000000000000000000000000100101000000000000000000000000001001001 x&
b1001100000000000000000000000000010010110000000000000000000000000100101000000000000000000000000001001001 ?(
b1001100000000000000000000000000010010110000000000000000000000000100101000000000000000000000000001001001 d)
b1001100000000000000000000000000010010110000000000000000000000000100101000000000000000000000000001001001 ++
#119
b10 :
b1010000000000000000000000000000010011110000000000000000000000000100111000000000000000000000000001001101 B
b1010000000000000000000000000000010011110000000000000000000000000100111000000000000000000000000001001101 g"
b1010000000000000000000000000000010011110000000000000000000000000100111000000000000000000000000001001101 .$
b1010000000000000000000000000000010011110000000000000000000000000100111000000000000000000000000001001101 S%
b1010000000000000000000000000000010011110000000000000000000000000100111000000000000000000000000001001101 x&
b1010000000000000000000000000000010011110000000000000000000000000100111000000000000000000000000001001101 ?(
b1010000000000000000000000000000010011110000000000000000000000000100111000000000000000000000000001001101 d)
b1010000000000000000000000000000010011110000000000000000000000000100111000000000000000000000000001001101 ++
#120
b11 :
b1010100000000000000000000000000010100110000000000000000000000000101001000000000000000000000000001010001 B
b1010100000000000000000000000000010100110000000000000000000000000101001000000000000000000000000001010001 g"
b1010100000000000000000000000000010100110000000000000000000000000101001000000000000000000000000001010001 .$
b1010100000000000000000000000000010100110000000000000000000000000101001000000000000000000000000001010001 S%
b1010100000000000000000000000000010100110000000000000000000000000101001000000000000000000000000001010001 x&
b1010100000000000000000000000000010100110000000000000000000000000101001000000000000000000000000001010001 ?(
b1010100000000000000000000000000010100110000000000000000000000000101001000000000000000000000000001010001 d)
b1010100000000000000000000000000010100110000000000000000000000000101001000000000000000000000000001010001 ++
#121
b1 :
b1011000000000000000000000000000010101110000000000000000000000000101011000000000000000000000000001010101 B
b1011000000000000000000000000000010101110000000000000000000000000101011000000000000000000000000001010101 g"
b1011000000000000000000000000000010101110000000000000000000000000101011000000000000000000000000001010101 .$
b1011000000000000000000000000000010101110000000000000000000000000101011000000000000000000000000001010101 S%
b1011000000000000000000000000000010101110000000000000000000000000101011000000000000000000000000001010101 x&
b1011000000000000000000000000000010101110000000000000000000000000101011000000000000000000000000001010101 ?(
b1011000000000000000000000000000010101110000000000000000000000000101011000000000000000000000000001010101 d)
b1011000000000000000000000000000010101110000000000000000000000000101011000000000000000000000000001010101 ++
#122
b10 :
b1011100000000000000000000000000010110110000000000000000000000000101101000000000000000000000000001011001 B
b1011100000000000000000000000000010110110000000000000000000000000101101000000000000000000000000001011001 g"
b1011100000000000000000000000000010110110000000000000000000000000101101000000000000000000000000001011001 .$
b1011100000000000000000000000000010110110000000000000000000000000101101000000000000000000000000001011001 S%
b1011100000000000000000000000000010110110000000000000000000000000101101000000000000000000000000001011001 x&
b1011100000000000000000000000000010110110000000000000000000000000101101000000000000000000000000001011001 ?(
b1011100000000000000000000000000010110110000000000000000000000000101101000000000000000000000000001011001 d)
b1011100000000000000000000000000010110110000000000000000000000000101101000000000000000000000000001011001 ++
#123
b11 :
b1100000000000000000000000000000010111110000000000000000000000000101111000000000000000000000000001011101 B
b1100000000000000000000000000000010111110000000000000000000000000101111000000000000000000000000001011101 g"
b1100000000000000000000000000000010111110000000000000000000000000101111000000000000000000000000001011101 .$
b1100000000000000000000000000000010111110000000000000000000000000101111000000000000000000000000001011101 S%
b1100000000000000000000000000000010111110000000000000000000000000101111000000000000000000000000001011101 x&
b1100000000000000000000000000000010111110000000000000000000000000101111000000000000000000000000001011101 ?(
b1100000000000000000000000000000010111110000000000000000000000000101111000000000000000000000000001011101 d)
b1100000000000000000000000000000010111110000000000000000000000000101111000000000000000000000000001011101 ++
#124
b1 :
b11000110000000000000000000000000110001000000000000000000000000001100001 B
b11000110000000000000000000000000110001000000000000000000000000001100001 g"
b11000110000000000000000000000000110001000000000000000000000000001100001 .$
b11000110000000000000000000000000110001000000000000000000000000001100001 S%
b11000110000000000000000000000000110001000000000000000000000000001100001 x&
b11000110000000000000000000000000110001000000000000000000000000001100001 ?(
b11000110000000000000000000000000110001000000000000000000000000001100001 d)
b11000110000000000000000000000000110001000000000000000000000000001100001 ++
#125
b10 :
b100000000000000000000000000000000110000000000000000000000000000001000000000000000000000000000000001 B
b100000000000000000000000000000000110000000000000000000000000000001000000000000000000000000000000001 g"
b100000000000000000000000000000000110000000000000000000000000000001000000000000000000000000000000001 .$
b100000000000000000000000000000000110000000000000000000000000000001000000000000000000000000000000001 S%
b100000000000000000000000000000000110000000000000000000000000000001000000000000000000000000000000001 x&
b100000000000000000000000000000000110000000000000000000000000000001000000000000000000000000000000001 ?(
b100000000000000000000000000000000110000000000000000000000000000001000000000000000000000000000000001 d)
b100000000000000000000000000000000110000000000000000000000000000001000000000000000000000000000000001 ++
#126
b11 :
b1000000000000000000000000000000001110000000000000000000000000000011000000000000000000000000000000101 B
b1000000000000000000000000000000001110000000000000000000000000000011000000000000000000000000000000101 g"
b1000000000000000000000000000000001110000000000000000000000000000011000000000000000000000000000000101 .$
b1000000000000000000000000000000001110000000000000000000000000000011000000000000000000000000000000101 S%
b1000000000000000000000000000000001110000000000000000000000000000011000000000000000000000000000000101 x&
b1000000000000000000000000000000001110000000000000000000000000000011000000000000000000000000000000101 ?(
b1000000000000000000000000000000001110000000000000000000000000000011000000000000000000000000000000101 d)
b1000000000000000000000000000000001110000000000000000000000000000011000000000000000000000000000000101 ++
#127
b1 :
b1100000000000000000000000000000010110000000000000000000000000000101000000000000000000000000000001001 B
b1100000000000000000000000000000010110000000000000000000000000000101000000000000000000000000000001001 g"
b1100000000000000000000000000000010110000000000000000000000000000101000000000000000000000000000001001 .$
b1100000000000000000000000000000010110000000000000000000000000000101000000000000000000000000000001001 S%
b1100000000000000000000000000000010110000000000000000000000000000101000000000000000000000000000001001 x&
b1100000000000000000000000000000010110000000000000000000000000000101000000000000000000000000000001001 ?(
b1100000000000000000000000000000010110000000000000000000000000000101000000000000000000000000000001001 d)
b1100000000000000000000000000000010110000000000000000000000000000101000000000000000000000000000001001 ++
#128
b10 :
b10000000000000000000000000000000011110000000000000000000000000000111000000000000000000000000000001101 B
b10000000000000000000000000000000011110000000000000000000000000000111000000000000000000000000000001101 g"
b10000000000000000000000000000000011110000000000000000000000000000111000000000000000000000000000001101 .$
b10000000000000000000000000000000011110000000000000000000000000000111000000000000000000000000000001101 S%
b10000000000000000000000000000000011110000000000000000000000000000111000000000000000000000000000001101 x&
b10000000000000000000000000000000011110000000000000000000000000000111000000000000000000000000000001101 ?(
b10000000000000000000000000000000011110000000000000000000000000000111000000000000000000000000000001101 d)
b10000000000000000000000000000000011110000000000000000000000000000111000000000000000000000000000001101 ++
#129
b11 :
b10100000000000000000000000000000100110000000000000000000000000001001000000000000000000000000000010001 B
b10100000000000000000000000000000100110000000000000000000000000001001000000000000000000000000000010001 g"
b10100000000000000000000000000000100110000000000000000000000000001001000000000000000000000000000010001 .$
b10100000000000000000000000000000100110000000000000000000000000001001000000000000000000000000000010001 S%
b10100000000000000000000000000000100110000000000000000000000000001001000000000000000000000000000010001 x&
b10100000000000000000000000000000100110000000000000000000000000001001000000000000000000000000000010001 ?(
b10100000000000000000000000000000100110000000000000000000000000001001000000000000000000000000000010001 d)
b10100000000000000000000000000000100110000000000000000000000000001001000000000000000000000000000010001 ++
#130
b1 :
b11000000000000000000000000000000101110000000000000000000000000001011000000000000000000000000000010101 B
b11000000000000000000000000000000101110000000000000000000000000001011000000000000000000000000000010101 g"
b11000000000000000000000000000000101110000000000000000000000000001011000000000000000000000000000010101 .$
b11000000000000000000000000000000101110000000000000000000000000001011000000000000000000000000000010101 S%
b11000000000000000000000000000000101110000000000000000000000000001011000000000000000000000000000010101 x&
b11000000000000000000000000000000101110000000000000000000000000001011000000000000000000000000000010101 ?(
b11000000000000000000000000000000101110000000000000000000000000001011000000000000000000000000000010101 d)
b11000000000000000000000000000000101110000000000000000000000000001011000000000000000000000000000010101 ++
#131
b10 :
b11100000000000000000000000000000110110000000000000000000000000001101000000000000000000000000000011001 B
b11100000000000000000000000000000110110000000000000000000000000001101000000000000000000000000000011001 g"
b11100000000000000000000000000000110110000000000000000000000000001101000000000000000000000000000011001 .$
b11100000000000000000000000000000110110000000000000000000000000001101000000000000000000000000000011001 S%
b11100000000000000000000000000000110110000000000000000000000000001101000000000000000000000000000011001 x&
b11100000000000000000000000000000110110000000000000000000000000001101000000000000000000000000000011001 ?(
b11100000000000000000000000000000110110000000000000000000000000001101000000000000000000000000000011001 d)
b11100000000000000000000000000000110110000000000000000000000000001101000000000000000000000000000011001 ++
#132
b11 :
b100000000000000000000000000000000111110000000000000000000000000001111000000000000000000000000000011101 B
b100000000000000000000000000000000111110000000000000000000000000001111000000000000000000000000000011101 g"
b100000000000000000000000000000000111110000000000000000000000000001111000000000000000000000000000011101 .$
b100000000000000000000000000000000111110000000000000000000000000001111000000000000000000000000000011101 S%
b100000000000000000000000000000000111110000000000000000000000000001111000000000000000000000000000011101 x&
b100000000000000000000000000000000111110000000000000000000000000001111000000000000000000000000000011101 ?(
b100000000000000000000000000000000111110000000000000000000000000001111000000000000000000000000000011101 d)
b100000000000000000000000000000000111110000000000000000000000000001111000000000000000000000000000011101 ++
#133
b1 :
b100100000000000000000000000000001000110000000000000000000000000010001000000000000000000000000000100001 B
b100100000000000000000000000000001000110000000000000000000000000010001000000000000000000000000000100001 g"
b100100000000000000000000000000001000110000000000000000000000000010001000000000000000000000000000100001 .$
b100100000000000000000000000000001000110000000000000000000000000010001000000000000000000000000000100001 S%
b100100000000000000000000000000001000110000000000000000000000000010001000000000000000000000000000100001 x&
b100100000000000000000000000000001000110000000000000000000000000010001000000000000000000000000000100001 ?(
b100100000000000000000000000000001000110000000000000000000000000010001000000000000000000000000000100001 d)
b100100000000000000000000000000001000110000000000000000000000000010001000000000000000000000000000100001 ++
#134
b10 :
b101000000000000000000000000000001001110000000000000000000000000010011000000000000000000000000000100101 B
b101000000000000000000000000000001001110000000000000000000000000010011000000000000000000000000000100101 g"
b101000000000000000000000000000001001110000000000000000000000000010011000000000000000000000000000100101 .$
b101000000000000000000000000000001001110000000000000000000000000010011000000000000000000000000000100101 S%
b101000000000000000000000000000001001110000000000000000000000000010011000000000000000000000000000100101 x&
b101000000000000000000000000000001001110000000000000000000000000010011000000000000000000000000000100101 ?(
b101000000000000000000000000000001001110000000000000000000000000010011000000000000000000000000000100101 d)
b101000000000000000000000000000001001110000000000000000000000000010011000000000000000000000000000100101 ++
#135
b11 :
b101100000000000000000000000000001010110000000000000000000000000010101000000000000000000000000000101001 B
b101100000000000000000000000000001010110000000000000000000000000010101000000000000000000000000000101001 g"
b101100000000000000000000000000001010110000000000000000000000000010101000000000000000000000000000101001 .$
b101100000000000000000000000000001010110000000000000000000000000010101000000000000000000000000000101001 S%
b101100000000000000000000000000001010110000000000000000000000000010101000000000000000000000000000101001 x&
b101100000000000000000000000000001010110000000000000000000000000010101000000000000000000000000000101001 ?(
b101100000000000000000000000000001010110000000000000000000000000010101000000000000000000000000000101001 d)
b101100000000000000000000000000001010110000000000000000000000000010101000000000000000000000000000101001 ++
#136
b1 :
b110000000000000000000000000000001011110000000000000000000000000010111000000000000000000000000000101101 B
b110000000000000000000000000000001011110000000000000000000000000010111000000000000000000000000000101101 g"
b110000000000000000000000000000001011110000000000000000000000000010111000000000000000000000000000101101 .$
b110000000000000000000000000000001011110000000000000000000000000010111000000000000000000000000000101101 S%
b110000000000000000000000000000001011110000000000000000000000000010111000000000000000000000000000101101 x&
b110000000000000000000000000000001011110000000000000000000000000010111000000000000000000000000000101101 ?(
b110000000000000000000000000000001011110000000000000000000000000010111000000000000000000000000000101101 d)
b110000000000000000000000000000001011110000000000000000000000000010111000000000000000000000000000101101 ++
