Looping_Hardware-design/project_1/.Xil/Vivado-22971-client70/hw_ila_data_2/zip_work/waveform.vcd
$date
        2021-Mar-01 14:17:03
$end
$version
        Vivado v2019.1 (64-bit)
$end
$timescale
        1ps
$end
$scope module dut $end
$var reg 3 " check_40G_sim_i/system_ila_1/inst/probe0_1 [2:0] $end
$var reg 2 % check_40G_sim_i/system_ila_1/inst/probe1_1 [1:0] $end
$var reg 128 ' check_40G_sim_i/system_ila_1/inst/net_slot_0_axis_tdata [127:0] $end
$var reg 70 I" check_40G_sim_i/system_ila_1/inst/net_slot_0_axis_tuser [69:0] $end
$var reg 1 1# check_40G_sim_i/system_ila_1/inst/net_slot_0_axis_tvalid $end
$var reg 1 2# check_40G_sim_i/system_ila_1/inst/net_slot_0_axis_tready $end
$var reg 1 3# check_40G_sim_i/system_ila_1/inst/net_slot_0_axis_tlast $end
$var reg 128 4# check_40G_sim_i/system_ila_1/inst/net_slot_1_axis_tdata [127:0] $end
$var reg 70 V$ check_40G_sim_i/system_ila_1/inst/net_slot_1_axis_tuser [69:0] $end
$var reg 1 >% check_40G_sim_i/system_ila_1/inst/net_slot_1_axis_tvalid $end
$var reg 1 ?% check_40G_sim_i/system_ila_1/inst/net_slot_1_axis_tready $end
$var reg 1 @% check_40G_sim_i/system_ila_1/inst/net_slot_1_axis_tlast $end
$var reg 128 A% check_40G_sim_i/system_ila_1/inst/net_slot_2_axis_tdata [127:0] $end
$var reg 70 c& check_40G_sim_i/system_ila_1/inst/net_slot_2_axis_tuser [69:0] $end
$var reg 1 K' check_40G_sim_i/system_ila_1/inst/net_slot_2_axis_tvalid $end
$var reg 1 L' check_40G_sim_i/system_ila_1/inst/net_slot_2_axis_tready $end
$var reg 1 M' check_40G_sim_i/system_ila_1/inst/net_slot_2_axis_tlast $end
$var reg 3 N' Interface__i2_s0___axis_data_fifo_8_M_AXIS_ [2:0] $end
$var reg 3 Q' Interface__i2_s1___Ethernet_demux_0_cu_data_out_ [2:0] $end
$var reg 3 T' Interface__i2_s2___ecpri_demux_0_control_data_out_ [2:0] $end
$var reg 3 W' T_Channel__i2_s0___axis_data_fifo_8_M_AXIS_ [2:0] $end
$var reg 3 Z' T_Channel__i2_s1___Ethernet_demux_0_cu_data_out_ [2:0] $end
$var reg 3 ]' T_Channel__i2_s2___ecpri_demux_0_control_data_out_ [2:0] $end
$var reg 1 `' _TRIGGER $end
$var reg 1 a' _WINDOW $end
$var reg 1 b' _GAP $end
$upscope $end
$enddefinitions $end
#0
$dumpvars
b0 "
b0 %
b0 '
b0 I"
01#
02#
03#
b0 4#
b0 V$
0>%
1?%
0@%
b0 A%
b0 c&
0K'
1L'
0M'
b0 N'
b11 Q'
b11 T'
b0 W'
b11 Z'
b11 ]'
0`'
1a'
0b'
$end
#100
11#
12#
b1 N'
b1 W'
1`'
#101
b100 "
b11111110111111101111111011111110111111101111111011111110111111101111111011111110111111101111111011111110111111101111111011111110 '
b1000000101010101010101010101010101010101010101010101010111010101 I"
b11111110111111101111111011111110111111101111111011111110111111101111111011111110111111101111111011111110111111101111111011111110 4#
b1000000101010101010101010101010101010101010101010101010111010101 V$
#102
b11111110111111101111111011111110111111101111111011111110111111101111111011111110111111101111111011111110111111101111111011111110 A%
b1000000101010101010101010101010101010101010101010101010111010101 c&
#107
b110000000100100000000000000000000000010000101010000000011100100000010100000000000000000000000000000001000000000000000000000000 '
b110000000100100000000000000000000000010000101010000000011100100000010100000000000000000000000000000001000000000000000000000000 4#
#108
b11111110111111101111111011111110111111101111111011111110111111101111111011111110111111101111111011111110111111101111111011111110 '
b11111110111111101111111011111110111111101111111011111110111111101111111011111110111111101111111011111110111111101111111011111110 4#
b110000000100100000000000000000000000010000101010000000011100100000010100000000000000000000000000000001000000000000000000000000 A%
#109
b1110101000101010000010100000000000000000001000000000000010100000000000000001011111111110000111111111110111111110000100000000000 '
b1110101000101010000010100000000000000000001000000000000010100000000000000001011111111110000111111111110111111110000100000000000 4#
b11111110111111101111111011111110111111101111111011111110111111101111111011111110111111101111111011111110111111101111111011111110 A%
#110
b11010101111111111010111111111001011110101111101001010001010010001011111011111010100001001111100001100000101010101100000001010101 '
b11010101111111111010111111111001011110101111101001010001010010001011111011111010100001001111100001100000101010101100000001010101 4#
b1110101000101010000010100000000000000000001000000000000010100000000000000001011111111110000111111111110111111110000100000000000 A%
#111
b10001100011011101101111110110000111011111101110101111011101011100001101010111000100011110101101000000111111000110111000011100110 '
b10001100011011101101111110110000111011111101110101111011101011100001101010111000100011110101101000000111111000110111000011100110 4#
b11010101111111111010111111111001011110101111101001010001010010001011111011111010100001001111100001100000101010101100000001010101 A%
#112
b1010000001110110111101111000010110011101101011011110101100011101010100110010100110111001011001111111001111010000111000000010001 '
b1010000001110110111101111000010110011101101011011110101100011101010100110010100110111001011001111111001111010000111000000010001 4#
b10001100011011101101111110110000111011111101110101111011101011100001101010111000100011110101101000000111111000110111000011100110 A%
#113
b11101000101111111011111010111110100011110011001001010111101101110011101000010000100010000010101010001010011110110111011101100000 '
b11101000101111111011111010111110100011110011001001010111101101110011101000010000100010000010101010001010011110110111011101100000 4#
b1010000001110110111101111000010110011101101011011110101100011101010100110010100110111001011001111111001111010000111000000010001 A%
#114
b11000111100000110000101100011011100101100001100011110010100111111110010010110100101000010001000010000111110011110000101000011000 '
b11000111100000110000101100011011100101100001100011110010100111111110010010110100101000010001000010000111110011110000101000011000 4#
b11101000101111111011111010111110100011110011001001010111101101110011101000010000100010000010101010001010011110110111011101100000 A%
#115
b1110001101110011101111100000111101110111011011001011010001001101010110001100000000101111001101000111011111001000110101110110111 '
b1110001101110011101111100000111101110111011011001011010001001101010110001100000000101111001101000111011111001000110101110110111 4#
b11000111100000110000101100011011100101100001100011110010100111111110010010110100101000010001000010000111110011110000101000011000 A%
#116
b1100111110010000000101000001111110111000011100011100010111110101010110101101110111100111100010111001111011001001010000101111101 '
b1100111110010000000101000001111110111000011100011100010111110101010110101101110111100111100010111001111011001001010000101111101 4#
b1110001101110011101111100000111101110111011011001011010001001101010110001100000000101111001101000111011111001000110101110110111 A%
#117
b100001111011101110100011100011001001001010111011011100100000000010110001111100110001011011010011000010100101001000101110111011 '
b100001111011101110100011100011001001001010111011011100100000000010110001111100110001011011010011000010100101001000101110111011 4#
b1100111110010000000101000001111110111000011100011100010111110101010110101101110111100111100010111001111011001001010000101111101 A%
#118
b1111110100111001100111110000111101011010111001000101010010101101101110010000000111101111011000100110101110010100110011110110000 '
b1111110100111001100111110000111101011010111001000101010010101101101110010000000111101111011000100110101110010100110011110110000 4#
b100001111011101110100011100011001001001010111011011100100000000010110001111100110001011011010011000010100101001000101110111011 A%
#119
b11110011000101000011010111011110111010010010001001010101001011110101111100100001111001000110010101101110111000010101111101111 '
b11110011000101000011010111011110111010010010001001010101001011110101111100100001111001000110010101101110111000010101111101111 4#
b1111110100111001100111110000111101011010111001000101010010101101101110010000000111101111011000100110101110010100110011110110000 A%
#120
b11101011010001101010010101010011000100010110011010010110111101001110001010111100001100011111001001110111111001111101111110110001 '
b11101011010001101010010101010011000100010110011010010110111101001110001010111100001100011111001001110111111001111101111110110001 4#
b11110011000101000011010111011110111010010010001001010101001011110101111100100001111001000110010101101110111000010101111101111 A%
#121
b1011001001100100101011010111101000001110011100111101000101000010111111001101011011001000100011101001110010001000100111110011010 '
b1011001001100100101011010111101000001110011100111101000101000010111111001101011011001000100011101001110010001000100111110011010 4#
b11101011010001101010010101010011000100010110011010010110111101001110001010111100001100011111001001110111111001111101111110110001 A%
#122
b1011100111000100000011001001101010111011110011001101110010011000100101101110000011100000100110100001001011100110111010110111110 '
b1011100111000100000011001001101010111011110011001101110010011000100101101110000011100000100110100001001011100110111010110111110 4#
b1011001001100100101011010111101000001110011100111101000101000010111111001101011011001000100011101001110010001000100111110011010 A%
#123
b11010010000101110101111100100010111101101011110110011000100001001101101001000001100001011010010010011001111011010101111010000111 '
b11010010000101110101111100100010111101101011110110011000100001001101101001000001100001011010010010011001111011010101111010000111 4#
b1011100111000100000011001001101010111011110011001101110010011000100101101110000011100000100110100001001011100110111010110111110 A%
#124
b1110010100010111110001110010000111001100100111000101010110100101100111011001110100000011011011100100000000101110001000101011000 '
b1110010100010111110001110010000111001100100111000101010110100101100111011001110100000011011011100100000000101110001000101011000 4#
b11010010000101110101111100100010111101101011110110011000100001001101101001000001100001011010010010011001111011010101111010000111 A%
#125
b100101000001000000000111001110101110110111101101001101001110001111100111000110111011010110100001000100101001100111101 '
b100101000001000000000111001110101110110111101101001101001110001111100111000110111011010110100001000100101001100111101 4#
b1110010100010111110001110010000111001100100111000101010110100101100111011001110100000011011011100100000000101110001000101011000 A%
#126
b10111001100111010101000001100100101000101010010000100010110100111000110111101010100010010110010001001101110010001010100000101 '
b10111001100111010101000001100100101000101010010000100010110100111000110111101010100010010110010001001101110010001010100000101 4#
b100101000001000000000111001110101110110111101101001101001110001111100111000110111011010110100001000100101001100111101 A%
#127
b11011101001001111001100110001001010011111101010001000101000000001111010011101000000001100011001100011001001010101110101100101000 '
b11011101001001111001100110001001010011111101010001000101000000001111010011101000000001100011001100011001001010101110101100101000 4#
b10111001100111010101000001100100101000101010010000100010110100111000110111101010100010010110010001001101110010001010100000101 A%
#128
b11100000100101111001100001000000100111110111001011010111111101101100011011000111101110101101100001000001001100000010010111001101 '
b11100000100101111001100001000000100111110111001011010111111101101100011011000111101110101101100001000001001100000010010111001101 4#
b11011101001001111001100110001001010011111101010001000101000000001111010011101000000001100011001100011001001010101110101100101000 A%
#129
b101100010001101010110101010001101100110010110100100001111001001010101111111101011000000010010001001000011001010011000111010011 '
b101100010001101010110101010001101100110010110100100001111001001010101111111101011000000010010001001000011001010011000111010011 4#
b11100000100101111001100001000000100111110111001011010111111101101100011011000111101110101101100001000001001100000010010111001101 A%
#130
b101111110000111101100011100111010010101110100010001010000001110010011011101010100111101011111111010010100111001000100101101101 '
b101111110000111101100011100111010010101110100010001010000001110010011011101010100111101011111111010010100111001000100101101101 4#
b101100010001101010110101010001101100110010110100100001111001001010101111111101011000000010010001001000011001010011000111010011 A%
#131
b101111101000000000000101001001001000011011100000110101101101011010010111000000001100101010100001000100100010000001101101101001 '
b101111101000000000000101001001001000011011100000110101101101011010010111000000001100101010100001000100100010000001101101101001 4#
b101111110000111101100011100111010010101110100010001010000001110010011011101010100111101011111111010010100111001000100101101101 A%
#132
b10101000101110000001101011000110000001000101001001001101010000100101010110101000111011010110010101001111011100000111000010100011 '
b10101000101110000001101011000110000001000101001001001101010000100101010110101000111011010110010101001111011100000111000010100011 4#
b101111101000000000000101001001001000011011100000110101101101011010010111000000001100101010100001000100100010000001101101101001 A%
#133
b10010100000000011111000000010100110000111001010101101100011100110000000111111001001001101111000100001110110000101101011010111010 '
b10010100000000011111000000010100110000111001010101101100011100110000000111111001001001101111000100001110110000101101011010111010 4#
b10101000101110000001101011000110000001000101001001001101010000100101010110101000111011010110010101001111011100000111000010100011 A%
#134
b11111010011011011101011001111111111011100110111110010101110110100000000101110010110011001000100111000100000111100010010101000 '
b11111010011011011101011001111111111011100110111110010101110110100000000101110010110011001000100111000100000111100010010101000 4#
b10010100000000011111000000010100110000111001010101101100011100110000000111111001001001101111000100001110110000101101011010111010 A%
#135
b1001001100101011101111101010001110111010001101111111110001001110000001011111111001101100010001011111100000010101000000011110100 '
b1001001100101011101111101010001110111010001101111111110001001110000001011111111001101100010001011111100000010101000000011110100 4#
b11111010011011011101011001111111111011100110111110010101110110100000000101110010110011001000100111000100000111100010010101000 A%
#136
b11010101101110000011111011111001101000101111111000000101111011111010001010001001010010000100110101100011000010110101110001101010 '
b11010101101110000011111011111001101000101111111000000101111011111010001010001001010010000100110101100011000010110101110001101010 4#
b1001001100101011101111101010001110111010001101111111110001001110000001011111111001101100010001011111100000010101000000011110100 A%
#137
b1001000100101001101101011011101000010000101101100001010101101001001010100000101000110101111111000010111101101000001000001011110 '
b1001000100101001101101011011101000010000101101100001010101101001001010100000101000110101111111000010111101101000001000001011110 4#
b11010101101110000011111011111001101000101111111000000101111011111010001010001001010010000100110101100011000010110101110001101010 A%
#138
b11000011001011001111111111111101100110101101101110001101111000100000001001100010000010000110000011001110100100110011111011011101 '
b11000011001011001111111111111101100110101101101110001101111000100000001001100010000010000110000011001110100100110011111011011101 4#
b1001000100101001101101011011101000010000101101100001010101101001001010100000101000110101111111000010111101101000001000001011110 A%
#139
b1100100010010000000111100001100110010110100011010001011100010011011011101000000101110000100100100001010111001100001111100101 '
b1100100010010000000111100001100110010110100011010001011100010011011011101000000101110000100100100001010111001100001111100101 4#
b11000011001011001111111111111101100110101101101110001101111000100000001001100010000010000110000011001110100100110011111011011101 A%
#140
b10110111101100000110101111011001011110011010110001101001011101010111100100111000110110100010100000111110000101111111101100010011 '
b10110111101100000110101111011001011110011010110001101001011101010111100100111000110110100010100000111110000101111111101100010011 4#
b1100100010010000000111100001100110010110100011010001011100010011011011101000000101110000100100100001010111001100001111100101 A%
#141
b10111100001111111111010100001110110010101010001001011001101001001111110101011111101011010011100110001100111101011010010101001100 '
b10111100001111111111010100001110110010101010001001011001101001001111110101011111101011010011100110001100111101011010010101001100 4#
b10110111101100000110101111011001011110011010110001101001011101010111100100111000110110100010100000111110000101111111101100010011 A%
#142
b10101000010111001111001110110111001000010001100100011001011101011001010100101000000010001000100001010000000000100110111110111 '
b10101000010111001111001110110111001000010001100100011001011101011001010100101000000010001000100001010000000000100110111110111 4#
b10111100001111111111010100001110110010101010001001011001101001001111110101011111101011010011100110001100111101011010010101001100 A%
#143
b111101011100111100110000101100100010110110101111010111001101110000100010000110000011101100110111010100110100000100001001011010 '
b111101011100111100110000101100100010110110101111010111001101110000100010000110000011101100110111010100110100000100001001011010 4#
b10101000010111001111001110110111001000010001100100011001011101011001010100101000000010001000100001010000000000100110111110111 A%
#144
b10111111110010011010101001110001110011011100100111000100001000110011101000011101101001011100100111110100100110110101001111011 '
b10111111110010011010101001110001110011011100100111000100001000110011101000011101101001011100100111110100100110110101001111011 4#
b111101011100111100110000101100100010110110101111010111001101110000100010000110000011101100110111010100110100000100001001011010 A%
#145
b1010000000011000110011011000111010000011011101110110100100110111100100111011001100110000011011000000010011011100100001001000010 '
b1010000000011000110011011000111010000011011101110110100100110111100100111011001100110000011011000000010011011100100001001000010 4#
b10111111110010011010101001110001110011011100100111000100001000110011101000011101101001011100100111110100100110110101001111011 A%
#146
b1001000010110101000001000111000111011010010011000000111110111111010111100011001110101000010101111010101011100010101000000101010 '
b1001000010110101000001000111000111011010010011000000111110111111010111100011001110101000010101111010101011100010101000000101010 4#
b1010000000011000110011011000111010000011011101110110100100110111100100111011001100110000011011000000010011011100100001001000010 A%
#147
b10010110011100110010000011100000110010110000100100000110011000000110000100110001110000111100010000010110101101010111111101000 '
b10010110011100110010000011100000110010110000100100000110011000000110000100110001110000111100010000010110101101010111111101000 4#
b1001000010110101000001000111000111011010010011000000111110111111010111100011001110101000010101111010101011100010101000000101010 A%
#148
b11011000011100111001100000100110010010011001000100100001000010001011001011010011100111001010000001100010010011001000010010100000 '
b11011000011100111001100000100110010010011001000100100001000010001011001011010011100111001010000001100010010011001000010010100000 4#
b10010110011100110010000011100000110010110000100100000110011000000110000100110001110000111100010000010110101101010111111101000 A%
#149
b101000100111110001010011100010010111001001101100000101001101010101000101110101101000001111011011100011010111011010001100111010 '
b101000100111110001010011100010010111001001101100000101001101010101000101110101101000001111011011100011010111011010001100111010 4#
b11011000011100111001100000100110010010011001000100100001000010001011001011010011100111001010000001100010010011001000010010100000 A%
#150
b10100011001101001100110010001011000010000000110100111000100010101110010010111111111111000101001011110011101110000111100000010001 '
b10100011001101001100110010001011000010000000110100111000100010101110010010111111111111000101001011110011101110000111100000010001 4#
b101000100111110001010011100010010111001001101100000101001101010101000101110101101000001111011011100011010111011010001100111010 A%
#151
b1010001111011001110001110010010110100101110101110010000001001110110010110001010100110010000011101110001000110110110111001100 '
b1010001111011001110001110010010110100101110101110010000001001110110010110001010100110010000011101110001000110110110111001100 4#
b10100011001101001100110010001011000010000000110100111000100010101110010010111111111111000101001011110011101110000111100000010001 A%
#152
b11000000000011101011101111101101110101010100111110001000000001001011101101100011100100000111100100110010011011101011000111001111 '
b11000000000011101011101111101101110101010100111110001000000001001011101101100011100100000111100100110010011011101011000111001111 4#
b1010001111011001110001110010010110100101110101110010000001001110110010110001010100110010000011101110001000110110110111001100 A%
#153
b1101111101011101011000100000001111010110101100110010001000100101111010000100110000001001011010001001001111001100001101100101 '
b1101111101011101011000100000001111010110101100110010001000100101111010000100110000001001011010001001001111001100001101100101 4#
b11000000000011101011101111101101110101010100111110001000000001001011101101100011100100000111100100110010011011101011000111001111 A%
#154
b11010001110000111100110010110001110011001011001011010000000011100111011101110010101000100001000000001100110101110011110000011011 '
b11010001110000111100110010110001110011001011001011010000000011100111011101110010101000100001000000001100110101110011110000011011 4#
b1101111101011101011000100000001111010110101100110010001000100101111010000100110000001001011010001001001111001100001101100101 A%
#155
b11111000100111010101101101010110000011001110011000001110101110101010100010111011111100000110001011001110000000100111101100101101 '
b11111000100111010101101101010110000011001110011000001110101110101010100010111011111100000110001011001110000000100111101100101101 4#
b11010001110000111100110010110001110011001011001011010000000011100111011101110010101000100001000000001100110101110011110000011011 A%
#156
b111111100010101011000100111100000010001011111000010110010111101010011101110001000000010001001101101100000000000001001000001111 '
b111111100010101011000100111100000010001011111000010110010111101010011101110001000000010001001101101100000000000001001000001111 4#
b11111000100111010101101101010110000011001110011000001110101110101010100010111011111100000110001011001110000000100111101100101101 A%
#157
b1100111111011001111000000011111111111000011111101011110100001110010101100011011001101100011100001001000010111111110111011100010 '
b1100111111011001111000000011111111111000011111101011110100001110010101100011011001101100011100001001000010111111110111011100010 4#
b111111100010101011000100111100000010001011111000010110010111101010011101110001000000010001001101101100000000000001001000001111 A%
#158
b1000101100110011111100111100101111011100100110001010100010001100001000100001011000000001010100101000101000000100101010001110100 '
b1000101100110011111100111100101111011100100110001010100010001100001000100001011000000001010100101000101000000100101010001110100 4#
b1100111111011001111000000011111111111000011111101011110100001110010101100011011001101100011100001001000010111111110111011100010 A%
#159
b10010100010010001110010110010101000110010100000100001010100101111100011101110101011110110001110101001000110100011100100110001 '
b10010100010010001110010110010101000110010100000100001010100101111100011101110101011110110001110101001000110100011100100110001 4#
b1000101100110011111100111100101111011100100110001010100010001100001000100001011000000001010100101000101000000100101010001110100 A%
#160
b100010011000111100110100111101110010000000000100101100101010100101101000011110010111010011001010011100011100101011110100110100 '
b100010011000111100110100111101110010000000000100101100101010100101101000011110010111010011001010011100011100101011110100110100 4#
b10010100010010001110010110010101000110010100000100001010100101111100011101110101011110110001110101001000110100011100100110001 A%
#161
b10010011001001111010110111010010110100100011100110100100011111000000100111010001101110101110011100000100101110100111101111100110 '
b10010011001001111010110111010010110100100011100110100100011111000000100111010001101110101110011100000100101110100111101111100110 4#
b100010011000111100110100111101110010000000000100101100101010100101101000011110010111010011001010011100011100101011110100110100 A%
#162
b1010001000001110101010010101101011001001001000011110000001101101101101110011011111010011100001011110111010110111110110001111000 '
b1010001000001110101010010101101011001001001000011110000001101101101101110011011111010011100001011110111010110111110110001111000 4#
b10010011001001111010110111010010110100100011100110100100011111000000100111010001101110101110011100000100101110100111101111100110 A%
#163
b1110101111000001100100101000010110010111010011010011110110111100111001110110011011000011101011111100101101010111010101101011011 '
b1110101111000001100100101000010110010111010011010011110110111100111001110110011011000011101011111100101101010111010101101011011 4#
b1010001000001110101010010101101011001001001000011110000001101101101101110011011111010011100001011110111010110111110110001111000 A%
#164
b11100111111010001010011100101100101000110000110100010000111100110100110111110010000101100011110101100101111011000000100110000111 '
b11100111111010001010011100101100101000110000110100010000111100110100110111110010000101100011110101100101111011000000100110000111 4#
b1110101111000001100100101000010110010111010011010011110110111100111001110110011011000011101011111100101101010111010101101011011 A%
#165
b10110110111101010000100010010011010110110001111001001001111001111001000101110100111101000111110001000001101110001000011100100110 '
b10110110111101010000100010010011010110110001111001001001111001111001000101110100111101000111110001000001101110001000011100100110 4#
b11100111111010001010011100101100101000110000110100010000111100110100110111110010000101100011110101100101111011000000100110000111 A%
#166
b10110111111101001101111001111100000011101110001010001010000001101010011011001000100110111101111110110001001111001101110101110011 '
b10110111111101001101111001111100000011101110001010001010000001101010011011001000100110111101111110110001001111001101110101110011 4#
b10110110111101010000100010010011010110110001111001001001111001111001000101110100111101000111110001000001101110001000011100100110 A%
#167
b10110001100100110000011110111000010000011010000010000101001011100000101110101010110110111110011101000000001000101101010111101000 '
b10110001100100110000011110111000010000011010000010000101001011100000101110101010110110111110011101000000001000101101010111101000 4#
b10110111111101001101111001111100000011101110001010001010000001101010011011001000100110111101111110110001001111001101110101110011 A%
#168
b1110111001000010000110101010111110010011010001110100001001101100100011110000000100010110011001100001111111000001010011000110011 '
b1110111001000010000110101010111110010011010001110100001001101100100011110000000100010110011001100001111111000001010011000110011 4#
b10110001100100110000011110111000010000011010000010000101001011100000101110101010110110111110011101000000001000101101010111101000 A%
#169
b10001101111000110011101010011011011011001111010110011001001001100010101010101111100001111100011011001010001101100101110110110000 '
b10001101111000110011101010011011011011001111010110011001001001100010101010101111100001111100011011001010001101100101110110110000 4#
b1110111001000010000110101010111110010011010001110100001001101100100011110000000100010110011001100001111111000001010011000110011 A%
#170
b10110000110010000000010111001101100011111100100100111001000100101111110001100100011011011010111011100101111001001101111111000101 '
b10110000110010000000010111001101100011111100100100111001000100101111110001100100011011011010111011100101111001001101111111000101 4#
b10001101111000110011101010011011011011001111010110011001001001100010101010101111100001111100011011001010001101100101110110110000 A%
#171
b11110001001101011000010111010100001110101100100100100110101010010111010011010001000010001000110101101010011011101011001001000 '
b11110001001101011000010111010100001110101100100100100110101010010111010011010001000010001000110101101010011011101011001001000 4#
b10110000110010000000010111001101100011111100100100111001000100101111110001100100011011011010111011100101111001001101111111000101 A%
#172
b10100001001110010001101111101001010001110000110101101011001100010001000111110110001110001110001000010011011100001111001011111010 '
b10100001001110010001101111101001010001110000110101101011001100010001000111110110001110001110001000010011011100001111001011111010 4#
b11110001001101011000010111010100001110101100100100100110101010010111010011010001000010001000110101101010011011101011001001000 A%
#173
b11000000011001010110001110000011001000100111101111010101111011001011000101110100101011110111100000101010111010111011101001111001 '
b11000000011001010110001110000011001000100111101111010101111011001011000101110100101011110111100000101010111010111011101001111001 4#
b10100001001110010001101111101001010001110000110101101011001100010001000111110110001110001110001000010011011100001111001011111010 A%
#174
b1101110101101100000100000001110000100100001001000001011000000000100100010110110000000011000011111011100000111101110011011010101 '
b1101110101101100000100000001110000100100001001000001011000000000100100010110110000000011000011111011100000111101110011011010101 4#
b11000000011001010110001110000011001000100111101111010101111011001011000101110100101011110111100000101010111010111011101001111001 A%
#175
b11111010000010101111111000001100000000100111001011000101111000001100010001001011101000101000110011001110111101101111011111011 '
b11111010000010101111111000001100000000100111001011000101111000001100010001001011101000101000110011001110111101101111011111011 4#
b1101110101101100000100000001110000100100001001000001011000000000100100010110110000000011000011111011100000111101110011011010101 A%
#176
b11100101101100110101110011110011010010110000001101001010110110000110101001000100010111110001011001111001000011110000110101110000 '
b11100101101100110101110011110011010010110000001101001010110110000110101001000100010111110001011001111001000011110000110101110000 4#
b11111010000010101111111000001100000000100111001011000101111000001100010001001011101000101000110011001110111101101111011111011 A%
#177
b10110001011101001001111001010011111000000001000101001111111100001010101010000100100011100001011110110111000000100111110011010 '
b10110001011101001001111001010011111000000001000101001111111100001010101010000100100011100001011110110111000000100111110011010 4#
b11100101101100110101110011110011010010110000001101001010110110000110101001000100010111110001011001111001000011110000110101110000 A%
#178
b1000100110011111001111011010000000010010001001001101001101101100011000111100011110011000100110101010010001101111000100111110100 '
b1000100110011111001111011010000000010010001001001101001101101100011000111100011110011000100110101010010001101111000100111110100 4#
b10110001011101001001111001010011111000000001000101001111111100001010101010000100100011100001011110110111000000100111110011010 A%
#179
b11000000100111101101101101101100101011001000010001000010100100010001110110110110010000111001001000001110111000101110010010101010 '
b11000000100111101101101101101100101011001000010001000010100100010001110110110110010000111001001000001110111000101110010010101010 4#
b1000100110011111001111011010000000010010001001001101001101101100011000111100011110011000100110101010010001101111000100111110100 A%
#180
b1000101000000001101110111000000011001111110100010111001000011010011000100111010000010010001001111111111010010011000110100 '
b1000101000000001101110111000000011001111110100010111001000011010011000100111010000010010001001111111111010010011000110100 4#
b11000000100111101101101101101100101011001000010001000010100100010001110110110110010000111001001000001110111000101110010010101010 A%
#181
b10001111010001001011011100101101001100011001101100110111011000010000110010100001010101000111001001110101110011110111010000001100 '
b10001111010001001011011100101101001100011001101100110111011000010000110010100001010101000111001001110101110011110111010000001100 4#
b1000101000000001101110111000000011001111110100010111001000011010011000100111010000010010001001111111111010010011000110100 A%
#182
b1010110011110000001010010100100011101100111110001010111001001000100101010001100001010001001011111001000001011101011001010111111 '
b1010110011110000001010010100100011101100111110001010111001001000100101010001100001010001001011111001000001011101011001010111111 4#
b10001111010001001011011100101101001100011001101100110111011000010000110010100001010101000111001001110101110011110111010000001100 A%
#183
b11000101110110110011111001100010100001000111110000010011011001101110100001111001000100111110010101100001111101100101010011000000 '
b11000101110110110011111001100010100001000111110000010011011001101110100001111001000100111110010101100001111101100101010011000000 4#
b1010110011110000001010010100100011101100111110001010111001001000100101010001100001010001001011111001000001011101011001010111111 A%
#184
b10001010000010000100110010100100011110110010111010001100010110111111101000001011001100101111110000101010011100000100101000001100 '
b10001010000010000100110010100100011110110010111010001100010110111111101000001011001100101111110000101010011100000100101000001100 4#
b11000101110110110011111001100010100001000111110000010011011001101110100001111001000100111110010101100001111101100101010011000000 A%
#185
b10011001111101000111101000011110110110001010010110100111011000001011100100110100110010111110000100001010110111010011100011101111 '
b10011001111101000111101000011110110110001010010110100111011000001011100100110100110010111110000100001010110111010011100011101111 4#
b10001010000010000100110010100100011110110010111010001100010110111111101000001011001100101111110000101010011100000100101000001100 A%
#186
b1010111111110001100011010010000111001110110100111010011111110100011110110110100101011100001110111010100101110101111100101110111 '
b1010111111110001100011010010000111001110110100111010011111110100011110110110100101011100001110111010100101110101111100101110111 4#
b10011001111101000111101000011110110110001010010110100111011000001011100100110100110010111110000100001010110111010011100011101111 A%
#187
b11111000001001101110001100000001110100001010000101000010100001100001010000101000110100001101001110110100101000000101000011010001 '
b11111000001001101110001100000001110100001010000101000010100001100001010000101000110100001101001110110100101000000101000011010001 4#
b1010111111110001100011010010000111001110110100111010011111110100011110110110100101011100001110111010100101110101111100101110111 A%
#188
b11000111111111101000100100110011010011100001101110101101101001110011110000001110001111111101100111111010101101111000110000100101 '
b11000111111111101000100100110011010011100001101110101101101001110011110000001110001111111101100111111010101101111000110000100101 4#
b11111000001001101110001100000001110100001010000101000010100001100001010000101000110100001101001110110100101000000101000011010001 A%
#189
b1001001100101101100101101101001100101010001101101010100000110100010100011101010110000010010010110001011011110001100110100001 '
b1001001100101101100101101101001100101010001101101010100000110100010100011101010110000010010010110001011011110001100110100001 4#
b11000111111111101000100100110011010011100001101110101101101001110011110000001110001111111101100111111010101101111000110000100101 A%
#190
b1011110011110000100100110010111111111000110001001100111110100111111110000100001000011000 '
b1000101000000101010101010101010101010101010101010101010101010111010101 I"
b1011110011110000100100110010111111111000110001001100111110100111111110000100001000011000 4#
b1000101000000101010101010101010101010101010101010101010101010111010101 V$
b1001001100101101100101101101001100101010001101101010100000110100010100011101010110000010010010110001011011110001100110100001 A%
#191
b0 "
01#
02#
b1011110011110000100100110010111111111000110001001100111110100111111110000100001000011000 A%
b1000101000000101010101010101010101010101010101010101010101010111010101 c&
b0 N'
b0 W'
#192
b111011111110010000010011101110111011000000000000000000000000000000000000111111111111000100011111111111010101 '
b101010101010101010101010101010101010000010111010000 I"
11#
12#
b111011111110010000010011101110111011000000000000000000000000000000000000111111111111000100011111111111010101 4#
b101010101010101010101010101010101010000010111010000 V$
b1 N'
b1 W'
#193
b100 "
b1000000000100100000000000000000000000010000101010000000011100100000010100000000000000000000000000000001000000000000000000000000 '
b1000000101010101010101010101010101010101010101010101010111010101 I"
b1000000000100100000000000000000000000010000101010000000011100100000010100000000000000000000000000000001000000000000000000000000 4#
b1000000101010101010101010101010101010101010101010101010111010101 V$
b111011111110010000010011101110111011000000000000000000000000000000000000111111111111000100011111111111010101 A%
b101010101010101010101010101010101010000010111010000 c&
#194
b1101010000100010000110000000000000000000000010000000000010100000000000010001011111111110000111111111110111111110000100000001000 '
b1101010000100010000110000000000000000000000010000000000010100000000000010001011111111110000111111111110111111110000100000001000 4#
b1000000000100100000000000000000000000010000101010000000011100100000010100000000000000000000000000000001000000000000000000000000 A%
b1000000101010101010101010101010101010101010101010101010111010101 c&
#195
b111010110001111011101011110000101010000111110010110000010000111001011001101000000100001000100011011101010000100000111111100101 '
b111010110001111011101011110000101010000111110010110000010000111001011001101000000100001000100011011101010000100000111111100101 4#
b1101010000100010000110000000000000000000000010000000000010100000000000010001011111111110000111111111110111111110000100000001000 A%
#196
b11000101001111111101100000111010101001001110001101110011000011101001100101010000000010110010001110001001111000001101111000100011 '
b11000101001111111101100000111010101001001110001101110011000011101001100101010000000010110010001110001001111000001101111000100011 4#
b111010110001111011101011110000101010000111110010110000010000111001011001101000000100001000100011011101010000100000111111100101 A%
#197
b10101011011001100000010100111100110011101110101110000100100011011000011010001101011000011111010111100110111010101110010111100110 '
b10101011011001100000010100111100110011101110101110000100100011011000011010001101011000011111010111100110111010101110010111100110 4#
b11000101001111111101100000111010101001001110001101110011000011101001100101010000000010110010001110001001111000001101111000100011 A%
