Looping_Hardware-design/project_1/.Xil/Vivado-22301-client32/hw_ila_data_1/zip_work/waveform.vcd
$date
        2023-Mar-01 20:46:54
$end
$version
        Vivado v2019.1 (64-bit)
$end
$timescale
        1ps
$end
$scope module dut $end
$var reg 2 " check_40G_sim_i/system_ila_0/inst/probe0_1 [1:0] $end
$var reg 4 $ check_40G_sim_i/system_ila_0/inst/probe1_1 [3:0] $end
$var reg 8 ( check_40G_sim_i/system_ila_0/inst/probe2_1 [7:0] $end
$var reg 8 0 check_40G_sim_i/system_ila_0/inst/probe3_1 [7:0] $end
$var reg 12 8 check_40G_sim_i/system_ila_0/inst/probe4_1 [11:0] $end
$var reg 32 D check_40G_sim_i/system_ila_0/inst/net_slot_0_axis_tdata [31:0] $end
$var reg 1 d check_40G_sim_i/system_ila_0/inst/net_slot_0_axis_tvalid $end
$var reg 1 e check_40G_sim_i/system_ila_0/inst/net_slot_0_axis_tready $end
$var reg 1 f check_40G_sim_i/system_ila_0/inst/net_slot_0_axis_tlast $end
$var reg 128 g check_40G_sim_i/system_ila_0/inst/net_slot_1_axis_tdata [127:0] $end
$var reg 16 +# check_40G_sim_i/system_ila_0/inst/net_slot_1_axis_tkeep [15:0] $end
$var reg 1 ;# check_40G_sim_i/system_ila_0/inst/net_slot_1_axis_tuser $end
$var reg 1 <# check_40G_sim_i/system_ila_0/inst/net_slot_1_axis_tvalid $end
$var reg 1 =# check_40G_sim_i/system_ila_0/inst/net_slot_1_axis_tready $end
$var reg 1 ># check_40G_sim_i/system_ila_0/inst/net_slot_1_axis_tlast $end
$var reg 128 ?# check_40G_sim_i/system_ila_0/inst/net_slot_2_axis_tdata [127:0] $end
$var reg 1 a$ check_40G_sim_i/system_ila_0/inst/net_slot_2_axis_tvalid $end
$var reg 1 b$ check_40G_sim_i/system_ila_0/inst/net_slot_2_axis_tready $end
$var reg 1 c$ check_40G_sim_i/system_ila_0/inst/net_slot_2_axis_tlast $end
$var reg 64 d$ check_40G_sim_i/system_ila_0/inst/net_slot_3_axis_tdata [63:0] $end
$var reg 1 F% check_40G_sim_i/system_ila_0/inst/net_slot_3_axis_tvalid $end
$var reg 1 G% check_40G_sim_i/system_ila_0/inst/net_slot_3_axis_tready $end
$var reg 1 H% check_40G_sim_i/system_ila_0/inst/net_slot_3_axis_tlast $end
$var reg 128 I% check_40G_sim_i/system_ila_0/inst/net_slot_4_axis_tdata [127:0] $end
$var reg 1 k& check_40G_sim_i/system_ila_0/inst/net_slot_4_axis_tvalid $end
$var reg 1 l& check_40G_sim_i/system_ila_0/inst/net_slot_4_axis_tready $end
$var reg 1 m& check_40G_sim_i/system_ila_0/inst/net_slot_4_axis_tlast $end
$var reg 64 n& check_40G_sim_i/system_ila_0/inst/net_slot_5_axis_tdata [63:0] $end
$var reg 8 P' check_40G_sim_i/system_ila_0/inst/net_slot_5_axis_tkeep [7:0] $end
$var reg 1 X' check_40G_sim_i/system_ila_0/inst/net_slot_5_axis_tuser $end
$var reg 1 Y' check_40G_sim_i/system_ila_0/inst/net_slot_5_axis_tvalid $end
$var reg 1 Z' check_40G_sim_i/system_ila_0/inst/net_slot_5_axis_tlast $end
$var reg 3 [' Interface__i1_s0___ecpri_demux_0_control_data_out_ [2:0] $end
$var reg 3 ^' Interface__i1_s1___ecpri_demux_0_user_data_out_ [2:0] $end
$var reg 3 a' Interface__i1_s2___cplane_depacketizer_0_beam_data_ [2:0] $end
$var reg 3 d' Interface__i1_s3___cplane_depacketizer_0_beam_info_V_ [2:0] $end
$var reg 3 g' Interface__i1_s4___uplane_depacketiser_0_data_out_ [2:0] $end
$var reg 3 j' Interface__i1_s5___xxv_ethernet_0_axis_rx_0_ [2:0] $end
$var reg 3 m' T_Channel__i1_s0___ecpri_demux_0_control_data_out_ [2:0] $end
$var reg 3 p' T_Channel__i1_s1___ecpri_demux_0_user_data_out_ [2:0] $end
$var reg 3 s' T_Channel__i1_s2___cplane_depacketizer_0_beam_data_ [2:0] $end
$var reg 3 v' T_Channel__i1_s3___cplane_depacketizer_0_beam_info_V_ [2:0] $end
$var reg 3 y' T_Channel__i1_s4___uplane_depacketiser_0_data_out_ [2:0] $end
$var reg 3 |' T_Channel__i1_s5___xxv_ethernet_0_axis_rx_0_ [2:0] $end
$var reg 1 !( _TRIGGER $end
$var reg 1 "( _WINDOW $end
$var reg 1 #( _GAP $end
$upscope $end
$enddefinitions $end
#0
$dumpvars
b1 "
b1011 $
b11 (
b10101110 0
b100010001 8
b0 D
0d
1e
0f
b100101000000000000000000000000000000000000000000000000000000000000000000000000000000000000000000000000000000000000000000000000 g
b1111111111111111 +#
0;#
0<#
1=#
0>#
b0 ?#
0a$
1b$
0c$
b0 d$
0F%
1G%
0H%
b100010 I%
0k&
1l&
0m&
b110000000000000000000000000000 n&
b11111111 P'
0X'
1Y'
0Z'
b11 ['
b0 ^'
b11 a'
b11 d'
b0 g'
b0 j'
b11 m'
b0 p'
b11 s'
b11 v'
b0 y'
b0 |'
0!(
1"(
0#(
$end
#1
b100 (
b100110000000000000000000000000000000000000000000000000000000000000000000000000000000000000000000000000000000000000000000000000 g
1<#
b100011 I%
1k&
b0 n&
b1 ^'
b1 g'
b1 j'
b1 p'
b1 y'
b1 |'
#2
0<#
0k&
b110001000000000000000000000000 n&
b0 ^'
b0 g'
b0 p'
b0 y'
#3
b101 (
b100111000000000000000000000000000000000000000000000000000000000000000000000000000000000000000000000000000000000000000000000000 g
1<#
b100100 I%
1k&
b0 n&
b1 ^'
b1 g'
b1 p'
b1 y'
#4
0<#
0k&
b110010000000000000000000000000 n&
b0 ^'
b0 g'
b0 p'
b0 y'
#5
b11 (
b10101111 0
b101000000000000000000000000000000000000000000000000000000000000000000000000000000000000000000000000000000000000000000000000000 g
1<#
b100101 I%
1k&
b0 n&
b1 ^'
b1 g'
b1 p'
b1 y'
#6
0<#
0k&
b110011000000000000000000000000 n&
b0 ^'
b0 g'
b0 p'
b0 y'
#7
b100 (
b101001000000000000000000000000000000000000000000000000000000000000000000000000000000000000000000000000000000000000000000000000 g
1<#
b100110 I%
1k&
b0 n&
b1 ^'
b1 g'
b1 p'
b1 y'
#8
0<#
0k&
b110100000000000000000000000000 n&
b0 ^'
b0 g'
b0 p'
b0 y'
#9
b101 (
b101010000000000000000000000000000000000000000000000000000000000000000000000000000000000000000000000000000000000000000000000000 g
1<#
b100111 I%
1k&
b0 n&
b1 ^'
b1 g'
b1 p'
b1 y'
#10
0<#
0k&
b110101000000000000000000000000 n&
b0 ^'
b0 g'
b0 p'
b0 y'
#11
b11 (
b10110000 0
b101011000000000000000000000000000000000000000000000000000000000000000000000000000000000000000000000000000000000000000000000000 g
1<#
b101000 I%
1k&
b0 n&
b1 ^'
b1 g'
b1 p'
b1 y'
#12
0<#
0k&
b110110000000000000000000000000 n&
b0 ^'
b0 g'
b0 p'
b0 y'
#13
b100 (
b101100000000000000000000000000000000000000000000000000000000000000000000000000000000000000000000000000000000000000000000000000 g
1<#
b101001 I%
1k&
b0 n&
b1 ^'
b1 g'
b1 p'
b1 y'
#14
0<#
0k&
b110111000000000000000000000000 n&
b0 ^'
b0 g'
b0 p'
b0 y'
#15
b101 (
b101101000000000000000000000000000000000000000000000000000000000000000000000000000000000000000000000000000000000000000000000000 g
1<#
b101010 I%
1k&
b0 n&
b1 ^'
b1 g'
b1 p'
b1 y'
#16
0<#
0k&
b111000000000000000000000000000 n&
b0 ^'
b0 g'
b0 p'
b0 y'
#17
b11 (
b10110001 0
b101110000000000000000000000000000000000000000000000000000000000000000000000000000000000000000000000000000000000000000000000000 g
1<#
b101011 I%
1k&
b0 n&
b1 ^'
b1 g'
b1 p'
b1 y'
#18
0<#
0k&
b111001000000000000000000000000 n&
b0 ^'
b0 g'
b0 p'
b0 y'
#19
b100 (
b101111000000000000000000000000000000000000000000000000000000000000000000000000000000000000000000000000000000000000000000000000 g
1<#
b101100 I%
1k&
b0 n&
1Z'
b1 ^'
b1 g'
b1 p'
b1 y'
b10 |'
#20
0<#
0k&
b1000100000000111111111111111111111111111111111111111111111111 n&
0Y'
0Z'
b0 ^'
b0 g'
b0 j'
b0 p'
b0 y'
b0 |'
#21
b101 (
b110000000000000000000000000000000000000000000000000000000000000000000000000000000000000000000000000000000000000000000000000000 g
1<#
b101101 I%
1k&
b1 ^'
b1 g'
b1 p'
b1 y'
#22
0<#
0k&
b0 ^'
b0 g'
b0 p'
b0 y'
#23
b11 (
b10110010 0
b110001000000000000000000000000000000000000000000000000000000000000000000000000000000000000000000000000000000000000000000000000 g
1<#
b101110 I%
1k&
1Y'
b1 ^'
b1 g'
b1 j'
b1 p'
b1 y'
b1 |'
#24
0<#
0k&
b100000000000000001000000101010101010001000011001100100010 n&
b0 ^'
b0 g'
b0 p'
b0 y'
#25
b100 (
b110010000000000000000000000000000000000000000000000000000000000000000000000000000000000000000000000000000000000000000000000000 g
1<#
b101111 I%
1k&
b10000101000000000010100000000000000011111111010101110 n&
b1 ^'
b1 g'
b1 p'
b1 y'
#26
0<#
0k&
b1 n&
b0 ^'
b0 g'
b0 p'
b0 y'
#27
b101 (
b110011000000000000000000000000000000000000000000000000000000000000000000000000000000000000000000000000000000000000000000000000 g
1<#
b110000 I%
1k&
b0 n&
b1 ^'
b1 g'
b1 p'
b1 y'
#28
0<#
0k&
b0 ^'
b0 g'
b0 p'
b0 y'
#29
b11 (
b10110011 0
b110100000000000000000000000000000000000000000000000000000000000000000000000000000000000000000000000000000000000000000000000000 g
1<#
b110001 I%
1k&
b111010000000000000000000000000 n&
b1 ^'
b1 g'
b1 p'
b1 y'
#30
0<#
0k&
b0 n&
b0 ^'
b0 g'
b0 p'
b0 y'
#31
b100 (
b110101000000000000000000000000000000000000000000000000000000000000000000000000000000000000000000000000000000000000000000000000 g
1<#
b110010 I%
1k&
b111011000000000000000000000000 n&
b1 ^'
b1 g'
b1 p'
b1 y'
#32
0<#
0k&
b0 n&
b0 ^'
b0 g'
b0 p'
b0 y'
#33
b101 (
b110110000000000000000000000000000000000000000000000000000000000000000000000000000000000000000000000000000000000000000000000000 g
1<#
b110011 I%
1k&
b111100000000000000000000000000 n&
b1 ^'
b1 g'
b1 p'
b1 y'
#34
0<#
0k&
b0 n&
b0 ^'
b0 g'
b0 p'
b0 y'
#35
b11 (
b10110100 0
b110111000000000000000000000000000000000000000000000000000000000000000000000000000000000000000000000000000000000000000000000000 g
1<#
b110100 I%
1k&
b111101000000000000000000000000 n&
b1 ^'
b1 g'
b1 p'
b1 y'
#36
0<#
0k&
b0 n&
b0 ^'
b0 g'
b0 p'
b0 y'
#37
b100 (
b111000000000000000000000000000000000000000000000000000000000000000000000000000000000000000000000000000000000000000000000000000 g
1<#
b110101 I%
1k&
b111110000000000000000000000000 n&
b1 ^'
b1 g'
b1 p'
b1 y'
#38
0<#
0k&
b0 n&
b0 ^'
b0 g'
b0 p'
b0 y'
#39
b101 (
b111001000000000000000000000000000000000000000000000000000000000000000000000000000000000000000000000000000000000000000000000000 g
1<#
b110110 I%
1k&
b111111000000000000000000000000 n&
b1 ^'
b1 g'
b1 p'
b1 y'
#40
b0 g
b111111111111 +#
1>#
0k&
b0 n&
b0 g'
b10 p'
b0 y'
#41
b11 (
b10110101 0
0<#
b110111 I%
1k&
b1000000000000000000000000000000 n&
b0 ^'
b1 g'
b0 p'
b1 y'
#42
0k&
b0 n&
b0 g'
b0 y'
#43
b100 (
b111000 I%
1k&
b1000001000000000000000000000000 n&
b1 g'
b1 y'
#44
0k&
b0 n&
b0 g'
b0 y'
#45
b101 (
b111001 I%
1k&
1m&
b1000010000000000000000000000000 n&
b1 g'
b10 y'
#46
b0 "
b1 (
b10110110 0
b11111111010101110010101010100010000110011001000100001000100000000111111111111111111111111111111111111111111111111 g
b1111111111111111 +#
1<#
0>#
0k&
0m&
b0 n&
b1 ^'
b0 g'
b1 p'
b0 y'
#47
0<#
b1000011000000000000000000000000 n&
b0 ^'
b0 p'
#48
b1 "
b100000000000100001010000000000101 g
1<#
b0 n&
b1 ^'
b1 p'
#49
0<#
b1000100000000000000000000000000 n&
b0 ^'
b0 p'
#50
b111010000000000000000000000000000000000000000000000000000000000000000000000000000000000000000000000000000000000000000000000000 g
1<#
b0 n&
b1 ^'
b1 p'
#51
0<#
b1000101000000000000000000000000 n&
b0 ^'
b0 p'
#52
b111011000000000000000000000000000000000000000000000000000000000000000000000000000000000000000000000000000000000000000000000000 g
1<#
b0 n&
b1 ^'
b1 p'
#53
0<#
b1000110000000000000000000000000 n&
b0 ^'
b0 p'
#54
b10 (
b111100000000000000000000000000000000000000000000000000000000000000000000000000000000000000000000000000000000000000000000000000 g
1<#
b0 n&
b1 ^'
b1 p'
#55
0<#
b1000111000000000000000000000000 n&
b0 ^'
b0 p'
#56
b11 (
b111101000000000000000000000000000000000000000000000000000000000000000000000000000000000000000000000000000000000000000000000000 g
1<#
b111010 I%
1k&
b0 n&
b1 ^'
b1 g'
b1 p'
b1 y'
#57
0<#
0k&
b1001000000000000000000000000000 n&
b0 ^'
b0 g'
b0 p'
b0 y'
#58
b100 (
b111110000000000000000000000000000000000000000000000000000000000000000000000000000000000000000000000000000000000000000000000000 g
1<#
b111011 I%
1k&
b0 n&
b1 ^'
b1 g'
b1 p'
b1 y'
#59
0<#
0k&
b1001001000000000000000000000000 n&
b0 ^'
b0 g'
b0 p'
b0 y'
#60
b101 (
b111111000000000000000000000000000000000000000000000000000000000000000000000000000000000000000000000000000000000000000000000000 g
1<#
b111100 I%
1k&
b0 n&
b1 ^'
b1 g'
b1 p'
b1 y'
#61
0<#
0k&
b1001010000000000000000000000000 n&
b0 ^'
b0 g'
b0 p'
b0 y'
#62
b11 (
b10110111 0
b1000000000000000000000000000000000000000000000000000000000000000000000000000000000000000000000000000000000000000000000000000000 g
1<#
b111101 I%
1k&
b0 n&
b1 ^'
b1 g'
b1 p'
b1 y'
#63
0<#
0k&
b1001011000000000000000000000000 n&
b0 ^'
b0 g'
b0 p'
b0 y'
#64
b100 (
b1000001000000000000000000000000000000000000000000000000000000000000000000000000000000000000000000000000000000000000000000000000 g
1<#
b111110 I%
1k&
b0 n&
b1 ^'
b1 g'
b1 p'
b1 y'
#65
0<#
0k&
b1001100000000000000000000000000 n&
b0 ^'
b0 g'
b0 p'
b0 y'
#66
b101 (
b1000010000000000000000000000000000000000000000000000000000000000000000000000000000000000000000000000000000000000000000000000000 g
1<#
b111111 I%
1k&
b0 n&
b1 ^'
b1 g'
b1 p'
b1 y'
#67
0<#
0k&
b1001101000000000000000000000000 n&
b0 ^'
b0 g'
b0 p'
b0 y'
#68
b11 (
b10111000 0
b1000011000000000000000000000000000000000000000000000000000000000000000000000000000000000000000000000000000000000000000000000000 g
1<#
b1000000 I%
1k&
b0 n&
b1 ^'
b1 g'
b1 p'
b1 y'
#69
0<#
0k&
b1001110000000000000000000000000 n&
b0 ^'
b0 g'
b0 p'
b0 y'
#70
b100 (
b1000100000000000000000000000000000000000000000000000000000000000000000000000000000000000000000000000000000000000000000000000000 g
1<#
b1000001 I%
1k&
b0 n&
b1 ^'
b1 g'
b1 p'
b1 y'
#71
0<#
0k&
b1001111000000000000000000000000 n&
b0 ^'
b0 g'
b0 p'
b0 y'
#72
b101 (
b1000101000000000000000000000000000000000000000000000000000000000000000000000000000000000000000000000000000000000000000000000000 g
1<#
b1000010 I%
1k&
b0 n&
b1 ^'
b1 g'
b1 p'
b1 y'
#73
0<#
0k&
b1010000000000000000000000000000 n&
b0 ^'
b0 g'
b0 p'
b0 y'
#74
b11 (
b10111001 0
b1000110000000000000000000000000000000000000000000000000000000000000000000000000000000000000000000000000000000000000000000000000 g
1<#
b1000011 I%
1k&
b0 n&
b1 ^'
b1 g'
b1 p'
b1 y'
#75
0<#
0k&
b1010001000000000000000000000000 n&
b0 ^'
b0 g'
b0 p'
b0 y'
#76
b100 (
b1000111000000000000000000000000000000000000000000000000000000000000000000000000000000000000000000000000000000000000000000000000 g
1<#
b1000100 I%
1k&
b0 n&
b1 ^'
b1 g'
b1 p'
b1 y'
#77
0<#
0k&
b1010010000000000000000000000000 n&
b0 ^'
b0 g'
b0 p'
b0 y'
#78
b101 (
b1001000000000000000000000000000000000000000000000000000000000000000000000000000000000000000000000000000000000000000000000000000 g
1<#
b1000101 I%
1k&
b0 n&
b1 ^'
b1 g'
b1 p'
b1 y'
#79
0<#
0k&
b1010011000000000000000000000000 n&
b0 ^'
b0 g'
b0 p'
b0 y'
#80
b11 (
b10111010 0
b1001001000000000000000000000000000000000000000000000000000000000000000000000000000000000000000000000000000000000000000000000000 g
1<#
b1000110 I%
1k&
b0 n&
b1 ^'
b1 g'
b1 p'
b1 y'
#81
0<#
0k&
b1010100000000000000000000000000 n&
b0 ^'
b0 g'
b0 p'
b0 y'
#82
b100 (
b1001010000000000000000000000000000000000000000000000000000000000000000000000000000000000000000000000000000000000000000000000000 g
1<#
b1000111 I%
1k&
b0 n&
b1 ^'
b1 g'
b1 p'
b1 y'
#83
0<#
0k&
b1010101000000000000000000000000 n&
b0 ^'
b0 g'
b0 p'
b0 y'
#84
b101 (
b1001011000000000000000000000000000000000000000000000000000000000000000000000000000000000000000000000000000000000000000000000000 g
1<#
b1001000 I%
1k&
b0 n&
b1 ^'
b1 g'
b1 p'
b1 y'
#85
0<#
0k&
b1010110000000000000000000000000 n&
b0 ^'
b0 g'
b0 p'
b0 y'
#86
b11 (
b10111011 0
b1001100000000000000000000000000000000000000000000000000000000000000000000000000000000000000000000000000000000000000000000000000 g
1<#
b1001001 I%
1k&
b0 n&
b1 ^'
b1 g'
b1 p'
b1 y'
#87
0<#
0k&
b1010111000000000000000000000000 n&
b0 ^'
b0 g'
b0 p'
b0 y'
#88
b100 (
b1001101000000000000000000000000000000000000000000000000000000000000000000000000000000000000000000000000000000000000000000000000 g
1<#
b1001010 I%
1k&
b0 n&
b1 ^'
b1 g'
b1 p'
b1 y'
#89
0<#
0k&
b1011000000000000000000000000000 n&
b0 ^'
b0 g'
b0 p'
b0 y'
#90
b101 (
b1001110000000000000000000000000000000000000000000000000000000000000000000000000000000000000000000000000000000000000000000000000 g
1<#
b1001011 I%
1k&
b0 n&
b1 ^'
b1 g'
b1 p'
b1 y'
#91
0<#
0k&
b1011001000000000000000000000000 n&
b0 ^'
b0 g'
b0 p'
b0 y'
#92
b11 (
b10111100 0
b1001111000000000000000000000000000000000000000000000000000000000000000000000000000000000000000000000000000000000000000000000000 g
1<#
b1001100 I%
1k&
b0 n&
b1 ^'
b1 g'
b1 p'
b1 y'
#93
0<#
0k&
b1011010000000000000000000000000 n&
b0 ^'
b0 g'
b0 p'
b0 y'
#94
b100 (
b1010000000000000000000000000000000000000000000000000000000000000000000000000000000000000000000000000000000000000000000000000000 g
1<#
b1001101 I%
1k&
b0 n&
b1 ^'
b1 g'
b1 p'
b1 y'
#95
0<#
0k&
b1011011000000000000000000000000 n&
b0 ^'
b0 g'
b0 p'
b0 y'
#96
b101 (
b1010001000000000000000000000000000000000000000000000000000000000000000000000000000000000000000000000000000000000000000000000000 g
1<#
b1001110 I%
1k&
b0 n&
b1 ^'
b1 g'
b1 p'
b1 y'
#97
0<#
0k&
b1011100000000000000000000000000 n&
b0 ^'
b0 g'
b0 p'
b0 y'
#98
b11 (
b10111101 0
b1010010000000000000000000000000000000000000000000000000000000000000000000000000000000000000000000000000000000000000000000000000 g
1<#
b1001111 I%
1k&
b0 n&
b1 ^'
b1 g'
b1 p'
b1 y'
#99
0<#
0k&
b1011101000000000000000000000000 n&
b0 ^'
b0 g'
b0 p'
b0 y'
#100
b100 (
b1010011000000000000000000000000000000000000000000000000000000000000000000000000000000000000000000000000000000000000000000000000 g
1<#
b1010000 I%
1k&
b0 n&
b1 ^'
b1 g'
b1 p'
b1 y'
1!(
#101
0<#
0k&
b1011110000000000000000000000000 n&
b0 ^'
b0 g'
b0 p'
b0 y'
#102
b101 (
b1010100000000000000000000000000000000000000000000000000000000000000000000000000000000000000000000000000000000000000000000000000 g
1<#
b1010001 I%
1k&
b0 n&
b1 ^'
b1 g'
b1 p'
b1 y'
#103
0<#
0k&
b1011111000000000000000000000000 n&
b0 ^'
b0 g'
b0 p'
b0 y'
#104
b11 (
b10111110 0
b1010101000000000000000000000000000000000000000000000000000000000000000000000000000000000000000000000000000000000000000000000000 g
1<#
b1010010 I%
1k&
b0 n&
b1 ^'
b1 g'
b1 p'
b1 y'
#105
0<#
0k&
b1100000000000000000000000000000 n&
b0 ^'
b0 g'
b0 p'
b0 y'
#106
b100 (
b1010110000000000000000000000000000000000000000000000000000000000000000000000000000000000000000000000000000000000000000000000000 g
1<#
b1010011 I%
1k&
b0 n&
b1 ^'
b1 g'
b1 p'
b1 y'
#107
0<#
0k&
b1100001000000000000000000000000 n&
b0 ^'
b0 g'
b0 p'
b0 y'
#108
b101 (
b1010111000000000000000000000000000000000000000000000000000000000000000000000000000000000000000000000000000000000000000000000000 g
1<#
b1010100 I%
1k&
b0 n&
b1 ^'
b1 g'
b1 p'
b1 y'
#109
0<#
0k&
b1100010000000000000000000000000 n&
b0 ^'
b0 g'
b0 p'
b0 y'
#110
b11 (
b10111111 0
b1011000000000000000000000000000000000000000000000000000000000000000000000000000000000000000000000000000000000000000000000000000 g
1<#
b1010101 I%
1k&
b0 n&
b1 ^'
b1 g'
b1 p'
b1 y'
#111
0<#
0k&
b1100011000000000000000000000000 n&
b0 ^'
b0 g'
b0 p'
b0 y'
#112
b100 (
b1011001000000000000000000000000000000000000000000000000000000000000000000000000000000000000000000000000000000000000000000000000 g
1<#
b1010110 I%
1k&
b0 n&
b1 ^'
b1 g'
b1 p'
b1 y'
#113
0<#
0k&
b0 ^'
b0 g'
b0 p'
b0 y'
#114
b101 (
b1011010000000000000000000000000000000000000000000000000000000000000000000000000000000000000000000000000000000000000000000000000 g
1<#
b1010111 I%
1k&
b1 ^'
b1 g'
b1 p'
b1 y'
#115
0<#
0k&
b1000000000000000000000000 n&
b0 ^'
b0 g'
b0 p'
b0 y'
#116
b11 (
b11000000 0
b1011011000000000000000000000000000000000000000000000000000000000000000000000000000000000000000000000000000000000000000000000000 g
1<#
b1011000 I%
1k&
b0 n&
b1 ^'
b1 g'
b1 p'
b1 y'
#117
0<#
0k&
b10000000000000000000000000 n&
b0 ^'
b0 g'
b0 p'
b0 y'
#118
b100 (
b1011100000000000000000000000000000000000000000000000000000000000000000000000000000000000000000000000000000000000000000000000000 g
1<#
b1011001 I%
1k&
b0 n&
b1 ^'
b1 g'
b1 p'
b1 y'
#119
0<#
0k&
b11000000000000000000000000 n&
b0 ^'
b0 g'
b0 p'
b0 y'
#120
b101 (
b1011101000000000000000000000000000000000000000000000000000000000000000000000000000000000000000000000000000000000000000000000000 g
1<#
b1011010 I%
1k&
b0 n&
b1 ^'
b1 g'
b1 p'
b1 y'
#121
0<#
0k&
b100000000000000000000000000 n&
b0 ^'
b0 g'
b0 p'
b0 y'
#122
b11 (
b11000001 0
b1011110000000000000000000000000000000000000000000000000000000000000000000000000000000000000000000000000000000000000000000000000 g
1<#
b1011011 I%
1k&
b0 n&
b1 ^'
b1 g'
b1 p'
b1 y'
#123
0<#
0k&
b101000000000000000000000000 n&
b0 ^'
b0 g'
b0 p'
b0 y'
#124
b100 (
b1011111000000000000000000000000000000000000000000000000000000000000000000000000000000000000000000000000000000000000000000000000 g
1<#
b1011100 I%
1k&
b0 n&
b1 ^'
b1 g'
b1 p'
b1 y'
#125
0<#
0k&
b110000000000000000000000000 n&
b0 ^'
b0 g'
b0 p'
b0 y'
#126
b101 (
b1100000000000000000000000000000000000000000000000000000000000000000000000000000000000000000000000000000000000000000000000000000 g
1<#
b1011101 I%
1k&
b0 n&
b1 ^'
b1 g'
b1 p'
b1 y'
#127
0<#
0k&
b111000000000000000000000000 n&
b0 ^'
b0 g'
b0 p'
b0 y'
#128
b11 (
b11000010 0
b1100001000000000000000000000000000000000000000000000000000000000000000000000000000000000000000000000000000000000000000000000000 g
1<#
b1011110 I%
1k&
b0 n&
b1 ^'
b1 g'
b1 p'
b1 y'
#129
0<#
0k&
b1000000000000000000000000000 n&
b0 ^'
b0 g'
b0 p'
b0 y'
#130
b100 (
b1100010000000000000000000000000000000000000000000000000000000000000000000000000000000000000000000000000000000000000000000000000 g
1<#
b1011111 I%
1k&
b0 n&
b1 ^'
b1 g'
b1 p'
b1 y'
#131
0<#
0k&
b1001000000000000000000000000 n&
b0 ^'
b0 g'
b0 p'
b0 y'
#132
b101 (
b1100011000000000000000000000000000000000000000000000000000000000000000000000000000000000000000000000000000000000000000000000000 g
1<#
b1100000 I%
1k&
b0 n&
b1 ^'
b1 g'
b1 p'
b1 y'
#133
0<#
0k&
b1010000000000000000000000000 n&
b0 ^'
b0 g'
b0 p'
b0 y'
#134
b11 (
b11000011 0
b0 g
1<#
b1100001 I%
1k&
b0 n&
b1 ^'
b1 g'
b1 p'
b1 y'
#135
0<#
0k&
b1011000000000000000000000000 n&
b0 ^'
b0 g'
b0 p'
b0 y'
#136
b100 (
b1000000000000000000000000000000000000000000000000000000000000000000000000000000000000000000000000000000000000000000000000 g
1<#
b1100010 I%
1k&
b0 n&
b1 ^'
b1 g'
b1 p'
b1 y'
#137
0<#
0k&
b1100000000000000000000000000 n&
b0 ^'
b0 g'
b0 p'
b0 y'
#138
b101 (
b10000000000000000000000000000000000000000000000000000000000000000000000000000000000000000000000000000000000000000000000000 g
1<#
b1100011 I%
1k&
b0 n&
b1 ^'
b1 g'
b1 p'
b1 y'
#139
0<#
0k&
b1101000000000000000000000000 n&
b0 ^'
b0 g'
b0 p'
b0 y'
#140
b11 (
b11000100 0
b11000000000000000000000000000000000000000000000000000000000000000000000000000000000000000000000000000000000000000000000000 g
1<#
b0 I%
1k&
b0 n&
b1 ^'
b1 g'
b1 p'
b1 y'
#141
0<#
0k&
b1110000000000000000000000000 n&
b0 ^'
b0 g'
b0 p'
b0 y'
#142
b100 (
b100000000000000000000000000000000000000000000000000000000000000000000000000000000000000000000000000000000000000000000000000 g
1<#
b1 I%
1k&
b0 n&
b1 ^'
b1 g'
b1 p'
b1 y'
#143
0<#
0k&
b1111000000000000000000000000 n&
b0 ^'
b0 g'
b0 p'
b0 y'
#144
b101 (
b101000000000000000000000000000000000000000000000000000000000000000000000000000000000000000000000000000000000000000000000000 g
1<#
b10 I%
1k&
b0 n&
b1 ^'
b1 g'
b1 p'
b1 y'
#145
0<#
0k&
b10000000000000000000000000000 n&
b0 ^'
b0 g'
b0 p'
b0 y'
#146
b11 (
b11000101 0
b110000000000000000000000000000000000000000000000000000000000000000000000000000000000000000000000000000000000000000000000000 g
1<#
b11 I%
1k&
b0 n&
b1 ^'
b1 g'
b1 p'
b1 y'
#147
0<#
0k&
b10001000000000000000000000000 n&
b0 ^'
b0 g'
b0 p'
b0 y'
#148
b100 (
b111000000000000000000000000000000000000000000000000000000000000000000000000000000000000000000000000000000000000000000000000 g
1<#
b100 I%
1k&
b0 n&
b1 ^'
b1 g'
b1 p'
b1 y'
#149
0<#
0k&
b10010000000000000000000000000 n&
b0 ^'
b0 g'
b0 p'
b0 y'
#150
b101 (
b1000000000000000000000000000000000000000000000000000000000000000000000000000000000000000000000000000000000000000000000000000 g
1<#
b101 I%
1k&
b0 n&
b1 ^'
b1 g'
b1 p'
b1 y'
#151
0<#
0k&
b10011000000000000000000000000 n&
b0 ^'
b0 g'
b0 p'
b0 y'
#152
b11 (
b11000110 0
b1001000000000000000000000000000000000000000000000000000000000000000000000000000000000000000000000000000000000000000000000000 g
1<#
b110 I%
1k&
b0 n&
b1 ^'
b1 g'
b1 p'
b1 y'
#153
0<#
0k&
b10100000000000000000000000000 n&
b0 ^'
b0 g'
b0 p'
b0 y'
#154
b100 (
b1010000000000000000000000000000000000000000000000000000000000000000000000000000000000000000000000000000000000000000000000000 g
1<#
b111 I%
1k&
b0 n&
b1 ^'
b1 g'
b1 p'
b1 y'
#155
0<#
0k&
b10101000000000000000000000000 n&
b0 ^'
b0 g'
b0 p'
b0 y'
#156
b101 (
b1011000000000000000000000000000000000000000000000000000000000000000000000000000000000000000000000000000000000000000000000000 g
1<#
b1000 I%
1k&
b0 n&
b1 ^'
b1 g'
b1 p'
b1 y'
#157
0<#
0k&
b10110000000000000000000000000 n&
b0 ^'
b0 g'
b0 p'
b0 y'
#158
b11 (
b11000111 0
b1100000000000000000000000000000000000000000000000000000000000000000000000000000000000000000000000000000000000000000000000000 g
1<#
b1001 I%
1k&
b0 n&
b1 ^'
b1 g'
b1 p'
b1 y'
#159
0<#
0k&
b10111000000000000000000000000 n&
b0 ^'
b0 g'
b0 p'
b0 y'
#160
b100 (
b1101000000000000000000000000000000000000000000000000000000000000000000000000000000000000000000000000000000000000000000000000 g
1<#
b1010 I%
1k&
b0 n&
b1 ^'
b1 g'
b1 p'
b1 y'
#161
0<#
0k&
b11000000000000000000000000000 n&
b0 ^'
b0 g'
b0 p'
b0 y'
#162
b101 (
b1110000000000000000000000000000000000000000000000000000000000000000000000000000000000000000000000000000000000000000000000000 g
1<#
b1011 I%
1k&
b0 n&
b1 ^'
b1 g'
b1 p'
b1 y'
#163
0<#
0k&
b11001000000000000000000000000 n&
b0 ^'
b0 g'
b0 p'
b0 y'
#164
b11 (
b11001000 0
b1111000000000000000000000000000000000000000000000000000000000000000000000000000000000000000000000000000000000000000000000000 g
1<#
b1100 I%
1k&
b0 n&
b1 ^'
b1 g'
b1 p'
b1 y'
#165
0<#
0k&
b11010000000000000000000000000 n&
b0 ^'
b0 g'
b0 p'
b0 y'
#166
b100 (
b10000000000000000000000000000000000000000000000000000000000000000000000000000000000000000000000000000000000000000000000000000 g
1<#
b1101 I%
1k&
b0 n&
b1 ^'
b1 g'
b1 p'
b1 y'
