Looping_Hardware-design/project_1/.Xil/Vivado-20254-client32/hw_ila_data_1/zip_work/waveform.vcd
$date
        2022-Dec-15 17:09:21
$end
$version
        Vivado v2019.1 (64-bit)
$end
$timescale
        1ps
$end
$scope module dut $end
$var reg 2 " check_40G_sim_i/system_ila_0/inst/probe0_1 [1:0] $end
$var reg 4 $ check_40G_sim_i/system_ila_0/inst/probe1_1 [3:0] $end
$var reg 8 ( check_40G_sim_i/system_ila_0/inst/probe2_1 [7:0] $end
$var reg 128 0 check_40G_sim_i/system_ila_0/inst/net_slot_0_axis_tdata [127:0] $end
$var reg 16 R" check_40G_sim_i/system_ila_0/inst/net_slot_0_axis_tkeep [15:0] $end
$var reg 1 b" check_40G_sim_i/system_ila_0/inst/net_slot_0_axis_tuser $end
$var reg 1 c" check_40G_sim_i/system_ila_0/inst/net_slot_0_axis_tvalid $end
$var reg 1 d" check_40G_sim_i/system_ila_0/inst/net_slot_0_axis_tready $end
$var reg 1 e" check_40G_sim_i/system_ila_0/inst/net_slot_0_axis_tlast $end
$var reg 128 f" check_40G_sim_i/system_ila_0/inst/net_slot_1_axis_tdata [127:0] $end
$var reg 16 *$ check_40G_sim_i/system_ila_0/inst/net_slot_1_axis_tkeep [15:0] $end
$var reg 1 :$ check_40G_sim_i/system_ila_0/inst/net_slot_1_axis_tuser $end
$var reg 1 ;$ check_40G_sim_i/system_ila_0/inst/net_slot_1_axis_tvalid $end
$var reg 1 <$ check_40G_sim_i/system_ila_0/inst/net_slot_1_axis_tready $end
$var reg 1 =$ check_40G_sim_i/system_ila_0/inst/net_slot_1_axis_tlast $end
$var reg 128 >$ check_40G_sim_i/system_ila_0/inst/net_slot_2_axis_tdata [127:0] $end
$var reg 1 `% check_40G_sim_i/system_ila_0/inst/net_slot_2_axis_tvalid $end
$var reg 1 a% check_40G_sim_i/system_ila_0/inst/net_slot_2_axis_tready $end
$var reg 1 b% check_40G_sim_i/system_ila_0/inst/net_slot_2_axis_tlast $end
$var reg 64 c% check_40G_sim_i/system_ila_0/inst/net_slot_3_axis_tdata [63:0] $end
$var reg 1 E& check_40G_sim_i/system_ila_0/inst/net_slot_3_axis_tvalid $end
$var reg 1 F& check_40G_sim_i/system_ila_0/inst/net_slot_3_axis_tready $end
$var reg 1 G& check_40G_sim_i/system_ila_0/inst/net_slot_3_axis_tlast $end
$var reg 128 H& check_40G_sim_i/system_ila_0/inst/net_slot_4_axis_tdata [127:0] $end
$var reg 1 j' check_40G_sim_i/system_ila_0/inst/net_slot_4_axis_tvalid $end
$var reg 1 k' check_40G_sim_i/system_ila_0/inst/net_slot_4_axis_tready $end
$var reg 1 l' check_40G_sim_i/system_ila_0/inst/net_slot_4_axis_tlast $end
$var reg 64 m' check_40G_sim_i/system_ila_0/inst/net_slot_5_axis_tdata [63:0] $end
$var reg 8 O( check_40G_sim_i/system_ila_0/inst/net_slot_5_axis_tkeep [7:0] $end
$var reg 1 W( check_40G_sim_i/system_ila_0/inst/net_slot_5_axis_tuser $end
$var reg 1 X( check_40G_sim_i/system_ila_0/inst/net_slot_5_axis_tvalid $end
$var reg 1 Y( check_40G_sim_i/system_ila_0/inst/net_slot_5_axis_tlast $end
$var reg 3 Z( Interface__i1_s0___ecpri_demux_0_control_data_out_ [2:0] $end
$var reg 3 ]( Interface__i1_s1___ecpri_demux_0_user_data_out_ [2:0] $end
$var reg 3 `( Interface__i1_s2___cplane_depacketizer_0_beam_data_ [2:0] $end
$var reg 3 c( Interface__i1_s3___cplane_depacketizer_0_beam_info_V_ [2:0] $end
$var reg 3 f( Interface__i1_s4___uplane_depacketiser_0_data_out_ [2:0] $end
$var reg 3 i( Interface__i1_s5___xxv_ethernet_0_axis_rx_0_ [2:0] $end
$var reg 3 l( T_Channel__i1_s0___ecpri_demux_0_control_data_out_ [2:0] $end
$var reg 3 o( T_Channel__i1_s1___ecpri_demux_0_user_data_out_ [2:0] $end
$var reg 3 r( T_Channel__i1_s2___cplane_depacketizer_0_beam_data_ [2:0] $end
$var reg 3 u( T_Channel__i1_s3___cplane_depacketizer_0_beam_info_V_ [2:0] $end
$var reg 3 x( T_Channel__i1_s4___uplane_depacketiser_0_data_out_ [2:0] $end
$var reg 3 {( T_Channel__i1_s5___xxv_ethernet_0_axis_rx_0_ [2:0] $end
$var reg 1 ~( _TRIGGER $end
$var reg 1 !) _WINDOW $end
$var reg 1 ") _GAP $end
$upscope $end
$enddefinitions $end
#0
$dumpvars
b11 "
b0 $
b1 (
b0 0
b1111111111111111 R"
0b"
0c"
1d"
0e"
b100100010010010100100100000000110110011011110010111100001000010001101100000000111110110000000000000000010111100000000000000001 f"
b1111111111111111 *$
0:$
0;$
1<$
0=$
b0 >$
0`%
1a%
0b%
b0 c%
0E&
1F&
0G&
b0 H&
0j'
1k'
0l'
b11100000000001110000000010101000110000001101010010010000 m'
b11111111 O(
0W(
0X(
0Y(
b11 Z(
b11 ](
b11 `(
b11 c(
b11 f(
b0 i(
b11 l(
b11 o(
b11 r(
b11 u(
b11 x(
b0 {(
0~(
1!)
0")
$end
#97
b1000100000000010101010100010000110011001000100001000100000000 m'
#100
1X(
b1 i(
b1 {(
1~(
#101
b1000000000000000001000000101000100010001000011001100100010 m'
#102
b101000000000000000010000100001111111010101110 m'
#103
b100000001000000000000000000000000100100001000000000000000 m'
#104
b1111111011111111001001000000000000000000000000000000000000000000 m'
#105
b100000000 m'
#106
b0 m'
#107
b1101101010010001010001101010001100000000000000000000000000000000 m'
b1111 O(
1Y(
b10 {(
#108
b1000100000000010101010100010000110011001000100001000100000000 m'
b11111111 O(
0X(
0Y(
b0 i(
b0 {(
#111
1X(
b1 i(
b1 {(
#112
b1000000000000000001000000101000100010001000011001100100010 m'
#113
b101000000000000000010000100001111111010101110 m'
#114
b100000001000000000000000000000000100100001000000000000001 m'
#115
b1111111011111111001001000010010000010000000000000000000000000000 m'
#116
b1000000000 m'
#117
b0 m'
#118
b10001101110000010100111101010000000000000000000000000000000000 m'
b1111 O(
1Y(
b10 {(
#119
b1000100000000010101010100010000110011001000100001000100000000 m'
b11111111 O(
0X(
0Y(
b0 i(
b0 {(
#120
b0 "
b10000100001111111010101110010001000100010000110011001000100001000100000000010101010100010000110011001000100001000100000000 f"
#122
1X(
b1 i(
b1 {(
#123
b10 "
b10000000100000000000000000000000010010000100000000000000000000000000000000001010000000000 f"
b1000000000000000001000000101000100010001000011001100100010 m'
#124
b10000000011111110111111110010010000000000 f"
b101000000000000000010000100001111111010101110 m'
#125
b110110101001000101000110101000110000000000000000000000000000000000000000000000000000000000000000 f"
b111111111111 *$
b100000001000000000000000000000000100100001000000000000010 m'
#126
b1111111011111111001001000100100000100000000000000000000000000000 m'
#127
b1100000000 m'
#128
b0 m'
#129
b1101101001010011001111110111000000000000000000000000000000000 m'
b1111 O(
1Y(
b10 {(
#130
b1000100000000010101010100010000110011001000100001000100000000 m'
b11111111 O(
0X(
0Y(
b0 i(
b0 {(
#131
b0 "
b10000100001111111010101110010001000100010000110011001000100001000100000000010101010100010000110011001000100001000100000000 f"
b1111111111111111 *$
#134
b10 "
b10000000000000000000000000000000000010000000100000000000000000000000010010000100000000000000100000000000000000001010000000000 f"
1X(
b1 i(
b1 {(
#135
b100000000011111110111111110010010000100100 f"
b1000000000000000001000000101000100010001000011001100100010 m'
#136
b1000110111000001010011110101000000000000000000000000000000000000000000000000000000000000000000 f"
b111111111111 *$
b101000000000000000010000100001111111010101110 m'
#137
b100000001000000000000000000000000100100001000000000000011 m'
#138
b1111111011111111001001000110110000110000000000000000000000000000 m'
#139
b10000000000 m'
#140
b0 m'
#141
b101111000011011111110111101100000000000000000000000000000000 m'
b1111 O(
1Y(
b10 {(
#142
b0 "
b10000100001111111010101110010001000100010000110011001000100001000100000000010101010100010000110011001000100001000100000000 f"
b1111111111111111 *$
b1000100000000010101010100010000110011001000100001000100000000 m'
b11111111 O(
0X(
0Y(
b0 i(
b0 {(
#145
b10 "
b100000000000000000000000000000000000010000000100000000000000000000000010010000100000000000001000000000000000000001010000000000 f"
1X(
b1 i(
b1 {(
#146
b110000000011111110111111110010010001001000 f"
b1000000000000000001000000101000100010001000011001100100010 m'
#147
b110110100101001100111111011100000000000000000000000000000000000000000000000000000000000000000 f"
b111111111111 *$
b101000000000000000010000100001111111010101110 m'
#148
b100000001000000000000000000000000100100001000000000000100 m'
#149
b1111111011111111001001001001000001000000000000000000000000000000 m'
#150
b10100000000 m'
#151
b0 m'
#152
b1000001001010110000000100111100000000000000000000000000000000000 m'
b1111 O(
1Y(
b10 {(
#153
b1000100000000010101010100010000110011001000100001000100000000 m'
b11111111 O(
0X(
0Y(
b0 i(
b0 {(
#154
b0 "
b10000100001111111010101110010001000100010000110011001000100001000100000000010101010100010000110011001000100001000100000000 f"
b1111111111111111 *$
#156
1X(
b1 i(
b1 {(
#157
b10 "
b110000000000000000000000000000000000010000000100000000000000000000000010010000100000000000001100000000000000000001010000000000 f"
b1000000000000000001000000101000100010001000011001100100010 m'
#158
b1000000000011111110111111110010010001101100 f"
b101000000000000000010000100001111111010101110 m'
#159
b10111100001101111111011110110000000000000000000000000000000000000000000000000000000000000000 f"
b111111111111 *$
b100000001000000000000000000000000100100001000000000000101 m'
#160
b1111111011111111001001001011010001010000000000000000000000000000 m'
#161
b11000000000 m'
#162
b0 m'
#163
b111101110110111000101110000111100000000000000000000000000000000 m'
b1111 O(
1Y(
b10 {(
#164
b1000100000000010101010100010000110011001000100001000100000000 m'
b11111111 O(
0X(
0Y(
b0 i(
b0 {(
#165
b0 "
b10000100001111111010101110010001000100010000110011001000100001000100000000010101010100010000110011001000100001000100000000 f"
b1111111111111111 *$
#167
1X(
b1 i(
b1 {(
#168
b10 "
b1000000000000000000000000000000000000010000000100000000000000000000000010010000100000000000010000000000000000000001010000000000 f"
b1000000000000000001000000101000100010001000011001100100010 m'
#169
b1010000000011111110111111110010010010010000 f"
b101000000000000000010000100001111111010101110 m'
#170
b100000100101011000000010011110000000000000000000000000000000000000000000000000000000000000000000 f"
b111111111111 *$
b100000001000000000000000000000000100100001000000000000110 m'
#171
b1111111011111111001001001101100001100000000000000000000000000000 m'
#172
b11100000000 m'
#173
b0 m'
#174
b100001110001101001000110011010100000000000000000000000000000000 m'
b1111 O(
1Y(
b10 {(
#175
b1000100000000010101010100010000110011001000100001000100000000 m'
b11111111 O(
0X(
0Y(
b0 i(
b0 {(
#176
b0 "
b10000100001111111010101110010001000100010000110011001000100001000100000000010101010100010000110011001000100001000100000000 f"
b1111111111111111 *$
#178
1X(
b1 i(
b1 {(
#179
b10 "
b1010000000000000000000000000000000000010000000100000000000000000000000010010000100000000000010100000000000000000001010000000000 f"
b1000000000000000001000000101000100010001000011001100100010 m'
#180
b1100000000011111110111111110010010010110100 f"
b101000000000000000010000100001111111010101110 m'
#181
b11110111011011100010111000011110000000000000000000000000000000000000000000000000000000000000000 f"
b111111111111 *$
b100000001000000000000000000000000100100001000000000000111 m'
#182
b1111111011111111000101011111110001110000000000000000000000000000 m'
#183
b100000000000 m'
#184
b0 m'
#185
b1100001001000001010001100010010100000000000000000000000000000000 m'
b1111 O(
1Y(
b10 {(
#186
b1000100000000010101010100010000110011001000100001000100000000 m'
b11111111 O(
0X(
0Y(
b0 i(
b0 {(
#187
b0 "
b10000100001111111010101110010001000100010000110011001000100001000100000000010101010100010000110011001000100001000100000000 f"
b1111111111111111 *$
#189
1X(
b1 i(
b1 {(
#190
b10 "
b1100000000000000000000000000000000000010000000100000000000000000000000010010000100000000000011000000000000000000001010000000000 f"
b1000000000000000001000000101000100010001000011001100100010 m'
#191
b1110000000011111110111111110010010011011000 f"
b100000000000101000000000000000010000100001111111010101110 m'
#192
b10000111000110100100011001101010000000000000000000000000000000000000000000000000000000000000000 f"
b111111111111 *$
b100000001000000000000000000000000100100001000000000000000 m'
#193
b1111111011111111001001000000000000000000000000000000000000000000 m'
#194
b100000000 m'
#195
b0 m'
#196
b101101001100001010100011011110000000000000000000000000000000000 m'
b1111 O(
1Y(
b10 {(
#197
b1000100000000010101010100010000110011001000100001000100000000 m'
b11111111 O(
0X(
0Y(
b0 i(
b0 {(
#198
b0 "
b10000100001111111010101110010001000100010000110011001000100001000100000000010101010100010000110011001000100001000100000000 f"
b1111111111111111 *$
#200
1X(
b1 i(
b1 {(
#201
b10 "
b1110000000000000000000000000000000000010000000100000000000000000000000010010000100000000000011100000000000000000001010000000000 f"
b1000000000000000001000000101000100010001000011001100100010 m'
#202
b10000000000011111110111111110001010111111100 f"
b100000000000101000000000000000010000100001111111010101110 m'
#203
b110000100100000101000110001001010000000000000000000000000000000000000000000000000000000000000000 f"
b111111111111 *$
b100000001000000000000000000000000100100001000000000000001 m'
#204
b1111111011111111001001000010010000010000000000000000000000000000 m'
#205
b1000000000 m'
#206
b0 m'
#207
b1010001110000000010001001100101100000000000000000000000000000000 m'
b1111 O(
1Y(
b10 {(
#208
b1000100000000010101010100010000110011001000100001000100000000 m'
b11111111 O(
0X(
0Y(
b0 i(
b0 {(
#209
b0 "
b10000100001111111010101110010001000100010000110011001000100001000100000000010101010100010000110011001000100001000100000000 f"
b1111111111111111 *$
#211
1X(
b1 i(
b1 {(
#212
b10 "
b10000000100000000000000000000000010010000100000000000000000000001000000000001010000000000 f"
b1000000000000000001000000101000100010001000011001100100010 m'
#213
b10000000011111110111111110010010000000000 f"
b100000000000101000000000000000010000100001111111010101110 m'
#214
b10110100110000101010001101111000000000000000000000000000000000000000000000000000000000000000000 f"
b111111111111 *$
b100000001000000000000000000000000100100001000000000000010 m'
#215
b1111111011111111001001000100100000100000000000000000000000000000 m'
#216
b1100000000 m'
#217
b0 m'
#218
b1001101110111010011100001111000100000000000000000000000000000000 m'
b1111 O(
1Y(
b10 {(
#219
b1000100000000010101010100010000110011001000100001000100000000 m'
b11111111 O(
0X(
0Y(
b0 i(
b0 {(
#220
b0 "
b10000100001111111010101110010001000100010000110011001000100001000100000000010101010100010000110011001000100001000100000000 f"
b1111111111111111 *$
#222
1X(
b1 i(
b1 {(
#223
b10 "
b10000000000000000000000000000000000010000000100000000000000000000000010010000100000000000000100000001000000000001010000000000 f"
b1000000000000000001000000101000100010001000011001100100010 m'
#224
b100000000011111110111111110010010000100100 f"
b100000000000101000000000000000010000100001111111010101110 m'
#225
b101000111000000001000100110010110000000000000000000000000000000000000000000000000000000000000000 f"
b111111111111 *$
b100000001000000000000000000000000100100001000000000000011 m'
#226
b1111111011111111001001000110110000110000000000000000000000000000 m'
#227
b10000000000 m'
#228
b0 m'
#229
b1000101100110011011010000110010000000000000000000000000000000000 m'
b1111 O(
1Y(
b10 {(
#230
b1000100000000010101010100010000110011001000100001000100000000 m'
b11111111 O(
0X(
0Y(
b0 i(
b0 {(
#231
b0 "
b10000100001111111010101110010001000100010000110011001000100001000100000000010101010100010000110011001000100001000100000000 f"
b1111111111111111 *$
#233
1X(
b1 i(
b1 {(
#234
b10 "
b100000000000000000000000000000000000010000000100000000000000000000000010010000100000000000001000000001000000000001010000000000 f"
b1000000000000000001000000101000100010001000011001100100010 m'
#235
b110000000011111110111111110010010001001000 f"
b100000000000101000000000000000010000100001111111010101110 m'
#236
b100110111011101001110000111100010000000000000000000000000000000000000000000000000000000000000000 f"
b111111111111 *$
b100000001000000000000000000000000100100001000000000000100 m'
#237
b1111111011111111001001001001000001000000000000000000000000000000 m'
#238
b10100000000 m'
#239
b0 m'
#240
b1010100110000101010110011100000000000000000000000000000000 m'
b1111 O(
1Y(
b10 {(
#241
b1000100000000010101010100010000110011001000100001000100000000 m'
b11111111 O(
0X(
0Y(
b0 i(
b0 {(
#242
b0 "
b10000100001111111010101110010001000100010000110011001000100001000100000000010101010100010000110011001000100001000100000000 f"
b1111111111111111 *$
#244
1X(
b1 i(
b1 {(
#245
b10 "
b110000000000000000000000000000000000010000000100000000000000000000000010010000100000000000001100000001000000000001010000000000 f"
b1000000000000000001000000101000100010001000011001100100010 m'
#246
b1000000000011111110111111110010010001101100 f"
b100000000000101000000000000000010000100001111111010101110 m'
#247
b100010110011001101101000011001000000000000000000000000000000000000000000000000000000000000000000 f"
b111111111111 *$
b100000001000000000000000000000000100100001000000000000101 m'
#248
b1111111011111111001001001011010001010000000000000000000000000000 m'
#249
b11000000000 m'
#250
b0 m'
#251
b1111101101000111000000000001000000000000000000000000000000000000 m'
b1111 O(
1Y(
b10 {(
#252
b1000100000000010101010100010000110011001000100001000100000000 m'
b11111111 O(
0X(
0Y(
b0 i(
b0 {(
#253
b0 "
b10000100001111111010101110010001000100010000110011001000100001000100000000010101010100010000110011001000100001000100000000 f"
b1111111111111111 *$
#254
1X(
b1 i(
b1 {(
#255
b1000000000000000001000000101000100010001000011001100100010 m'
#256
b10 "
b1000000000000000000000000000000000000010000000100000000000000000000000010010000100000000000010000000001000000000001010000000000 f"
b100000000000101000000000000000010000100001111111010101110 m'
#257
b1010000000011111110111111110010010010010000 f"
b100000001000000000000000000000000100100001000000000000110 m'
#258
b101010011000010101011001110000000000000000000000000000000000000000000000000000000000000000 f"
b111111111111 *$
b1111111011111111001001001101100001100000000000000000000000000000 m'
#259
b11100000000 m'
#260
b0 m'
#261
b1100001101111101001101000010101000000000000000000000000000000000 m'
b1111 O(
1Y(
b10 {(
#262
b1000100000000010101010100010000110011001000100001000100000000 m'
b11111111 O(
0X(
0Y(
b0 i(
b0 {(
#264
b0 "
b10000100001111111010101110010001000100010000110011001000100001000100000000010101010100010000110011001000100001000100000000 f"
b1111111111111111 *$
#267
b10 "
b1010000000000000000000000000000000000010000000100000000000000000000000010010000100000000000010100000001000000000001010000000000 f"
#268
b1100000000011111110111111110010010010110100 f"
#269
b111110110100011100000000000100000000000000000000000000000000000000000000000000000000000000000000 f"
b111111111111 *$
#274
b0 "
b10000100001111111010101110010001000100010000110011001000100001000100000000010101010100010000110011001000100001000100000000 f"
b1111111111111111 *$
#277
b10 "
b1100000000000000000000000000000000000010000000100000000000000000000000010010000100000000000011000000001000000000001010000000000 f"
#278
b1110000000011111110111111110010010011011000 f"
#279
b110000110111110100110100001010100000000000000000000000000000000000000000000000000000000000000000 f"
b111111111111 *$
#318
1X(
b1 i(
b1 {(
#319
b1000000000000000001000000101000100010001000011001100100010 m'
#320
b100000000000101000000000000000010000100001111111010101110 m'
#321
b100000001000000000000000000000000100100001000000000000111 m'
#322
b1111111011111111000101011111110001110000000000000000000000000000 m'
#323
b100000000000 m'
#324
b0 m'
#325
b100001010110001010100010011101000000000000000000000000000000000 m'
b1111 O(
1Y(
b10 {(
#326
b1000100000000010101010100010000110011001000100001000100000000 m'
b11111111 O(
0X(
0Y(
b0 i(
b0 {(
#328
1X(
b1 i(
b1 {(
#329
b1000000000000000001000000101000100010001000011001100100010 m'
#330
b1000000000000101000000000000000010000100001111111010101110 m'
#331
b100000001000000000000000000000000100100001000000000000000 m'
#332
b1111111011111111001001000000000000000000000000000000000000000000 m'
#333
b100000000 m'
#334
b0 m'
#335
b11011101101110000000000000000000000000000000000 m'
b1111 O(
1Y(
b10 {(
#336
b1000100000000010101010100010000110011001000100001000100000000 m'
b11111111 O(
0X(
0Y(
b0 i(
b0 {(
#338
b0 "
b10000100001111111010101110010001000100010000110011001000100001000100000000010101010100010000110011001000100001000100000000 f"
b1111111111111111 *$
#341
b10 "
b1110000000000000000000000000000000000010000000100000000000000000000000010010000100000000000011100000001000000000001010000000000 f"
#342
b10000000000011111110111111110001010111111100 f"
#343
b10000101011000101010001001110100000000000000000000000000000000000000000000000000000000000000000 f"
b111111111111 *$
#348
b0 "
b10000100001111111010101110010001000100010000110011001000100001000100000000010101010100010000110011001000100001000100000000 f"
b1111111111111111 *$
#351
b10 "
b10000000100000000000000000000000010010000100000000000000000000010000000000001010000000000 f"
#352
b10000000011111110111111110010010000000000 f"
#353
b1101110110111000000000000000000000000000000000000000000000000000000000000000000 f"
b111111111111 *$
#361
1X(
b1 i(
b1 {(
#362
b1000000000000000001000000101000100010001000011001100100010 m'
#363
b1000000000000101000000000000000010000100001111111010101110 m'
#364
b100000001000000000000000000000000100100001000000000000001 m'
#365
b1111111011111111001001000010010000010000000000000000000000000000 m'
#366
b1000000000 m'
#367
b0 m'
#368
b1111100111100001011110111010101100000000000000000000000000000000 m'
b1111 O(
1Y(
b10 {(
#369
b1000100000000010101010100010000110011001000100001000100000000 m'
b11111111 O(
0X(
0Y(
b0 i(
b0 {(
#371
1X(
b1 i(
b1 {(
#372
b1000000000000000001000000101000100010001000011001100100010 m'
#373
b1000000000000101000000000000000010000100001111111010101110 m'
#374
b100000001000000000000000000000000100100001000000000000010 m'
#375
b1111111011111111001001000100100000100000000000000000000000000000 m'
#376
b1100000000 m'
#377
b0 m'
#378
b1100000111011011010011111001000100000000000000000000000000000000 m'
b1111 O(
1Y(
b10 {(
#379
b1000100000000010101010100010000110011001000100001000100000000 m'
b11111111 O(
0X(
0Y(
b0 i(
b0 {(
#381
b0 "
b10000100001111111010101110010001000100010000110011001000100001000100000000010101010100010000110011001000100001000100000000 f"
b1111111111111111 *$
#384
b10 "
b10000000000000000000000000000000000010000000100000000000000000000000010010000100000000000000100000010000000000001010000000000 f"
#385
b100000000011111110111111110010010000100100 f"
#386
b111110011110000101111011101010110000000000000000000000000000000000000000000000000000000000000000 f"
b111111111111 *$
#391
b0 "
b10000100001111111010101110010001000100010000110011001000100001000100000000010101010100010000110011001000100001000100000000 f"
b1111111111111111 *$
#393
1X(
b1 i(
b1 {(
#394
b10 "
b100000000000000000000000000000000000010000000100000000000000000000000010010000100000000000001000000010000000000001010000000000 f"
b1000000000000000001000000101000100010001000011001100100010 m'
#395
b110000000011111110111111110010010001001000 f"
b1000000000000101000000000000000010000100001111111010101110 m'
#396
b110000011101101101001111100100010000000000000000000000000000000000000000000000000000000000000000 f"
b111111111111 *$
b100000001000000000000000000000000100100001000000000000011 m'
#397
b1111111011111111001001000110110000110000000000000000000000000000 m'
#398
b10000000000 m'
#399
b0 m'
#400
b1101000101010010010101110000010000000000000000000000000000000000 m'
b1111 O(
1Y(
b10 {(
#401
b1000100000000010101010100010000110011001000100001000100000000 m'
b11111111 O(
0X(
0Y(
b0 i(
b0 {(
#403
1X(
b1 i(
b1 {(
#404
b1000000000000000001000000101000100010001000011001100100010 m'
#405
b1000000000000101000000000000000010000100001111111010101110 m'
#406
b100000001000000000000000000000000100100001000000000000100 m'
#407
b1111111011111111001001001001000001000000000000000000000000000000 m'
#408
b10100000000 m'
#409
b0 m'
#410
b101100011000111001010100000011100000000000000000000000000000000 m'
b1111 O(
1Y(
b10 {(
#411
b1000100000000010101010100010000110011001000100001000100000000 m'
b11111111 O(
0X(
0Y(
b0 i(
b0 {(
#413
b0 "
b10000100001111111010101110010001000100010000110011001000100001000100000000010101010100010000110011001000100001000100000000 f"
b1111111111111111 *$
#416
b10 "
b110000000000000000000000000000000000010000000100000000000000000000000010010000100000000000001100000010000000000001010000000000 f"
#417
b1000000000011111110111111110010010001101100 f"
#418
b110100010101001001010111000001000000000000000000000000000000000000000000000000000000000000000000 f"
b111111111111 *$
#423
b0 "
b10000100001111111010101110010001000100010000110011001000100001000100000000010101010100010000110011001000100001000100000000 f"
b1111111111111111 *$
#426
b10 "
b1000000000000000000000000000000000000010000000100000000000000000000000010010000100000000000010000000010000000000001010000000000 f"
#427
b1010000000011111110111111110010010010010000 f"
#428
b10110001100011100101010000001110000000000000000000000000000000000000000000000000000000000000000 f"
b111111111111 *$
#431
1X(
b1 i(
b1 {(
#432
b1000000000000000001000000101000100010001000011001100100010 m'
#433
b1000000000000101000000000000000010000100001111111010101110 m'
#434
b100000001000000000000000000000000100100001000000000000101 m'
#435
b1111111011111111001001001011010001010000000000000000000000000000 m'
#436
b11000000000 m'
#437
b0 m'
#438
b1010000100100110001111110111000000000000000000000000000000000000 m'
b1111 O(
1Y(
b10 {(
#439
b1000100000000010101010100010000110011001000100001000100000000 m'
b11111111 O(
0X(
0Y(
b0 i(
b0 {(
#443
1X(
b1 i(
b1 {(
#444
b1000000000000000001000000101000100010001000011001100100010 m'
#445
b1000000000000101000000000000000010000100001111111010101110 m'
#446
b100000001000000000000000000000000100100001000000000000110 m'
#447
b1111111011111111001001001101100001100000000000000000000000000000 m'
#448
b11100000000 m'
#449
b0 m'
#450
b1001100100011100000010110100101000000000000000000000000000000000 m'
b1111 O(
1Y(
b10 {(
#451
b0 "
b10000100001111111010101110010001000100010000110011001000100001000100000000010101010100010000110011001000100001000100000000 f"
b1111111111111111 *$
b1000100000000010101010100010000110011001000100001000100000000 m'
b11111111 O(
0X(
0Y(
b0 i(
b0 {(
#454
b10 "
b1010000000000000000000000000000000000010000000100000000000000000000000010010000100000000000010100000010000000000001010000000000 f"
1X(
b1 i(
b1 {(
#455
b1100000000011111110111111110010010010110100 f"
b1000000000000000001000000101000100010001000011001100100010 m'
#456
b101000010010011000111111011100000000000000000000000000000000000000000000000000000000000000000000 f"
b111111111111 *$
b1000000000000101000000000000000010000100001111111010101110 m'
#457
b100000001000000000000000000000000100100001000000000000111 m'
#458
b1111111011111111000101011111110001110000000000000000000000000000 m'
#459
b100000000000 m'
#460
b0 m'
#461
b1100011010000011011100101101000000000000000000000000000000000 m'
b1111 O(
1Y(
b10 {(
#462
b1000100000000010101010100010000110011001000100001000100000000 m'
b11111111 O(
0X(
0Y(
b0 i(
b0 {(
#463
b0 "
b10000100001111111010101110010001000100010000110011001000100001000100000000010101010100010000110011001000100001000100000000 f"
b1111111111111111 *$
#464
1X(
b1 i(
b1 {(
#465
b1000000000000000001000000101000100010001000011001100100010 m'
#466
b10 "
b1100000000000000000000000000000000000010000000100000000000000000000000010010000100000000000011000000010000000000001010000000000 f"
b1100000000000101000000000000000010000100001111111010101110 m'
#467
b1110000000011111110111111110010010011011000 f"
b100000001000000000000000000000000100100001000000000000000 m'
#468
b100110010001110000001011010010100000000000000000000000000000000000000000000000000000000000000000 f"
b111111111111 *$
b1111111011111111001001000000000000000000000000000000000000000000 m'
#469
b100000000 m'
#470
b0 m'
#471
b1000000011110000011110011100001100000000000000000000000000000000 m'
b1111 O(
1Y(
b10 {(
#472
b1000100000000010101010100010000110011001000100001000100000000 m'
b11111111 O(
0X(
0Y(
b0 i(
b0 {(
#474
b0 "
b10000100001111111010101110010001000100010000110011001000100001000100000000010101010100010000110011001000100001000100000000 f"
b1111111111111111 *$
#477
b10 "
b1110000000000000000000000000000000000010000000100000000000000000000000010010000100000000000011100000010000000000001010000000000 f"
#478
b10000000000011111110111111110001010111111100 f"
#479
b110001101000001101110010110100000000000000000000000000000000000000000000000000000000000000000 f"
b111111111111 *$
#484
b0 "
b10000100001111111010101110010001000100010000110011001000100001000100000000010101010100010000110011001000100001000100000000 f"
b1111111111111111 *$
#487
b10 "
b10000000100000000000000000000000010010000100000000000000000000011000000000001010000000000 f"
1X(
b1 i(
b1 {(
#488
b10000000011111110111111110010010000000000 f"
b1000000000000000001000000101000100010001000011001100100010 m'
#489
b100000001111000001111001110000110000000000000000000000000000000000000000000000000000000000000000 f"
b111111111111 *$
b1100000000000101000000000000000010000100001111111010101110 m'
#490
b100000001000000000000000000000000100100001000000000000001 m'
#491
b1111111011111111001001000010010000010000000000000000000000000000 m'
#492
b1000000000 m'
#493
b0 m'
#494
b111100100010001011011001011010000000000000000000000000000000000 m'
b1111 O(
1Y(
b10 {(
#495
b1000100000000010101010100010000110011001000100001000100000000 m'
b11111111 O(
0X(
0Y(
b0 i(
b0 {(
#498
1X(
b1 i(
b1 {(
#499
b1000000000000000001000000101000100010001000011001100100010 m'
#500
b1100000000000101000000000000000010000100001111111010101110 m'
#501
b100000001000000000000000000000000100100001000000000000010 m'
#502
b1111111011111111001001000100100000100000000000000000000000000000 m'
#503
b1100000000 m'
#504
b0 m'
#505
b100000100101011010110001000111000000000000000000000000000000000 m'
b1111 O(
1Y(
b10 {(
#506
b1000100000000010101010100010000110011001000100001000100000000 m'
b11111111 O(
0X(
0Y(
b0 i(
b0 {(
#507
b0 "
b10000100001111111010101110010001000100010000110011001000100001000100000000010101010100010000110011001000100001000100000000 f"
b1111111111111111 *$
#509
1X(
b1 i(
b1 {(
#510
b10 "
b10000000000000000000000000000000000010000000100000000000000000000000010010000100000000000000100000011000000000001010000000000 f"
b1000000000000000001000000101000100010001000011001100100010 m'
#511
b100000000011111110111111110010010000100100 f"
b1100000000000101000000000000000010000100001111111010101110 m'
#512
b11110010001000101101100101101000000000000000000000000000000000000000000000000000000000000000000 f"
b111111111111 *$
b100000001000000000000000000000000100100001000000000000011 m'
#513
b1111111011111111001001000110110000110000000000000000000000000000 m'
#514
b10000000000 m'
#515
b0 m'
#516
b101000110100010010000000001101100000000000000000000000000000000 m'
b1111 O(
1Y(
b10 {(
#517
b1000100000000010101010100010000110011001000100001000100000000 m'
b11111111 O(
0X(
0Y(
b0 i(
b0 {(
#518
b0 "
b10000100001111111010101110010001000100010000110011001000100001000100000000010101010100010000110011001000100001000100000000 f"
b1111111111111111 *$
#520
1X(
b1 i(
b1 {(
#521
b10 "
b100000000000000000000000000000000000010000000100000000000000000000000010010000100000000000001000000011000000000001010000000000 f"
b1000000000000000001000000101000100010001000011001100100010 m'
#522
b110000000011111110111111110010010001001000 f"
b1100000000000101000000000000000010000100001111111010101110 m'
#523
b10000010010101101011000100011100000000000000000000000000000000000000000000000000000000000000000 f"
b111111111111 *$
b100000001000000000000000000000000100100001000000000000100 m'
#524
b1111111011111111001001001001000001000000000000000000000000000000 m'
#525
b10100000000 m'
#526
b0 m'
#527
b1101100000110111001111010001100000000000000000000000000000000000 m'
b1111 O(
1Y(
b10 {(
#528
b1000100000000010101010100010000110011001000100001000100000000 m'
b11111111 O(
0X(
0Y(
b0 i(
b0 {(
