Looping_Hardware-design/project_1/.Xil/Vivado-32404-client32/hw_ila_data_1/zip_work/waveform.vcd
$date
        2023-Mar-01 17:56:44
$end
$version
        Vivado v2019.1 (64-bit)
$end
$timescale
        1ps
$end
$scope module dut $end
$var reg 2 " check_40G_sim_i/system_ila_0/inst/probe0_1 [1:0] $end
$var reg 4 $ check_40G_sim_i/system_ila_0/inst/probe1_1 [3:0] $end
$var reg 8 ( check_40G_sim_i/system_ila_0/inst/probe2_1 [7:0] $end
$var reg 8 0 check_40G_sim_i/system_ila_0/inst/probe3_1 [7:0] $end
$var reg 12 8 check_40G_sim_i/system_ila_0/inst/probe4_1 [11:0] $end
$var reg 32 D check_40G_sim_i/system_ila_0/inst/net_slot_0_axis_tdata [31:0] $end
$var reg 1 d check_40G_sim_i/system_ila_0/inst/net_slot_0_axis_tvalid $end
$var reg 1 e check_40G_sim_i/system_ila_0/inst/net_slot_0_axis_tready $end
$var reg 1 f check_40G_sim_i/system_ila_0/inst/net_slot_0_axis_tlast $end
$var reg 128 g check_40G_sim_i/system_ila_0/inst/net_slot_1_axis_tdata [127:0] $end
$var reg 16 +# check_40G_sim_i/system_ila_0/inst/net_slot_1_axis_tkeep [15:0] $end
$var reg 1 ;# check_40G_sim_i/system_ila_0/inst/net_slot_1_axis_tuser $end
$var reg 1 <# check_40G_sim_i/system_ila_0/inst/net_slot_1_axis_tvalid $end
$var reg 1 =# check_40G_sim_i/system_ila_0/inst/net_slot_1_axis_tready $end
$var reg 1 ># check_40G_sim_i/system_ila_0/inst/net_slot_1_axis_tlast $end
$var reg 128 ?# check_40G_sim_i/system_ila_0/inst/net_slot_2_axis_tdata [127:0] $end
$var reg 1 a$ check_40G_sim_i/system_ila_0/inst/net_slot_2_axis_tvalid $end
$var reg 1 b$ check_40G_sim_i/system_ila_0/inst/net_slot_2_axis_tready $end
$var reg 1 c$ check_40G_sim_i/system_ila_0/inst/net_slot_2_axis_tlast $end
$var reg 64 d$ check_40G_sim_i/system_ila_0/inst/net_slot_3_axis_tdata [63:0] $end
$var reg 1 F% check_40G_sim_i/system_ila_0/inst/net_slot_3_axis_tvalid $end
$var reg 1 G% check_40G_sim_i/system_ila_0/inst/net_slot_3_axis_tready $end
$var reg 1 H% check_40G_sim_i/system_ila_0/inst/net_slot_3_axis_tlast $end
$var reg 128 I% check_40G_sim_i/system_ila_0/inst/net_slot_4_axis_tdata [127:0] $end
$var reg 1 k& check_40G_sim_i/system_ila_0/inst/net_slot_4_axis_tvalid $end
$var reg 1 l& check_40G_sim_i/system_ila_0/inst/net_slot_4_axis_tready $end
$var reg 1 m& check_40G_sim_i/system_ila_0/inst/net_slot_4_axis_tlast $end
$var reg 64 n& check_40G_sim_i/system_ila_0/inst/net_slot_5_axis_tdata [63:0] $end
$var reg 8 P' check_40G_sim_i/system_ila_0/inst/net_slot_5_axis_tkeep [7:0] $end
$var reg 1 X' check_40G_sim_i/system_ila_0/inst/net_slot_5_axis_tuser $end
$var reg 1 Y' check_40G_sim_i/system_ila_0/inst/net_slot_5_axis_tvalid $end
$var reg 1 Z' check_40G_sim_i/system_ila_0/inst/net_slot_5_axis_tlast $end
$var reg 3 [' Interface__i1_s0___ecpri_demux_0_control_data_out_ [2:0] $end
$var reg 3 ^' Interface__i1_s1___ecpri_demux_0_user_data_out_ [2:0] $end
$var reg 3 a' Interface__i1_s2___cplane_depacketizer_0_beam_data_ [2:0] $end
$var reg 3 d' Interface__i1_s3___cplane_depacketizer_0_beam_info_V_ [2:0] $end
$var reg 3 g' Interface__i1_s4___uplane_depacketiser_0_data_out_ [2:0] $end
$var reg 3 j' Interface__i1_s5___xxv_ethernet_0_axis_rx_0_ [2:0] $end
$var reg 3 m' T_Channel__i1_s0___ecpri_demux_0_control_data_out_ [2:0] $end
$var reg 3 p' T_Channel__i1_s1___ecpri_demux_0_user_data_out_ [2:0] $end
$var reg 3 s' T_Channel__i1_s2___cplane_depacketizer_0_beam_data_ [2:0] $end
$var reg 3 v' T_Channel__i1_s3___cplane_depacketizer_0_beam_info_V_ [2:0] $end
$var reg 3 y' T_Channel__i1_s4___uplane_depacketiser_0_data_out_ [2:0] $end
$var reg 3 |' T_Channel__i1_s5___xxv_ethernet_0_axis_rx_0_ [2:0] $end
$var reg 1 !( _TRIGGER $end
$var reg 1 "( _WINDOW $end
$var reg 1 #( _GAP $end
$upscope $end
$enddefinitions $end
#0
$dumpvars
b1 "
b0 $
b1 (
b1 0
b0 8
b0 D
0d
1e
0f
b1010101010001000011001100100010000100010000000011111111111111111111111111111111111111111111111101010101010001000011001100100010 g
b1111111111111111 +#
0;#
0<#
1=#
0>#
b0 ?#
0a$
1b$
0c$
b0 d$
0F%
1G%
0H%
b0 I%
0k&
1l&
0m&
b110000000011000011000000001100001100000000110000110000000011 n&
b11111111 P'
0X'
0Y'
0Z'
b11 ['
b0 ^'
b11 a'
b11 d'
b11 g'
b0 j'
b11 m'
b0 p'
b11 s'
b11 v'
b11 y'
b0 |'
0!(
1"(
0#(
$end
#100
1!(
#3379
b1000100000000111111111111111111111111111111111111111111111111 n&
#3382
1Y'
b1 j'
b1 |'
#3383
b100000000000000001000000101010101010001000011001100100010 n&
#3384
b111000000010100000000000100001111111010101110 n&
#3385
b100010100000000000001010100100001000000001101101 n&
#3386
b110000000011000011000000001100001100000000110001101100000000 n&
#3387
b110000000011000011000000001100001100000000110000110000000011 n&
#3403
b11111111111111111111111111111111010101010100010000110011001000100001000100000000111111111111111111111111111111111111111111111111 g
1<#
b1 ^'
b1 p'
#3404
0<#
b0 ^'
b0 p'
#3548
b10101010110100010010110000111010000110000000011 n&
b11 P'
1Z'
b10 |'
#3549
b1000100000000111111111111111111111111111111111111111111111111 n&
b11111111 P'
0Y'
0Z'
b0 j'
b0 |'
#3551
1Y'
b1 j'
b1 |'
#3552
b100000000000000001000000101010101010001000011001100100010 n&
#3553
b101111000000000100000000000100001111111010101110 n&
#3554
b100010100000000000001010100100001000000001101110 n&
#3555
b110000000011000011000000001100001100000000110000100100011011 n&
#3556
b110000000011000011000000001100001100000000110000110000000011 n&
#3572
b10001000000001111111111111111111111111111111111111111111111110101010101000100001100110010001000010001000000001111111111111111 g
1<#
b1 ^'
b1 p'
#3573
0<#
b0 ^'
b0 p'
#3581
b1011000000011000101100000001100010110000000110000110000000011 n&
#3582
b1011000000011000101100000001100010110000000110001011000000011 n&
#3609
b1001000100101101111110110110010001011000000011 n&
b11 P'
1Z'
b10 |'
#3610
b1000100000000111111111111111111111111111111111111111111111111 n&
b11111111 P'
0Y'
0Z'
b0 j'
b0 |'
#3612
1Y'
b1 j'
b1 |'
#3613
b100000000000000001000000101010101010001000011001100100010 n&
#3614
b111000000010100000000000100001111111010101110 n&
#3615
b1000000000000100010100000000000001010100100001000000001101111 n&
#3616
b1011000000011000101100000001100010110000000110001101100100100 n&
#3617
b1011000000011000101100000001100010110000000110001011000000011 n&
#3633
b1010101010001000011001100100010000100010000000011111111111111111111111111111111111111111111111101010101010001000011001100100010 g
1<#
b1 ^'
b1 p'
#3634
0<#
b0 ^'
b0 p'
#3778
b110010000010100100101100111110100001011000000011 n&
b11 P'
1Z'
b10 |'
#3779
b1000100000000111111111111111111111111111111111111111111111111 n&
b11111111 P'
0Y'
0Z'
b0 j'
b0 |'
#3782
1Y'
b1 j'
b1 |'
#3783
b100000000000000001000000101010101010001000011001100100010 n&
#3784
b101111000000000100000000000100001111111010101110 n&
#3785
b1000000000000100010100000000000001010100100001000000001110000 n&
#3786
b1011000000011000101100000001100010110000000110000100100111111 n&
#3787
b1011000000011000101100000001100010110000000110001011000000011 n&
#3840
b110010100011010100010001010001100001011000000011 n&
b11 P'
1Z'
b10 |'
#3841
b1000100000000111111111111111111111111111111111111111111111111 n&
b11111111 P'
0Y'
0Z'
b0 j'
b0 |'
#3843
1Y'
b1 j'
b1 |'
#3844
b100000000000000001000000101010101010001000011001100100010 n&
#3845
b111000000010100000000000100001111111010101110 n&
#3846
b10000000000000100010100000000000001010100100001000000001110001 n&
#3847
b1011000000011000101100000001100010110000000110001101101001000 n&
#3848
b1011000000011000101100000001100010110000000110001011000000011 n&
#3864
b11111111111111111111111111111111010101010100010000110011001000100001000100000000111111111111111111111111111111111111111111111111 g
1<#
b1 ^'
b1 p'
#3865
0<#
b0 ^'
b0 p'
#4009
b111010110000010011101101001110001011000000011 n&
b11 P'
1Z'
b10 |'
#4010
b1000100000000111111111111111111111111111111111111111111111111 n&
b11111111 P'
0Y'
0Z'
b0 j'
b0 |'
#4012
1Y'
b1 j'
b1 |'
#4013
b100000000000000001000000101010101010001000011001100100010 n&
#4014
b101111000000000100000000000100001111111010101110 n&
#4015
b10000000000000100010100000000000001010100100001000000001110010 n&
#4016
b1011000000011000101100000001100010110000000110000100101100011 n&
#4017
b1011000000011000101100000001100010110000000110001011000000011 n&
#4033
b10001000000001111111111111111111111111111111111111111111111110101010101000100001100110010001000010001000000001111111111111111 g
1<#
b1 ^'
b1 p'
#4034
0<#
b0 ^'
b0 p'
#4070
b10111110100011100100010101010000001011000000011 n&
b11 P'
1Z'
b10 |'
#4071
b1000100000000111111111111111111111111111111111111111111111111 n&
b11111111 P'
0Y'
0Z'
b0 j'
b0 |'
#4073
1Y'
b1 j'
b1 |'
#4074
b100000000000000001000000101010101010001000011001100100010 n&
#4075
b111000000010100000000000100001111111010101110 n&
#4076
b11000000000000100010100000000000001010100100001000000001110011 n&
#4077
b1011000000011000101100000001100010110000000110001101101101100 n&
#4078
b1011000000011000101100000001100010110000000110001011000000011 n&
#4094
b1010101010001000011001100100010000100010000000011111111111111111111111111111111111111111111111101010101010001000011001100100010 g
1<#
b1 ^'
b1 p'
#4095
0<#
b0 ^'
b0 p'
