Looping_Hardware-design/project_1/.Xil/Vivado-20254-client32/hw_ila_data_2/zip_work/waveform.vcd
$date
        2022-Dec-15 17:07:33
$end
$version
        Vivado v2019.1 (64-bit)
$end
$timescale
        1ps
$end
$scope module dut $end
$var reg 4 " check_40G_sim_i/system_ila_1/inst/probe0_1 [3:0] $end
$var reg 8 & check_40G_sim_i/system_ila_1/inst/probe1_1 [7:0] $end
$var reg 128 . check_40G_sim_i/system_ila_1/inst/net_slot_0_axis_tdata [127:0] $end
$var reg 16 P" check_40G_sim_i/system_ila_1/inst/net_slot_0_axis_tkeep [15:0] $end
$var reg 1 `" check_40G_sim_i/system_ila_1/inst/net_slot_0_axis_tvalid $end
$var reg 1 a" check_40G_sim_i/system_ila_1/inst/net_slot_0_axis_tready $end
$var reg 1 b" check_40G_sim_i/system_ila_1/inst/net_slot_0_axis_tlast $end
$var reg 64 c" check_40G_sim_i/system_ila_1/inst/net_slot_1_axis_tdata [63:0] $end
$var reg 8 E# check_40G_sim_i/system_ila_1/inst/net_slot_1_axis_tkeep [7:0] $end
$var reg 8 M# check_40G_sim_i/system_ila_1/inst/net_slot_1_axis_tuser [7:0] $end
$var reg 1 U# check_40G_sim_i/system_ila_1/inst/net_slot_1_axis_tvalid $end
$var reg 1 V# check_40G_sim_i/system_ila_1/inst/net_slot_1_axis_tready $end
$var reg 1 W# check_40G_sim_i/system_ila_1/inst/net_slot_1_axis_tlast $end
$var reg 128 X# check_40G_sim_i/system_ila_1/inst/net_slot_2_axis_tdata [127:0] $end
$var reg 16 z$ check_40G_sim_i/system_ila_1/inst/net_slot_2_axis_tkeep [15:0] $end
$var reg 1 ,% check_40G_sim_i/system_ila_1/inst/net_slot_2_axis_tuser $end
$var reg 1 -% check_40G_sim_i/system_ila_1/inst/net_slot_2_axis_tvalid $end
$var reg 1 .% check_40G_sim_i/system_ila_1/inst/net_slot_2_axis_tready $end
$var reg 1 /% check_40G_sim_i/system_ila_1/inst/net_slot_2_axis_tlast $end
$var reg 128 0% check_40G_sim_i/system_ila_1/inst/net_slot_3_axis_tdata [127:0] $end
$var reg 16 R& check_40G_sim_i/system_ila_1/inst/net_slot_3_axis_tkeep [15:0] $end
$var reg 1 b& check_40G_sim_i/system_ila_1/inst/net_slot_3_axis_tvalid $end
$var reg 1 c& check_40G_sim_i/system_ila_1/inst/net_slot_3_axis_tready $end
$var reg 1 d& check_40G_sim_i/system_ila_1/inst/net_slot_3_axis_tlast $end
$var reg 3 e& Interface__i2_s0___uplane_packetiser_0_eth_data1_ [2:0] $end
$var reg 3 h& Interface__i2_s1___axis_data_fifo_5_M_AXIS_ [2:0] $end
$var reg 3 k& Interface__i2_s2___ethernet_mux_0_eth_data_out_ [2:0] $end
$var reg 3 n& Interface__i2_s3___tkeep_cleaner_FAPI_0_master_ [2:0] $end
$var reg 3 q& T_Channel__i2_s0___uplane_packetiser_0_eth_data1_ [2:0] $end
$var reg 3 t& T_Channel__i2_s1___axis_data_fifo_5_M_AXIS_ [2:0] $end
$var reg 3 w& T_Channel__i2_s2___ethernet_mux_0_eth_data_out_ [2:0] $end
$var reg 3 z& T_Channel__i2_s3___tkeep_cleaner_FAPI_0_master_ [2:0] $end
$var reg 1 }& _TRIGGER $end
$var reg 1 ~& _WINDOW $end
$var reg 1 !' _GAP $end
$upscope $end
$enddefinitions $end
#0
$dumpvars
b1100 "
b1 &
b1000000000000000010000001010101010100010000110011001000100001000100000000111111111111111111111111111111111111111111111111 .
b1111111111111111 P"
0`"
0a"
0b"
b1000100000000111111111111111111111111111111111111111111111111 c"
b11111111 E#
b0 M#
0U#
1V#
0W#
b101011000000000000000000000000 X#
b1111111111111111 z$
0,%
0-%
0.%
0/%
b1011010000000000000000000000000 0%
b1111 R&
1b&
1c&
1d&
b0 e&
b0 h&
b0 k&
b0 n&
b0 q&
b0 t&
b0 w&
b0 z&
0}&
1~&
0!'
$end
#1
1`"
1a"
1-%
1.%
0b&
0d&
b1 e&
b1 k&
b1 q&
b1 w&
#2
b10 &
b11111111010101110 .
b1111 P"
b101100000000000000000000000000 X#
0-%
0.%
b1000000000000000010000001010101010100010000110011001000100001000100000000111111111111111111111111111111111111111111111111 0%
b1111111111111111 R&
1b&
b0 k&
b1 n&
b0 w&
b1 z&
#3
b11 &
b100000000000100001010000000000101 .
b1111111111111111 P"
1-%
1.%
b11111111010101110 0%
b1111 R&
0b&
b1 k&
b0 n&
b1 w&
b0 z&
#4
b101 &
b1011011000000000000000000000000000000000000000000000000000000000000000000000000000000000000000000000000000000000000000000000000 .
b101101000000000000000000000000 X#
0-%
0.%
b10000000000010000101000000000010100000000000000011111111010101110 0%
b1111111111111111 R&
1b&
b0 k&
b1 n&
b0 w&
b1 z&
#5
b110 &
b1011100000000000000000000000000000000000000000000000000000000000000000000000000000000000000000000000000000000000000000000000000 .
1-%
1.%
b0 0%
b1 k&
b1 w&
#6
b111 &
b1011101000000000000000000000000000000000000000000000000000000000000000000000000000000000000000000000000000000000000000000000000 .
b101110000000000000000000000000 X#
0-%
0.%
b1011011000000000000000000000000 0%
b0 k&
b0 w&
#7
b101 &
b1011110000000000000000000000000000000000000000000000000000000000000000000000000000000000000000000000000000000000000000000000000 .
1-%
1.%
b1011100000000000000000000000000 0%
b1 k&
b1 w&
#8
b110 &
b1011111000000000000000000000000000000000000000000000000000000000000000000000000000000000000000000000000000000000000000000000000 .
b101111000000000000000000000000 X#
0-%
0.%
b1011101000000000000000000000000 0%
b0 k&
b0 w&
#9
b111 &
b1100000000000000000000000000000000000000000000000000000000000000000000000000000000000000000000000000000000000000000000000000000 .
1-%
1.%
b1011110000000000000000000000000 0%
b1 k&
b1 w&
#10
b101 &
b1100001000000000000000000000000000000000000000000000000000000000000000000000000000000000000000000000000000000000000000000000000 .
b110000000000000000000000000000 X#
0-%
0.%
b1011111000000000000000000000000 0%
b0 k&
b0 w&
#11
b110 &
b1100010000000000000000000000000000000000000000000000000000000000000000000000000000000000000000000000000000000000000000000000000 .
1-%
1.%
b1100000000000000000000000000000 0%
b1 k&
b1 w&
#12
b111 &
b1100011000000000000000000000000000000000000000000000000000000000000000000000000000000000000000000000000000000000000000000000000 .
b110001000000000000000000000000 X#
0-%
0.%
b1100001000000000000000000000000 0%
b0 k&
b0 w&
#13
b101 &
b0 .
1-%
1.%
b1100010000000000000000000000000 0%
b1 k&
b1 w&
#14
b110 &
b1000000000000000000000000000000000000000000000000000000000000000000000000000000000000000000000000000000000000000000000000 .
b110010000000000000000000000000 X#
0-%
0.%
b1100011000000000000000000000000 0%
b0 k&
b0 w&
#15
b111 &
b10000000000000000000000000000000000000000000000000000000000000000000000000000000000000000000000000000000000000000000000000 .
1-%
1.%
b0 0%
b1 k&
b1 w&
#16
b101 &
b11000000000000000000000000000000000000000000000000000000000000000000000000000000000000000000000000000000000000000000000000 .
b110011000000000000000000000000 X#
0-%
0.%
b1000000000000000000000000 0%
b0 k&
b0 w&
#17
b110 &
b100000000000000000000000000000000000000000000000000000000000000000000000000000000000000000000000000000000000000000000000000 .
1-%
1.%
b10000000000000000000000000 0%
b1 k&
b1 w&
#18
b111 &
b101000000000000000000000000000000000000000000000000000000000000000000000000000000000000000000000000000000000000000000000000 .
b110100000000000000000000000000 X#
0-%
0.%
b11000000000000000000000000 0%
b0 k&
b0 w&
#19
b1000 &
b11000100001000100000000010010 .
1-%
1.%
b100000000000000000000000000 0%
b1 k&
b1 w&
#20
b101 &
b110000000000000000000000000000000000000000000000000000000000000000000000000000000000000000000000000000000000000000000000000 .
b110101000000000000000000000000 X#
0-%
0.%
b1100010000100010000000001001000000101000000000000000000000000 0%
b0 k&
b0 w&
#21
b110 &
b111000000000000000000000000000000000000000000000000000000000000000000000000000000000000000000000000000000000000000000000000 .
1-%
1.%
b0 0%
b1 k&
b1 w&
#22
b111 &
b1000000000000000000000000000000000000000000000000000000000000000000000000000000000000000000000000000000000000000000000000000 .
b110110000000000000000000000000 X#
0-%
0.%
b110000000000000000000000000 0%
b0 k&
b0 w&
#23
b101 &
b1001000000000000000000000000000000000000000000000000000000000000000000000000000000000000000000000000000000000000000000000000 .
1-%
1.%
b111000000000000000000000000 0%
b1 k&
b1 w&
#24
b110 &
b1010000000000000000000000000000000000000000000000000000000000000000000000000000000000000000000000000000000000000000000000000 .
b110111000000000000000000000000 X#
0-%
0.%
b1000000000000000000000000000 0%
b0 k&
b0 w&
#25
b111 &
b1011000000000000000000000000000000000000000000000000000000000000000000000000000000000000000000000000000000000000000000000000 .
1-%
1.%
b1001000000000000000000000000 0%
b1 k&
b1 w&
#26
b101 &
b1100000000000000000000000000000000000000000000000000000000000000000000000000000000000000000000000000000000000000000000000000 .
b111000000000000000000000000000 X#
0-%
0.%
b1010000000000000000000000000 0%
b0 k&
b0 w&
#27
b110 &
b1101000000000000000000000000000000000000000000000000000000000000000000000000000000000000000000000000000000000000000000000000 .
1-%
1.%
b1011000000000000000000000000 0%
b1 k&
b1 w&
#28
b111 &
b1110000000000000000000000000000000000000000000000000000000000000000000000000000000000000000000000000000000000000000000000000 .
b111001000000000000000000000000 X#
0-%
0.%
b1100000000000000000000000000 0%
b0 k&
b0 w&
#29
b101 &
b1111000000000000000000000000000000000000000000000000000000000000000000000000000000000000000000000000000000000000000000000000 .
1-%
1.%
b1101000000000000000000000000 0%
b1 k&
b1 w&
#30
b110 &
b10000000000000000000000000000000000000000000000000000000000000000000000000000000000000000000000000000000000000000000000000000 .
b111010000000000000000000000000 X#
0-%
0.%
b1110000000000000000000000000 0%
b0 k&
b0 w&
#31
b111 &
b10001000000000000000000000000000000000000000000000000000000000000000000000000000000000000000000000000000000000000000000000000 .
1-%
1.%
b1111000000000000000000000000 0%
b1 k&
b1 w&
#32
b101 &
b10010000000000000000000000000000000000000000000000000000000000000000000000000000000000000000000000000000000000000000000000000 .
b111011000000000000000000000000 X#
0-%
0.%
b10000000000000000000000000000 0%
b0 k&
b0 w&
#33
b110 &
b10011000000000000000000000000000000000000000000000000000000000000000000000000000000000000000000000000000000000000000000000000 .
1-%
1.%
b10001000000000000000000000000 0%
b1 k&
b1 w&
#34
b111 &
b10100000000000000000000000000000000000000000000000000000000000000000000000000000000000000000000000000000000000000000000000000 .
b111100000000000000000000000000 X#
0-%
0.%
b10010000000000000000000000000 0%
b0 k&
b0 w&
#35
b101 &
b10101000000000000000000000000000000000000000000000000000000000000000000000000000000000000000000000000000000000000000000000000 .
1-%
1.%
b10011000000000000000000000000 0%
b1 k&
b1 w&
#36
b110 &
b10110000000000000000000000000000000000000000000000000000000000000000000000000000000000000000000000000000000000000000000000000 .
b111101000000000000000000000000 X#
0-%
0.%
b10100000000000000000000000000 0%
b0 k&
b0 w&
#37
b111 &
b10111000000000000000000000000000000000000000000000000000000000000000000000000000000000000000000000000000000000000000000000000 .
1-%
1.%
b10101000000000000000000000000 0%
b1 k&
b1 w&
#38
b101 &
b11000000000000000000000000000000000000000000000000000000000000000000000000000000000000000000000000000000000000000000000000000 .
b111110000000000000000000000000 X#
0-%
0.%
b10110000000000000000000000000 0%
b0 k&
b0 w&
#39
b110 &
b11001000000000000000000000000000000000000000000000000000000000000000000000000000000000000000000000000000000000000000000000000 .
1-%
1.%
b10111000000000000000000000000 0%
b1 k&
b1 w&
#40
b111 &
b11010000000000000000000000000000000000000000000000000000000000000000000000000000000000000000000000000000000000000000000000000 .
b111111000000000000000000000000 X#
0-%
0.%
b11000000000000000000000000000 0%
b0 k&
b0 w&
#41
b101 &
b11011000000000000000000000000000000000000000000000000000000000000000000000000000000000000000000000000000000000000000000000000 .
1-%
1.%
b11001000000000000000000000000 0%
b1 k&
b1 w&
#42
b110 &
b11100000000000000000000000000000000000000000000000000000000000000000000000000000000000000000000000000000000000000000000000000 .
b1000000000000000000000000000000 X#
0-%
0.%
b11010000000000000000000000000 0%
b0 k&
b0 w&
#43
b111 &
b11101000000000000000000000000000000000000000000000000000000000000000000000000000000000000000000000000000000000000000000000000 .
1-%
1.%
b11011000000000000000000000000 0%
b1 k&
b1 w&
#44
b101 &
b11110000000000000000000000000000000000000000000000000000000000000000000000000000000000000000000000000000000000000000000000000 .
b1000001000000000000000000000000 X#
0-%
0.%
b11100000000000000000000000000 0%
b0 k&
b0 w&
#45
b110 &
b11111000000000000000000000000000000000000000000000000000000000000000000000000000000000000000000000000000000000000000000000000 .
1-%
1.%
b11101000000000000000000000000 0%
b1 k&
b1 w&
#46
b111 &
b100000000000000000000000000000000000000000000000000000000000000000000000000000000000000000000000000000000000000000000000000000 .
b1000010000000000000000000000000 X#
0-%
0.%
b11110000000000000000000000000 0%
b0 k&
b0 w&
#47
b101 &
b100001000000000000000000000000000000000000000000000000000000000000000000000000000000000000000000000000000000000000000000000000 .
1-%
1.%
b11111000000000000000000000000 0%
b1 k&
b1 w&
#48
b110 &
b100010000000000000000000000000000000000000000000000000000000000000000000000000000000000000000000000000000000000000000000000000 .
b1000011000000000000000000000000 X#
0-%
0.%
b100000000000000000000000000000 0%
b0 k&
b0 w&
#49
b111 &
b100011000000000000000000000000000000000000000000000000000000000000000000000000000000000000000000000000000000000000000000000000 .
1-%
1.%
b100001000000000000000000000000 0%
b1 k&
b1 w&
#50
b101 &
b100100000000000000000000000000000000000000000000000000000000000000000000000000000000000000000000000000000000000000000000000000 .
b1000100000000000000000000000000 X#
0-%
0.%
b100010000000000000000000000000 0%
b0 k&
b0 w&
#51
b110 &
b100101000000000000000000000000000000000000000000000000000000000000000000000000000000000000000000000000000000000000000000000000 .
1-%
1.%
b100011000000000000000000000000 0%
b1 k&
b1 w&
#52
b111 &
b100110000000000000000000000000000000000000000000000000000000000000000000000000000000000000000000000000000000000000000000000000 .
b1000101000000000000000000000000 X#
0-%
0.%
b100100000000000000000000000000 0%
b0 k&
b0 w&
#53
b101 &
b100111000000000000000000000000000000000000000000000000000000000000000000000000000000000000000000000000000000000000000000000000 .
1-%
1.%
b100101000000000000000000000000 0%
b1 k&
b1 w&
#54
b110 &
b101000000000000000000000000000000000000000000000000000000000000000000000000000000000000000000000000000000000000000000000000000 .
b1000110000000000000000000000000 X#
0-%
0.%
b100110000000000000000000000000 0%
b0 k&
b0 w&
#55
b111 &
b101001000000000000000000000000000000000000000000000000000000000000000000000000000000000000000000000000000000000000000000000000 .
1-%
1.%
b100111000000000000000000000000 0%
b1 k&
b1 w&
#56
b101 &
b101010000000000000000000000000000000000000000000000000000000000000000000000000000000000000000000000000000000000000000000000000 .
b1000111000000000000000000000000 X#
0-%
0.%
b101000000000000000000000000000 0%
b0 k&
b0 w&
#57
b110 &
b101011000000000000000000000000000000000000000000000000000000000000000000000000000000000000000000000000000000000000000000000000 .
1-%
1.%
b101001000000000000000000000000 0%
b1 k&
b1 w&
#58
b111 &
b101100000000000000000000000000000000000000000000000000000000000000000000000000000000000000000000000000000000000000000000000000 .
b1001000000000000000000000000000 X#
0-%
0.%
b101010000000000000000000000000 0%
b0 k&
b0 w&
#59
b101 &
b101101000000000000000000000000000000000000000000000000000000000000000000000000000000000000000000000000000000000000000000000000 .
1-%
1.%
b101011000000000000000000000000 0%
b1 k&
b1 w&
#60
b110 &
b101110000000000000000000000000000000000000000000000000000000000000000000000000000000000000000000000000000000000000000000000000 .
b1001001000000000000000000000000 X#
0-%
0.%
b101100000000000000000000000000 0%
b0 k&
b0 w&
#61
b111 &
b101111000000000000000000000000000000000000000000000000000000000000000000000000000000000000000000000000000000000000000000000000 .
1-%
1.%
b101101000000000000000000000000 0%
b1 k&
b1 w&
#62
b101 &
b110000000000000000000000000000000000000000000000000000000000000000000000000000000000000000000000000000000000000000000000000000 .
b1001010000000000000000000000000 X#
0-%
0.%
b101110000000000000000000000000 0%
b0 k&
b0 w&
#63
b110 &
b110001000000000000000000000000000000000000000000000000000000000000000000000000000000000000000000000000000000000000000000000000 .
1-%
1.%
b101111000000000000000000000000 0%
b1 k&
b1 w&
#64
b111 &
b110010000000000000000000000000000000000000000000000000000000000000000000000000000000000000000000000000000000000000000000000000 .
b1001011000000000000000000000000 X#
0-%
0.%
b110000000000000000000000000000 0%
b0 k&
b0 w&
#65
b101 &
b110011000000000000000000000000000000000000000000000000000000000000000000000000000000000000000000000000000000000000000000000000 .
1-%
1.%
b110001000000000000000000000000 0%
b1 k&
b1 w&
#66
b110 &
b110100000000000000000000000000000000000000000000000000000000000000000000000000000000000000000000000000000000000000000000000000 .
b1001100000000000000000000000000 X#
0-%
0.%
b110010000000000000000000000000 0%
b0 k&
b0 w&
#67
b111 &
b110101000000000000000000000000000000000000000000000000000000000000000000000000000000000000000000000000000000000000000000000000 .
1-%
1.%
b110011000000000000000000000000 0%
b1 k&
b1 w&
#68
b101 &
b110110000000000000000000000000000000000000000000000000000000000000000000000000000000000000000000000000000000000000000000000000 .
b1001101000000000000000000000000 X#
0-%
0.%
b110100000000000000000000000000 0%
b0 k&
b0 w&
#69
b110 &
b110111000000000000000000000000000000000000000000000000000000000000000000000000000000000000000000000000000000000000000000000000 .
1-%
1.%
b110101000000000000000000000000 0%
b1 k&
b1 w&
#70
b111 &
b111000000000000000000000000000000000000000000000000000000000000000000000000000000000000000000000000000000000000000000000000000 .
b1001110000000000000000000000000 X#
0-%
0.%
b110110000000000000000000000000 0%
b0 k&
b0 w&
#71
b101 &
b111001000000000000000000000000000000000000000000000000000000000000000000000000000000000000000000000000000000000000000000000000 .
1-%
1.%
b110111000000000000000000000000 0%
b1 k&
b1 w&
#72
b110 &
b111010000000000000000000000000000000000000000000000000000000000000000000000000000000000000000000000000000000000000000000000000 .
b1001111000000000000000000000000 X#
0-%
0.%
b111000000000000000000000000000 0%
b0 k&
b0 w&
#73
b111 &
b111011000000000000000000000000000000000000000000000000000000000000000000000000000000000000000000000000000000000000000000000000 .
1-%
1.%
b111001000000000000000000000000 0%
b1 k&
b1 w&
#74
b101 &
b111100000000000000000000000000000000000000000000000000000000000000000000000000000000000000000000000000000000000000000000000000 .
b1010000000000000000000000000000 X#
0-%
0.%
b111010000000000000000000000000 0%
b0 k&
b0 w&
#75
b110 &
b111101000000000000000000000000000000000000000000000000000000000000000000000000000000000000000000000000000000000000000000000000 .
1-%
1.%
b111011000000000000000000000000 0%
b1 k&
b1 w&
#76
b111 &
b111110000000000000000000000000000000000000000000000000000000000000000000000000000000000000000000000000000000000000000000000000 .
b1010001000000000000000000000000 X#
0-%
0.%
b111100000000000000000000000000 0%
b0 k&
b0 w&
#77
b101 &
b111111000000000000000000000000000000000000000000000000000000000000000000000000000000000000000000000000000000000000000000000000 .
1-%
1.%
b111101000000000000000000000000 0%
b1 k&
b1 w&
#78
b110 &
b1000000000000000000000000000000000000000000000000000000000000000000000000000000000000000000000000000000000000000000000000000000 .
b1010010000000000000000000000000 X#
0-%
0.%
b111110000000000000000000000000 0%
b0 k&
b0 w&
#79
b111 &
b1000001000000000000000000000000000000000000000000000000000000000000000000000000000000000000000000000000000000000000000000000000 .
1-%
1.%
b111111000000000000000000000000 0%
b1 k&
b1 w&
#80
b101 &
b1000010000000000000000000000000000000000000000000000000000000000000000000000000000000000000000000000000000000000000000000000000 .
b1010011000000000000000000000000 X#
0-%
0.%
b1000000000000000000000000000000 0%
b0 k&
b0 w&
#81
b110 &
b1000011000000000000000000000000000000000000000000000000000000000000000000000000000000000000000000000000000000000000000000000000 .
1-%
1.%
b1000001000000000000000000000000 0%
b1 k&
b1 w&
#82
b111 &
b1000100000000000000000000000000000000000000000000000000000000000000000000000000000000000000000000000000000000000000000000000000 .
b1010100000000000000000000000000 X#
0-%
0.%
b1000010000000000000000000000000 0%
b0 k&
b0 w&
#83
b101 &
b1000101000000000000000000000000000000000000000000000000000000000000000000000000000000000000000000000000000000000000000000000000 .
1-%
1.%
b1000011000000000000000000000000 0%
b1 k&
b1 w&
#84
b110 &
b1000110000000000000000000000000000000000000000000000000000000000000000000000000000000000000000000000000000000000000000000000000 .
b1010101000000000000000000000000 X#
0-%
0.%
b1000100000000000000000000000000 0%
b0 k&
b0 w&
#85
b111 &
b1000111000000000000000000000000000000000000000000000000000000000000000000000000000000000000000000000000000000000000000000000000 .
1-%
1.%
b1000101000000000000000000000000 0%
b1 k&
b1 w&
#86
b101 &
b1001000000000000000000000000000000000000000000000000000000000000000000000000000000000000000000000000000000000000000000000000000 .
b1010110000000000000000000000000 X#
0-%
0.%
b1000110000000000000000000000000 0%
b0 k&
b0 w&
#87
b110 &
b1001001000000000000000000000000000000000000000000000000000000000000000000000000000000000000000000000000000000000000000000000000 .
1-%
1.%
b1000111000000000000000000000000 0%
b1 k&
b1 w&
#88
b111 &
b1001010000000000000000000000000000000000000000000000000000000000000000000000000000000000000000000000000000000000000000000000000 .
b1010111000000000000000000000000 X#
0-%
0.%
b1001000000000000000000000000000 0%
b0 k&
b0 w&
#89
b101 &
b1001011000000000000000000000000000000000000000000000000000000000000000000000000000000000000000000000000000000000000000000000000 .
1-%
1.%
b1001001000000000000000000000000 0%
b1 k&
b1 w&
#90
b110 &
b1001100000000000000000000000000000000000000000000000000000000000000000000000000000000000000000000000000000000000000000000000000 .
b1011000000000000000000000000000 X#
0-%
0.%
b1001010000000000000000000000000 0%
b0 k&
b0 w&
#91
b111 &
b1001101000000000000000000000000000000000000000000000000000000000000000000000000000000000000000000000000000000000000000000000000 .
1-%
1.%
b1001011000000000000000000000000 0%
b1 k&
b1 w&
#92
b1000 &
b11010110111001000101000000010010 .
b1011001000000000000000000000000 X#
0-%
0.%
b1001100000000000000000000000000 0%
b0 k&
b0 w&
#93
b101 &
b1001110000000000000000000000000000000000000000000000000000000000000000000000000000000000000000000000000000000000000000000000000 .
1-%
1.%
b1101011011100100010100000001001001001101000000000000000000000000 0%
b1 k&
b1 w&
#94
b110 &
b1001111000000000000000000000000000000000000000000000000000000000000000000000000000000000000000000000000000000000000000000000000 .
b1011010000000000000000000000000 X#
0-%
0.%
1/%
b0 0%
b0 k&
b0 w&
#95
b111 &
b1010000000000000000000000000000000000000000000000000000000000000000000000000000000000000000000000000000000000000000000000000000 .
1b"
1-%
1.%
b1001110000000000000000000000000 0%
b1 k&
b10 q&
b10 w&
#96
b1 &
b1000000000000000010000001010101010100010000110011001000100001000100000000111111111111111111111111111111111111111111111111 .
0`"
0a"
0b"
b1000000000000000010000001010101010100010000110011001000100001000100000000111111111111111111111111111111111111111111111111 X#
0-%
0.%
0/%
b1001111000000000000000000000000 0%
b0 e&
b0 k&
b0 q&
b0 w&
#97
1-%
1.%
b1010000000000000000000000000000 0%
b1111 R&
1d&
b1 k&
b1 w&
b10 z&
#98
1`"
1a"
b10000000000010000101000000000010100000000000000011111111010101110 X#
0-%
0.%
0b&
0d&
b1 e&
b0 k&
b0 n&
b1 q&
b0 w&
b0 z&
#99
b10 &
b11111111010101110 .
b1111 P"
1-%
1.%
b1000000000000000010000001010101010100010000110011001000100001000100000000111111111111111111111111111111111111111111111111 0%
b1111111111111111 R&
1b&
b1 k&
b1 n&
b1 w&
b1 z&
#100
b11 &
b100000000000100001010000000000101 .
b1111111111111111 P"
1U#
b0 X#
0-%
0.%
b11111111010101110 0%
b1111 R&
0b&
b1 h&
b0 k&
b0 n&
b1 t&
b0 w&
b0 z&
1}&
#101
b101 &
b1010001000000000000000000000000000000000000000000000000000000000000000000000000000000000000000000000000000000000000000000000000 .
b100000000000000001000000101010101010001000011001100100010 c"
1-%
1.%
b10000000000010000101000000000010100000000000000011111111010101110 0%
b1111111111111111 R&
1b&
b1 k&
b1 n&
b1 w&
b1 z&
#102
b110 &
b1010010000000000000000000000000000000000000000000000000000000000000000000000000000000000000000000000000000000000000000000000000 .
b10000101000000000010100000000000000011111111010101110 c"
b1011011000000000000000000000000 X#
0-%
0.%
b0 0%
b0 k&
b0 w&
#103
b111 &
b1010011000000000000000000000000000000000000000000000000000000000000000000000000000000000000000000000000000000000000000000000000 .
b11000000010010010011000111000000000101100100000000000000000001 c"
1-%
1.%
b1010001000000000000000000000000 0%
b1 k&
b1 w&
#104
b101 &
b1010100000000000000000000000000000000000000000000000000000000000000000000000000000000000000000000000000000000000000000000000000 .
b10001100000000 c"
b1011100000000000000000000000000 X#
0-%
0.%
b1010010000000000000000000000000 0%
b0 k&
b0 w&
#105
b110 &
b1010101000000000000000000000000000000000000000000000000000000000000000000000000000000000000000000000000000000000000000000000000 .
b0 c"
1-%
1.%
b1010011000000000000000000000000 0%
b1 k&
b1 w&
#106
b111 &
b1010110000000000000000000000000000000000000000000000000000000000000000000000000000000000000000000000000000000000000000000000000 .
b1000000000000000000000000 c"
0V#
b1011101000000000000000000000000 X#
0-%
0.%
b1010100000000000000000000000000 0%
b0 h&
b0 k&
b0 t&
b0 w&
#107
b101 &
b1010111000000000000000000000000000000000000000000000000000000000000000000000000000000000000000000000000000000000000000000000000 .
1V#
1-%
1.%
b1010101000000000000000000000000 0%
b1 h&
b1 k&
b1 t&
b1 w&
#108
b110 &
b1011000000000000000000000000000000000000000000000000000000000000000000000000000000000000000000000000000000000000000000000000000 .
b0 c"
b1011110000000000000000000000000 X#
0-%
0.%
b1010110000000000000000000000000 0%
b0 k&
b0 w&
#109
b111 &
b1011001000000000000000000000000000000000000000000000000000000000000000000000000000000000000000000000000000000000000000000000000 .
b10000000000000000000000000 c"
1-%
1.%
b1010111000000000000000000000000 0%
b1 k&
b1 w&
#110
b101 &
b1011010000000000000000000000000000000000000000000000000000000000000000000000000000000000000000000000000000000000000000000000000 .
b0 c"
b1011111000000000000000000000000 X#
0-%
0.%
b1011000000000000000000000000000 0%
b0 k&
b0 w&
#111
b110 &
b1011011000000000000000000000000000000000000000000000000000000000000000000000000000000000000000000000000000000000000000000000000 .
b11000000000000000000000000 c"
1-%
1.%
b1011001000000000000000000000000 0%
b1 k&
b1 w&
#112
b111 &
b1011100000000000000000000000000000000000000000000000000000000000000000000000000000000000000000000000000000000000000000000000000 .
b0 c"
b1100000000000000000000000000000 X#
0-%
0.%
b1011010000000000000000000000000 0%
b0 k&
b0 w&
#113
b101 &
b1011101000000000000000000000000000000000000000000000000000000000000000000000000000000000000000000000000000000000000000000000000 .
b100000000000000000000000000 c"
1-%
1.%
b1011011000000000000000000000000 0%
b1 k&
b1 w&
#114
b110 &
b1011110000000000000000000000000000000000000000000000000000000000000000000000000000000000000000000000000000000000000000000000000 .
b0 c"
b1100001000000000000000000000000 X#
0-%
0.%
b1011100000000000000000000000000 0%
b0 k&
b0 w&
#115
b111 &
b1011111000000000000000000000000000000000000000000000000000000000000000000000000000000000000000000000000000000000000000000000000 .
b101000000000000000000000000 c"
1-%
1.%
b1011101000000000000000000000000 0%
b1 k&
b1 w&
#116
b101 &
b1100000000000000000000000000000000000000000000000000000000000000000000000000000000000000000000000000000000000000000000000000000 .
b0 c"
b1100010000000000000000000000000 X#
0-%
0.%
b1011110000000000000000000000000 0%
b0 k&
b0 w&
#117
b110 &
b1100001000000000000000000000000000000000000000000000000000000000000000000000000000000000000000000000000000000000000000000000000 .
b110000000000000000000000000 c"
1-%
1.%
b1011111000000000000000000000000 0%
b1 k&
b1 w&
#118
b111 &
b1100010000000000000000000000000000000000000000000000000000000000000000000000000000000000000000000000000000000000000000000000000 .
b0 c"
b1100011000000000000000000000000 X#
0-%
0.%
b1100000000000000000000000000000 0%
b0 k&
b0 w&
#119
b101 &
b1100011000000000000000000000000000000000000000000000000000000000000000000000000000000000000000000000000000000000000000000000000 .
b111000000000000000000000000 c"
1-%
1.%
b1100001000000000000000000000000 0%
b1 k&
b1 w&
#120
b110 &
b0 .
b0 c"
b0 X#
0-%
0.%
b1100010000000000000000000000000 0%
b0 k&
b0 w&
#121
b111 &
b1000000000000000000000000000000000000000000000000000000000000000000000000000000000000000000000000000000000000000000000000 .
b1000000000000000000000000000 c"
1-%
1.%
b1100011000000000000000000000000 0%
b1 k&
b1 w&
#122
b101 &
b10000000000000000000000000000000000000000000000000000000000000000000000000000000000000000000000000000000000000000000000000 .
b0 c"
b1000000000000000000000000 X#
0-%
0.%
b0 0%
b0 k&
b0 w&
#123
b110 &
b11000000000000000000000000000000000000000000000000000000000000000000000000000000000000000000000000000000000000000000000000 .
b1001000000000000000000000000 c"
1-%
1.%
b1000000000000000000000000 0%
b1 k&
b1 w&
#124
b111 &
b100000000000000000000000000000000000000000000000000000000000000000000000000000000000000000000000000000000000000000000000000 .
b0 c"
b10000000000000000000000000 X#
0-%
0.%
b10000000000000000000000000 0%
b0 k&
b0 w&
#125
b101 &
b101000000000000000000000000000000000000000000000000000000000000000000000000000000000000000000000000000000000000000000000000 .
b1010000000000000000000000000 c"
1-%
1.%
b11000000000000000000000000 0%
b1 k&
b1 w&
#126
b110 &
b110000000000000000000000000000000000000000000000000000000000000000000000000000000000000000000000000000000000000000000000000 .
b0 c"
b11000000000000000000000000 X#
0-%
0.%
b100000000000000000000000000 0%
b0 k&
b0 w&
#127
b111 &
b111000000000000000000000000000000000000000000000000000000000000000000000000000000000000000000000000000000000000000000000000 .
b1011000000000000000000000000 c"
1-%
1.%
b101000000000000000000000000 0%
b1 k&
b1 w&
#128
b101 &
b1000000000000000000000000000000000000000000000000000000000000000000000000000000000000000000000000000000000000000000000000000 .
b0 c"
b100000000000000000000000000 X#
0-%
0.%
b110000000000000000000000000 0%
b0 k&
b0 w&
#129
b110 &
b1001000000000000000000000000000000000000000000000000000000000000000000000000000000000000000000000000000000000000000000000000 .
b1100000000000000000000000000 c"
1-%
1.%
b111000000000000000000000000 0%
b1 k&
b1 w&
#130
b111 &
b1010000000000000000000000000000000000000000000000000000000000000000000000000000000000000000000000000000000000000000000000000 .
b0 c"
b1100010000100010000000001001000000101000000000000000000000000 X#
0-%
0.%
b1000000000000000000000000000 0%
b0 k&
b0 w&
