Looping_Hardware-design/project_1/.Xil/Vivado-15732-client70/hw_ila_data_3/zip_work/waveform.vcd
$date
        2021-Mar-10 18:19:37
$end
$version
        Vivado v2019.1 (64-bit)
$end
$timescale
        1ps
$end
$scope module dut $end
$var reg 4 " check_40G_sim_i/system_ila_2/inst/probe0_1 [3:0] $end
$var reg 2 & check_40G_sim_i/system_ila_2/inst/probe1_1 [1:0] $end
$var reg 128 ( check_40G_sim_i/system_ila_2/inst/net_slot_0_axis_tdata [127:0] $end
$var reg 70 J" check_40G_sim_i/system_ila_2/inst/net_slot_0_axis_tuser [69:0] $end
$var reg 1 2# check_40G_sim_i/system_ila_2/inst/net_slot_0_axis_tvalid $end
$var reg 1 3# check_40G_sim_i/system_ila_2/inst/net_slot_0_axis_tready $end
$var reg 1 4# check_40G_sim_i/system_ila_2/inst/net_slot_0_axis_tlast $end
$var reg 128 5# check_40G_sim_i/system_ila_2/inst/net_slot_1_axis_tdata [127:0] $end
$var reg 70 W$ check_40G_sim_i/system_ila_2/inst/net_slot_1_axis_tuser [69:0] $end
$var reg 1 ?% check_40G_sim_i/system_ila_2/inst/net_slot_1_axis_tvalid $end
$var reg 1 @% check_40G_sim_i/system_ila_2/inst/net_slot_1_axis_tready $end
$var reg 1 A% check_40G_sim_i/system_ila_2/inst/net_slot_1_axis_tlast $end
$var reg 128 B% check_40G_sim_i/system_ila_2/inst/net_slot_2_axis_tdata [127:0] $end
$var reg 16 d& check_40G_sim_i/system_ila_2/inst/net_slot_2_axis_tkeep [15:0] $end
$var reg 1 t& check_40G_sim_i/system_ila_2/inst/net_slot_2_axis_tvalid $end
$var reg 1 u& check_40G_sim_i/system_ila_2/inst/net_slot_2_axis_tready $end
$var reg 1 v& check_40G_sim_i/system_ila_2/inst/net_slot_2_axis_tlast $end
$var reg 128 w& check_40G_sim_i/system_ila_2/inst/net_slot_3_axis_tdata [127:0] $end
$var reg 1 ;( check_40G_sim_i/system_ila_2/inst/net_slot_3_axis_tvalid $end
$var reg 1 <( check_40G_sim_i/system_ila_2/inst/net_slot_3_axis_tready $end
$var reg 1 =( check_40G_sim_i/system_ila_2/inst/net_slot_3_axis_tlast $end
$var reg 64 >( check_40G_sim_i/system_ila_2/inst/net_slot_4_axis_tdata [63:0] $end
$var reg 1 ~( check_40G_sim_i/system_ila_2/inst/net_slot_4_axis_tvalid $end
$var reg 1 !) check_40G_sim_i/system_ila_2/inst/net_slot_4_axis_tready $end
$var reg 1 ") check_40G_sim_i/system_ila_2/inst/net_slot_4_axis_tlast $end
$var reg 3 #) Interface__i3_s0___ecpri_demux_0_control_data_out_ [2:0] $end
$var reg 3 &) Interface__i3_s1___ecpri_demux_0_user_data_out_ [2:0] $end
$var reg 3 )) Interface__i3_s2___uplane_depacketiser_0_data_out_ [2:0] $end
$var reg 3 ,) Interface__i3_s3___cplane_depacketizer_0_beam_data_ [2:0] $end
$var reg 3 /) Interface__i3_s4___cplane_depacketizer_0_beam_info_V_ [2:0] $end
$var reg 3 2) T_Channel__i3_s0___ecpri_demux_0_control_data_out_ [2:0] $end
$var reg 3 5) T_Channel__i3_s1___ecpri_demux_0_user_data_out_ [2:0] $end
$var reg 3 8) T_Channel__i3_s2___uplane_depacketiser_0_data_out_ [2:0] $end
$var reg 3 ;) T_Channel__i3_s3___cplane_depacketizer_0_beam_data_ [2:0] $end
$var reg 3 >) T_Channel__i3_s4___cplane_depacketizer_0_beam_info_V_ [2:0] $end
$var reg 1 A) _TRIGGER $end
$var reg 1 B) _WINDOW $end
$var reg 1 C) _GAP $end
$upscope $end
$enddefinitions $end
#0
$dumpvars
b0 "
b10 &
b1110001101110011101111100000111101110111011011001011010001001101010110001100000000101111001101000111011111001000110101110110111 (
b1000000101010101010101010101010101010101010101010101010111010101 J"
12#
13#
04#
b1110001101110011101111100000111101110111011011001011010001001101010110001100000000101111001101000111011111001000110101110110111 5#
b1000000101010101010101010101010101010101010101010101010111010101 W$
0?%
1@%
0A%
b0 B%
b0 d&
0t&
1u&
0v&
b11101000000110000000101011001111100001110001000010100001101101001110010010011111111100100001100010010110000110110000101110000011 w&
1;(
1<(
0=(
b111111111111000000000111001000011000000010000000000011100000 >(
0~(
1!)
0")
b0 #)
b0 &)
b0 ))
b0 ,)
b0 /)
b0 2)
b0 5)
b0 8)
b0 ;)
b0 >)
0A)
1B)
0C)
$end
#1
b1100111110010000000101000001111110111000011100011100010111110101010110101101110111100111100010111001111011001001010000101111101 (
b1100111110010000000101000001111110111000011100011100010111110101010110101101110111100111100010111001111011001001010000101111101 5#
b11000111101101110110101111100100001110111001101000010111011000001010110000100110010110101011011010111011000001111101111110111001 w&
b111111111111000000000101101010110110000010000000000011100000 >(
b1 #)
b1 ,)
b1 2)
b1 ;)
#2
b100001111011101110100011100011001001001010111011011100100000000010110001111100110001011011010011000010100101001000101110111011 (
b100001111011101110100011100011001001001010111011011100100000000010110001111100110001011011010011000010100101001000101110111011 5#
b1110001011111011010000101100100110011111100010111110011011011101010110111111010111000100011100011011100000011110000101011001000 w&
b111111111111000000000110001000111000000010000000000011100000 >(
#3
b1111110100111001100111110000111101011010111001000101010010101101101110010000000111101111011000100110101110010100110011110110000 (
b1111110100111001100111110000111101011010111001000101010010101101101110010000000111101111011000100110101110010100110011110110000 5#
b1100111101110111000101110010100110000101011010011000101011111000010110010000000110111001010111000100100111000111110100011101110 w&
b111111111111000000000101110010101110000010000000000011100000 >(
#4
b11110011000101000011010111011110111010010010001001010101001011110101111100100001111001000110010101101110111000010101111101111 (
b11110011000101000011010111011110111010010010001001010101001011110101111100100001111001000110010101101110111000010101111101111 5#
b100001101100000110011111001010001101011011000111110111100000001101110001010110001010100111001010101101100001111100111110011100 w&
b111111111111000000000010101001110010000010000000000011100000 >(
#5
b11101011010001101010010101010011000100010110011010010110111101001110001010111100001100011111001001110111111001111101111110110001 (
b11101011010001101010010101010011000100010110011010010110111101001110001010111100001100011111001001110111111001111101111110110001 5#
b1111110111011110010101111011100101011011000110000111100111001001110101110100101010010100010010011011101101110111000011001100010 w&
b111111111111000000000100101000100100000010000000000011100000 >(
#6
b1011001001100100101011010111101000001110011100111101000101000010111111001101011011001000100011101001110010001000100111110011010 (
b1011001001100100101011010111101000001110011100111101000101000010111111001101011011001000100011101001110010001000100111110011010 5#
b11110101100011101111111100111011101111111001000110001101111001110001011110100100101100110011000010001010100111010010101000110 w&
b111111111111000000000001011001100110000010000000000011100000 >(
#7
b1011100111000100000011001001101010111011110011001101110010011000100101101110000011100000100110100001001011100110111010110111110 (
b1011100111000100000011001001101010111011110011001101110010011000100101101110000011100000100110100001001011100110111010110111110 5#
b11101011100110100100111101000100010011100100011101100100011010110111111010100001111010000011100100000111101111010101011000110010 w&
b111111111111000000000110100000111001000010000000000011100000 >(
#8
b11010010000101110101111100100010111101101011110110011000100001001101101001000001100001011010010010011001111011010101111010000111 (
b11010010000101110101111100100010111101101011110110011000100001001101101001000001100001011010010010011001111011010101111010000111 5#
b1011001101111100111010101110011000010010100110101110000011100000100101101001100011011101110011001011101010011010000011011100010 w&
b111111111111000000000110111011100110000010000000000011100000 >(
#9
b1110010100010111110001110010000111001100100111000101010110100101100111011001110100000011011011100100000000101110001000101011000 (
b1110010100010111110001110010000111001100100111000101010110100101100111011001110100000011011011100100000000101110001000101011000 5#
b1011100100001110101111011101101100110011010010010000101010000011101101010000100100110001011110111110110001000100101111100010111 w&
b111111111111000000000001100010111101000010000000000011100000 >(
#10
b100101000001000000000111001110101110110111101101001101001110001111100111000110111011010110100001000100101001100111101 (
b100101000001000000000111001110101110110111101101001101001110001111100111000110111011010110100001000100101001100111101 5#
b11010010010110000001000100010111001000001011011110000001110011101100111011010010001010100100111011100110100100001110001110001011 w&
b111111111111000000000010101001001110000010000000000011100000 >(
#11
b0 (
b101000000101010101010101010101010101010101010101010101010111010101 J"
b0 5#
b101000000101010101010101010101010101010101010101010101010111010101 W$
b1110010001111010101001100100010101101000111011011100011011111001001110010100110101111010101110111100111000000001000001000010010 w&
#12
b0 &
b10000000001010111011111110010000010011101110111011000000000000000000000010111111111111111111111111111111111111111111111111 (
b1000001101010101010101010101010101010101010101010101010111010101 J"
02#
03#
b10000000001010111011111110010000010011101110111011000000000000000000000010111111111111111111111111111111111111111111111111 5#
b1000001101010101010101010101010101010101010101010101010111010101 W$
b1110010000000000000000000000000000000000000000000000000001000101011010001110110111000110111110010011100101001101011110101011101 w&
0;(
b111111111111000000000000000000000000000010000000000011100000 >(
1~(
b0 #)
b0 ,)
b1 /)
b0 2)
b0 ;)
b1 >)
#13
b10 &
b1000000000100100000000000000000000000010000101010000000011100100000010100000000000000000000000000000001000000000000000000000000 (
b1000000101010101010101010101010101010101010101010101010111010101 J"
12#
13#
b1000000000100100000000000000000000000010000101010000000011100100000010100000000000000000000000000000001000000000000000000000000 5#
b1000000101010101010101010101010101010101010101010101010111010101 W$
b1000101011010001110110111000110111110010011100101001101011110101011101 w&
b111111111111000000000010101001001110000010000000000011100000 >(
0~(
b1 #)
b0 /)
b1 2)
b0 >)
#14
b10111001000100010000101100000000000000000000010000000000010100000000000010001011111111110000111111111110111111110000100000001000 (
b10111001000100010000101100000000000000000000010000000000010100000000000010001011111111110000111111111110111111110000100000001000 5#
b111111111111000000000000000000000000000010000000000011100000 >(
1~(
b1 /)
b1 >)
#15
b101010111010110010100000010111001100111010101000001100100101000101010010000100010110100111000110111101010100010010110010001001 (
b101010111010110010100000010111001100111010101000001100100101000101010010000100010110100111000110111101010100010010110010001001 5#
b10000000000000000000000000000010101110010100000000000101000000001000000000000000000010010010000000000100000001000 w&
1;(
b111111111111000000000010101001001110000010000000000011100000 >(
0~(
b1 ,)
b0 /)
b1 ;)
b0 >)
#16
b110000001001011100110111011101001001111001100110001001010011111101010001000101000000001111010011101000000001100011001100011001 (
b110000001001011100110111011101001001111001100110001001010011111101010001000101000000001111010011101000000001100011001100011001 5#
b11111111111111100000111111111111100010110000000001010000000000000000010000000000000000000000101100010001101110011000100100101100 w&
#17
b1100101001100011101001111100000100101111001100001000000100111110111001011010111111101101100011011000111101110101101100001000001 (
b1100101001100011101001111100000100101111001100001000000100111110111001011010111111101101100011011000111101110101101100001000001 5#
b1010001101111010111000101011010100001000101010010010100000011001010101000110011000101110010100011101011001010100001100100110011 w&
#18
b10011100100010010110110100101100010001101010110101010001101100110010110100100001111001001010101111111101011000000010010001001000 (
b10011100100010010110110100101100010001101010110101010001101100110010110100100001111001001010101111111101011000000010010001001000 5#
b110111010001111010000000000010001011101010001001111100010011001100100100111110111011100110100100101001100000100000111011000 w&
#19
b10001000000110110110100100101111110000111101100011100111010010101110100010001010000001110010011011101010100111101011111111010010 (
b10001000000110110110100100101111110000111101100011100111010010101110100010001010000001110010011011101010100111101011111111010010 5#
b10111010110001111100011011110110110101110111001010011111010000001001100010010111111000001101001100110001011001010100100000100100 w&
#20
b1110000011100001010001100101111101000000000000101001001001000011011100000110101101101011010010111000000001100101010100001000100 (
b1110000011100001010001100101111101000000000000101001001001000011011100000110101101101011010010111000000001100101010100001000100 5#
b1100000111111011010101111100100001000010010110110110011010100011010110101000110001011000110110110001001100111001101001010111111 w&
#21
b11000010110101101011101010101000101110000001101011000110000001000101001001001101010000100101010110101000111011010110010101001111 (
b11000010110101101011101010101000101110000001101011000110000001000101001001001101010000100101010110101000111011010110010101001111 5#
b10011110111010100010011000000111100010101110100001001010111001111101100011000011001011110110100100011011100010000100010010101000 w&
#22
b10000011110001001010100010010100000000011111000000010100110000111001010101101100011100110000000111111001001001101111000100001110 (
b10000011110001001010100010010100000000011111000000010100110000111001010101101100011100110000000111111001001001101111000100001110 5#
b110010110000001010010110110101001101011011100000100001010010010000000110100000001011111010001101110000011100000100111101100101 w&
#23
b1010100000001111010000011111010011011011101011001111111111011100110111110010101110110100000000101110010110011001000100111000 (
b1010100000001111010000011111010011011011101011001111111111011100110111110010101110110100000000101110010110011001000100111000 5#
b11101101101010000101010101000010010011010101001000000100110001100001101010111000101010001011101011010110110000100000111011110001 w&
#24
b1011010111000110101001001001100101011101111101010001110111010001101111111110001001110000001011111111001101100010001011111100 (
b1011010111000110101001001001100101011101111101010001110111010001101111111110001001110000001011111111001101100010001011111100 5#
b100110111110010000000101110011011011001001010111000011000101001111000000000001100101001010100011000100100000110011100010010001 w&
#25
b10110100000100000101111011010101101110000011111011111001101000101111111000000101111011111010001010001001010010000100110101100011 (
b10110100000100000101111011010101101110000011111011111001101000101111111000000101111011111010001010001001010010000100110101100011 5#
b1011001001011100100000010111011111100101100110111111101110011111011101001001101000111111111010010000000000010101111110000100010 w&
#26
b10010011001111101101110101001000100101001101101011011101000010000101101100001010101101001001010100000101000110101111111000010111 (
b10010011001111101101110101001000100101001101101011011101000010000101101100001010101101001001010100000101000110101111111000010111 5#
b110110111111110000001000100111111111100001101111011101010100011101111110010101010010010110101001011100000010110110001101001101 w&
#27
b1011100110000111110010111000011001011001111111111111101100110101101101110001101111000100000001001100010000010000110000011001110 (
b1011100110000111110010111000011001011001111111111111101100110101101101110001101111000100000001001100010000010000110000011001110 5#
b1001000100010011010001011101111000001011111111010100010111110010011111010111000110101010101111000010000101101000001011111111110 w&
#28
b10111111110110001001100001100100010010000000111100001100110010110100011010001011100010011011011101000000101110000100100100001 (
b10111111110110001001100001100100010010000000111100001100110010110100011010001011100010011011011101000000101110000100100100001 5#
b11010000001011001010110110100000010100101101100001000110111011101101010010100010010001101110100111110100100111100111001100000 w&
#29
b11110101101001010100110010110111101100000110101111011001011110011010110001101001011101010111100100111000110110100010100000111110 (
b11110101101001010100110010110111101100000110101111011001011110011010110001101001011101010111100100111000110110100010100000111110 5#
b1000011000100000001011100010100011011101101110011010111111011111111100101100110000111110010111000011010111000010000100001001 w&
b111111111111000000000110100000110110000010000000000011100000 >(
1~(
b1 /)
b1 >)
#30
b10011011111011110111100001111111111010100001110110010101010001001011001101001001111110101011111101011010011100110001100 (
b10011011111011110111100001111111111010100001110110010101010001001011001101001001111110101011111101011010011100110001100 5#
b1110001110100010110100010011001111000010000000110001001000011000001001111111011000101110011111000101000110110100011100001111001 w&
b111111111111000000000010101001001110000010000000000011100000 >(
0~(
b0 /)
b0 >)
#31
b11010000010000100101101000010101000010111001111001110110111001000010001100100011001011101011001010100101000000010001001000001011 (
b11010000010000100101101000010101000010111001111001110110111001000010001100100011001011101011001010100101000000010001001000001011 5#
b1110101011010011010110001111001110110010110101110110000101101110100110010100101111101011000110000111001101011010101111111111101 w&
#32
b10010011011010100111101100111101011100111100110000101100100010110110101111010111001101110000100010000110000011101100110111010100 (
b10010011011010100111101100111101011100111100110000101100100010110110101111010111001101110000100010000110000011101100110111010100 5#
b10100100010110011010001011001010000011101111010100111111101111001111011101001101000000000000101100010010000000011010010110110010 w&
#33
b1101110010000100100001000010111111110010011010101001110001110011011100100111000100001000110011101000011101101001011100100111110 (
b1101110010000100100001000010111111110010011010101001110001110011011100100111000100001000110011101000011101101001011100100111110 5#
b101110001000110010001111100100011101101001111000001011000101010101101001000010110100001101010011001101000011101000011000001000 w&
#34
b1110001010100000010101001010000000011000110011011000111010000011011101110110100100110111100100111011001100110000011011000000010 (
b1110001010100000010101001010000000011000110011011000111010000011011101110110100100110111100100111011001100110000011011000000010 5#
b110111110101110110101110001011001011001100110001110011001111010111101101101010100100110011111010111001101101000100001101100111 w&
#35
b11010110101011111110100001001000010110101000001000111000111011010010011000000111110111111010111100011001110101000010101111010101 (
b11010110101011111110100001001000010110101000001000111000111011010010011000000111110111111010111100011001110101000010101111010101 5#
b10000100001110001011100100111001010011100011010111111001000101110100001001000010011011100000001000110110100110001101100111001001 w&
#36
b1001100100001001010000000010010110011100110010000011100000110010110000100100000110011000000110000100110001110000111100010000010 (
b1001100100001001010000000010010110011100110010000011100000110010110000100100000110011000000110000100110001110000111100010000010 5#
b10011011101101001011101101000001110001110110011000001100010100000010101001010000011100011101010100101011110101000001100110101111 w&
#37
b1011101101000110011101011011000011100111001100000100110010010011001000100100001000010001011001011010011100111001010000001100010 (
b1011101101000110011101011011000011100111001100000100110010010011001000100100001000010001011001011010011100111001010000001100010 5#
b11011111000001110010011011101101001110001000001001011010010010001110100010101111110101101000001001111000001110000010011000001100 w&
#38
b10111000011110000001000100101000100111110001010011100010010111001001101100000101001101010101000101110101101000001111011011100011 (
b10111000011110000001000100101000100111110001010011100010010111001001101100000101001101010101000101110101101000001111011011100011 5#
b11001100001000000110000100011001000111000110010011001110000100101010000010000100010011000110001010100000100111001101001110110010 w&
#39
b100011011011011100110010100011001101001100110010001011000010000000110100111000100010101110010010111111111111000101001011110011 (
b100011011011011100110010100011001101001100110010001011000010000000110100111000100010101110010010111111111111000101001011110011 5#
b1000001000011001000101001001001001101001100001110011110110000011101010100011010111011110001111110110101000000111010101010001 w&
#40
b1101110101100011100111100001010001111011001110001110010010110100101110101110010000001001110110010110001010100110010000011101110 (
b1101110101100011100111100001010001111011001110001110010010110100101110101110010000001001110110010110001010100110010000011101110 5#
b110101000001011001101101011100111000100001010010011111001010000001000101111000101110001111001101010010111111001011111111100100 w&
#41
b111100110000110110010111000000000011101011101111101101110101010100111110001000000001001011101101100011100100000111100100110010 (
b111100110000110110010111000000000011101011101111101101110101010100111110001000000001001011101101100011100100000111100100110010 5#
b10001010001110000000110100001000100010111100110000110100101000111100110001101101001000111110111000100000010100111011000111101100 w&
#42
b11010111001111000001101100001101111101011101011000100000001111010110101100110010001000100101111010000100110000001001011010001001 (
b11010111001111000001101100001101111101011101011000100000001111010110101100110010001000100101111010000100110000001001011010001001 5#
b100011100100101110101011010011100101001110000111101000010101100111110110001011011100011001001111001100100000110001110111011 w&
#43
b10011110110010110111010001110000111100110010110001110011001011001011010000000011100111011101110010101000100001000000001100 (
b10011110110010110111010001110000111100110010110001110011001011001011010000000011100111011101110010101000100001000000001100 5#
b100100010000100111111010101111011011011101100001110110000000110010111000011001111001000100110010110110000001000010001011110 w&
#44
b100100000111111111000100111010101101101010110000011001110011000001110101110101010100010111011111100000110001011001110 (
b100100000111111111000100111010101101101010110000011001110011000001110101110101010100010111011111100000110001011001110 5#
b100010001100100110101100111101001000001101011011110101000011010001101100111100110101110000110000010000101000100111001001110111 w&
#45
b1011111111011101110001000111111100010101011000100111100000010001011111000010110010111101010011101110001000000010001001101101100 (
b1011111111011101110001000111111100010101011000100111100000010001011111000010110010111101010011101110001000000010001001101101100 5#
b1110110100001011001011001100101100011100110011000011110100010010110101111011000000101100111001100010111100001011101110101000 w&
b111111111111000000000000111011100110000010000000000011100000 >(
1~(
b1 /)
b1 >)
#46
b10010101000111010001100111111011001111000000011111111111000011111101011110100001110010101100011011001101100011100001001000 (
b10010101000111010001100111111011001111000000011111111111000011111101011110100001110010101100011011001101100011100001001000 5#
b1100010101100101101110011101111110000000111100010010000000000110110000010011000000010111000110100111010111100001011010111110 w&
b111111111111000000000010101001001110000010000000000011100000 >(
0~(
b0 /)
b0 >)
#47
b1010100101000101 (
b101000000101010101010101010101010101010101010101010101010111010101 J"
b1010100101000101 5#
b101000000101010101010101010101010101010101010101010101010111010101 W$
b1000001111001011000110001010001111111110001011101110010111110100100000111000001101100001101100101011100001110101111000111111 w&
#48
b0 &
b10000000001010111011111110010000010011101110111011000000000000000000000010111111111111111111111111111111111111111111111111 (
b1000001101010101010101010101010101010101010101010101010111010101 J"
02#
03#
b10000000001010111011111110010000010011101110111011000000000000000000000010111111111111111111111111111111111111111111111111 5#
b1000001101010101010101010101010101010101010101010101010111010101 W$
b11111100000111111111000011101100011001110111010001010100000000100100010110101001000000000000000000000000000000000000000000000000 w&
b0 #)
b0 2)
#49
b10 &
b1010000000100100000000000000000000000010000101010000000011100100000010100000000000000000000000000000001000000000000000000000000 (
b1000000101010101010101010101010101010101010101010101010111010101 J"
12#
13#
b1010000000100100000000000000000000000010000101010000000011100100000010100000000000000000000000000000001000000000000000000000000 5#
b1000000101010101010101010101010101010101010101010101010111010101 W$
b10101001000000000000000000000000000000000000000000000000101001101011110101011101 w&
0;(
b1 #)
b0 ,)
b1 2)
b0 ;)
#50
b1000110000100010000110000000000000000000000010000000000010100000000000010001011111111110000111111111110111111110000110000010000 (
b1000110000100010000110000000000000000000000010000000000010100000000000010001011111111110000111111111110111111110000110000010000 5#
b10110101111011000000100000000000000000000000000000000100000000 w&
1;(
b111111111111000000000000000000000101000010000000000011100000 >(
1~(
b1 ,)
b1 /)
b1 ;)
b1 >)
#51
b1010010111110001110111010101111011000111010100100011010001110010011000101000101100110011111100111100101111011100100110001010100 (
b1010010111110001110111010101111011000111010100100011010001110010011000101000101100110011111100111100101111011100100110001010100 5#
b1110010100000000000101000000001000000000000000000010010010100000001000000001100111111111111111000001111111111111000101100000000 w&
b111111111111000000000010101001001110000010000000000011100000 >(
0~(
b0 /)
b0 >)
#52
b10101010010110100001111001011101001100101001110001110010101111010011010000010010100010010001110010110010101000110010100000100001 (
b10101010010110100001111001011101001100101001110001110010101111010011010000010010100010010001110010110010101000110010100000100001 5#
b1010000000000000000010000000000000000000000110000010001010001100101010001001100111011101110010111111001100110010100010100110001 w&
#53
b1111100000010011101000110111010111001110000010010111010011110111110011000100010011000111100110100111101110010000000000100101100 (
b1111100000010011101000110111010111001110000010010111010011110111110011000100010011000111100110100111101110010000000000100101100 5#
b111001000110101010100101100011101011111110111011111000010100100010000100101000101000111011001000011100100010010001001000110100 w&
#54
b110110110110111001101111101001110000101111011101011011111011000111100010010011001001111010110111010010110100100011100110100100 (
b110110110110111001101111101001110000101111011101011011111011000111100010010011001001111010110111010010110100100011100110100100 5#
b10111101011100101001110000110010010111010001111001011010101010100010110000000001110010000011110111001101011000110010001011100110 w&
#55
b11011110011100111011001101100001110101111110010110101011101010110101101101010001000001110101010010101101011001001001000011110000 (
b11011110011100111011001101100001110101111110010110101011101010110101101101010001000001110101010010101101011001001001000011110000 5#
b1111011101110100000010011100111101110101101000100001001011111001010010000111001110100101101001010101101001001111001001101111000 w&
#56
b11110011010011011111001000010110001111010110010111101100000010011000011101110101111000001100100101000010110010111010011010011110 (
b11110011010011011111001000010110001111010110010111101100000010011000011101110101111000001100100101000010110010111010011010011110 5#
b11101100010110111111011111000010111010011001101111011011001101101111000010010000011001001010110101010100000001110101000101011011 w&
#57
b11100111100100010111010011110100011111000100000110111000100001110010011011100111111010001010011100101100101000110000110100010000 (
b11100111100100010111010011110100011111000100000110111000100001110010011011100111111010001010011100101100101000110000110100010000 5#
b10101011101010111110010111010111011000011011001101110011110111101001111010100110110010110100001011001001111000000111010110000111 w&
#58
b110101001101100100010011011110111111011000100111100110111010111001110110110111101010000100010010011010110110001111001001001 (
b110101001101100100010011011110111111011000100111100110111010111001110110110111101010000100010010011010110110001111001001001 5#
b1001111011000110010100111101000101101111001001001101111100110001000000001101101000110010110010100111111010001110011100100110 w&
#59
b101110000010111010101011011011111001110100000000100010110101011110100010110111111101001101111001111100000011101110001010001010 (
b101110000010111010101011011011111001110100000000100010110101011110100010110111111101001101111001111100000011101110001010001010 5#
b10000111101110000100000101111100111101000111010010010001111001110100100100011110010110111001001100001000111101011011011001110011 w&
#60
b110110010001111000000010001011001100110000111111100000101001100011001110110001100100110000011110111000010000011010000010000101 (
b110110010001111000000010001011001100110000111111100000101001100011001110110001100100110000011110111000010000011010000010000101 5#
b11011101001111001011000111011111100110111100100010100110000001101000101011100010000011100111110011011110111101001011011111101000 w&
#61
b100110001010101010111110000111110001101100101000110110010111011011000001110111001000010000110101010111110010011010001110100001 (
b100110001010101010111110000111110001101100101000110110010111011011000001110111001000010000110101010111110010011010001110100001 5#
b11010101001000100100000011100111110110111010101000001011001011101000010110100000010000011011100000000111100100111011000100110011 w&
#62
b10010111111000110010001101101101011101110010111100100110111111100010110001101111000110011101010011011011011001111010110011001 (
b10010111111000110010001101101101011101110010111100100110111111100010110001101111000110011101010011011011011001111010110011001 5#
b10100110111000000000111100110011100010111000000001000111001101101010000110100011110010010101011100001101001000010111011110110000 w&
b111111111111000000000011011011001010000010000000000011100000 >(
1~(
b1 /)
b1 >)
#63
b11010101001011101001101000100001000100011010110101001101110101100100100010110000110010000000010111001101100011111100100100111001 (
b11010101001011101001101000100001000100011010110101001101110101100100100010110000110010000000010111001101100011111100100100111001 5#
b11000110100001111010111100101010001001101001100111110101011011001001101100111010111000111000110111000101110111111110010011100101 w&
b111111111111000000000110010011100101000010000000000011100000 >(
0~(
b0 /)
b0 >)
#64
b110001000100011111011000111000111000100001001101110000111100101111101000011110001001101011000010111010100001110101100100100100 (
b110001000100011111011000111000111000100001001101110000111100101111101000011110001001101011000010111010100001110101100100100100 5#
b10101110011011010110010011111100000100100011100111001001100011111100110100000101110010001011000001001000110101100100110110101101 w&
b111111111111000000000100110110101101000010000000000011100000 >(
#65
b11101100101100010111010010101111011110000010101011101011101110100111100110100001001110010001101111101001010001110000110101101011 (
b11101100101100010111010010101111011110000010101011101011101110100111100110100001001110010001101111101001010001110000110101101011 5#
b10001001000011001101000101110110101010010010001011001100001111011101010110000001001100001111011111010111100100111000000010011 w&
b111111111111000000000111000000010011000010000000000011100000 >(
#66
b10010001011011000000001100001111101110000011110111001101101010111000000011001010110001110000011001000100111101111010101 (
b10010001011011000000001100001111101110000011110111001101101010111000000011001010110001110000011001000100111101111010101 5#
b11100010001110001111011000010001001100010110101100001101010001111110100100011011001110011010000101111001101110101110101100101010 w&
b111111111111000000000110101100101010000010000000000011100000 >(
#67
b10111100000110001000100101110100010100011001100111011110110111101111101101101110101101100000100000001110000100100001001000001100 (
b10111100000110001000100101110100010100011001100111011110110111101111101101101110101101100000100000001110000100100001001000001100 5#
b1111000101011110111010010110001111011001101010101111011001000101000001101100011011001011100000011010101111001100001111011011100 w&
b111111111111000000000001111011011100000010000000000011100000 >(
#68
b11011000011010100100010001011111000101100111100100001111000011010111000000011111010000010101111111000001100000000100111001011000 (
b11011000011010100100010001011111000101100111100100001111000011010111000000011111010000010101111111000001100000000100111001011000 5#
b10000111000000011011011001001000000000000000110000010010000100100000111000001000101101100110111011111011110111101101111010011001 w&
b111111111111000000000101111010011001000010000000000011100000 >(
#69
b11111110000101010101000010010001110000101111011011100000010011111001101011100101101100110101110011110011010010110000001101001010 (
b11111110000101010101000010010001110000101111011011100000010011111001101011100101101100110101110011110011010010110000001101001010 5#
b1010001011101001000100100011000101111000101100001001110100000001100000101011111010000010001111101110000000011010000111101111001 w&
b111111111111000000000000111101111001000010000000000011100000 >(
#70
b10110110001100011110001111001100010011010101001000110111100010011111010000010110001011101001001111001010011111000000001000101001 (
b10110110001100011110001111001100010011010101001000110111100010011111010000010110001011101001001111001010011111000000001000101001 5#
b10110010111110100010001101010110110000100101000000011010010111111001101011100101100111110010110011010010011111110000011110110 w&
b111111111111000000000110000011110110000010000000000011100000 >(
#71
b10010001000111011011011001000011100100100000111011100010111001001010101001000100110011111001111011010000000010010001001001101001 (
b10010001000111011011011001000011100100100000111011100010111001001010101001000100110011111001111011010000000010010001001001101001 5#
b11000010100100010101000000010101111111100010100100000010011111001100101010010011001011100001011011110100100010010011011101010010 w&
b111111111111000000000011011101010010000010000000000011100000 >(
#72
b11100100001101001100010011101000001001000100111111111101001001100011010011000000100111101101101101101100101011001000010001000010 (
b11100100001101001100010011101000001001000100111111111101001001100011010011000000100111101101101101101100101011001000010001000010 5#
b1001101110011001110001100110001101101100110100100010010000010011101000010011110110011110100010010101010111001001110001000001110 w&
b111111111111000000000110001000001110000010000000000011100000 >(
#73
b1100001000011001010000101010100011100100111010111001111011101000000110000000001000101000000001101110111000000011001111110100010 (
b1100001000011001010000101010100011100100111010111001111011101000000110000000001000101000000001101110111000000011001111110100010 5#
b10010010010000111011011000011101100100010100001010000100101011000110110011011011100111101100000000110100001001101111110101001111 w&
b111111111111000000000111110101001111000010000000000011100000 >(
#74
b100100010010101000110000101000100101111100100000101110101100101011111110001111010001001011011100101101001100011001101100110111 (
b100100010010101000110000101000100101111100100000101110101100101011111110001111010001001011011100101101001100011001101100110111 5#
b100100111010001100010000110100111001001010001010011111000000010111011100000011000101000000000100001100011101001100111101110101 w&
b111111111111000000000100111101110101000010000000000011100000 >(
#75
b1100110111010000111100100010011111001010110000111110110010101001100000001010110011110000001010010100100011101100111110001010111 (
b1100110111010000111100100010011111001010110000111110110010101001100000001010110011110000001010010100100011101100111110001010111 5#
b1110010010101001010000100001100011000010011011110011011001100010010110110110111010001001000111110111111101100100010111011001000 w&
b111111111111000000000010111011001000000010000000000011100000 >(
#76
b1011011111110100000101100110010111111000010101001110000010010100000110011000101110110110011111001100010100001000111110000010011 (
b1011011111110100000101100110010111111000010101001110000010010100000110011000101110110110011111001100010100001000111110000010011 5#
b10010111001010001000110001001010001001000101011101111100011101101010010000010100011110000101011011000000010101001111011001100001 w&
b111111111111000000000111011001100001000010000000000011100000 >(
#77
b1100000101110010011010011001011111000010000101011011101001110001110111110001010000010000100110010100100011110110010111010001100 (
b1100000101110010011010011001011111000010000101011011101001110001110111110001010000010000100110010100100011110110010111010001100 5#
b11100101000100110111100111101000011001100001001101111100100001000110001000111110110110111100010100001100010010100111000000101010 w&
b111111111111000000000111000000101010000010000000000011100000 >(
#78
b11111010001111011011010010101110000111011101010010111010111110010111011110011001111101000111101000011110110110001010010110100111 (
b11111010001111011011010010101110000111011101010010111010111110010111011110011001111101000111101000011110110110001010010110100111 5#
b11111100001100100000101111111010010110111000110000101110011110111010010001001100000010001000101011101111001110001101110100001010 w&
#79
b10000110000101000010100011010000110100111011010010100000010100001101000101010111111110001100011010010000111001110110100111010011 (
b10000110000101000010100011010000110100111011010010100000010100001101000101010111111110001100011010010000111001110110100111010011 5#
0;(
b0 ,)
b0 ;)
