Looping_Hardware-design/project_1/.Xil/Vivado-22971-client70/hw_ila_data_1/zip_work/waveform.vcd
$date
        2021-Mar-01 14:17:01
$end
$version
        Vivado v2019.1 (64-bit)
$end
$timescale
        1ps
$end
$scope module dut $end
$var reg 2 " check_40G_sim_i/system_ila_0/inst/probe0_1 [1:0] $end
$var reg 128 $ check_40G_sim_i/system_ila_0/inst/net_slot_0_axis_tdata [127:0] $end
$var reg 70 F" check_40G_sim_i/system_ila_0/inst/net_slot_0_axis_tuser [69:0] $end
$var reg 1 .# check_40G_sim_i/system_ila_0/inst/net_slot_0_axis_tvalid $end
$var reg 1 /# check_40G_sim_i/system_ila_0/inst/net_slot_0_axis_tready $end
$var reg 1 0# check_40G_sim_i/system_ila_0/inst/net_slot_0_axis_tlast $end
$var reg 128 1# check_40G_sim_i/system_ila_0/inst/net_slot_1_axis_tdata [127:0] $end
$var reg 70 S$ check_40G_sim_i/system_ila_0/inst/net_slot_1_axis_tuser [69:0] $end
$var reg 1 ;% check_40G_sim_i/system_ila_0/inst/net_slot_1_axis_tvalid $end
$var reg 1 <% check_40G_sim_i/system_ila_0/inst/net_slot_1_axis_tlast $end
$var reg 128 =% check_40G_sim_i/system_ila_0/inst/net_slot_2_axis_tdata [127:0] $end
$var reg 70 _& check_40G_sim_i/system_ila_0/inst/net_slot_2_axis_tuser [69:0] $end
$var reg 1 G' check_40G_sim_i/system_ila_0/inst/net_slot_2_axis_tvalid $end
$var reg 1 H' check_40G_sim_i/system_ila_0/inst/net_slot_2_axis_tready $end
$var reg 1 I' check_40G_sim_i/system_ila_0/inst/net_slot_2_axis_tlast $end
$var reg 3 J' Interface__i1_s0___axis_data_fifo_5_M_AXIS_ [2:0] $end
$var reg 3 M' Interface__i1_s1___l_ethernet_0_axis_rx_0_ [2:0] $end
$var reg 3 P' Interface__i1_s2___ecpri_mux_0_ctrl_user_data_out_ [2:0] $end
$var reg 3 S' T_Channel__i1_s0___axis_data_fifo_5_M_AXIS_ [2:0] $end
$var reg 3 V' T_Channel__i1_s1___l_ethernet_0_axis_rx_0_ [2:0] $end
$var reg 3 Y' T_Channel__i1_s2___ecpri_mux_0_ctrl_user_data_out_ [2:0] $end
$var reg 1 \' _TRIGGER $end
$var reg 1 ]' _WINDOW $end
$var reg 1 ^' _GAP $end
$upscope $end
$enddefinitions $end
#0
$dumpvars
b0 "
b0 $
b0 F"
0.#
1/#
00#
b0 1#
b0 S$
0;%
0<%
b0 =%
b0 _&
0G'
1H'
0I'
b0 J'
b0 M'
b0 P'
b0 S'
b0 V'
b0 Y'
0\'
1]'
0^'
$end
#18
b1 "
b10000000001010111011111110010000010011101110111011000000000000000000000010111111111111111111111111111111111111111111111111 =%
b1000001100000000000000000000000000000000000000000000000000000000 _&
1G'
b1 P'
b1 Y'
#19
b0 =%
b0 _&
0G'
b0 P'
b0 Y'
#25
b10000000001010111011111110010000010011101110111011000000000000000000000010111111111111111111111111111111111111111111111111 $
b1000001100000000000000000000000000000000000000000000000000000000 F"
1.#
b110000000100100000000000000000000000010000101010000000011100100000010100000000000000000000000000000001000000000000000000000000 =%
b1000000100000000000000000000000000000000000000000000000000000000 _&
1G'
b1 J'
b1 P'
b1 S'
b1 Y'
#26
0.#
b0 =%
b0 _&
0G'
b0 J'
b0 P'
b0 S'
b0 Y'
#27
b1110101000101010000010100000000000000000001000000000000010100000000000000001011111111110000111111111110111111110000100000000000 =%
b1000000100000000000000000000000000000000000000000000000000000000 _&
1G'
b1 P'
b1 Y'
#28
b11010101111111111010111111111001011110101111101001010001010010001011111011111010100001001111100001100000101010101100000001010101 =%
#29
b10001100011011101101111110110000111011111101110101111011101011100001101010111000100011110101101000000111111000110111000011100110 =%
#30
b1010000001110110111101111000010110011101101011011110101100011101010100110010100110111001011001111111001111010000111000000010001 =%
#31
b11101000101111111011111010111110100011110011001001010111101101110011101000010000100010000010101010001010011110110111011101100000 =%
#32
b110000000100100000000000000000000000010000101010000000011100100000010100000000000000000000000000000001000000000000000000000000 $
b1000000100000000000000000000000000000000000000000000000000000000 F"
1.#
b11000111100000110000101100011011100101100001100011110010100111111110010010110100101000010001000010000111110011110000101000011000 =%
b1 J'
b1 S'
#33
0.#
b1110001101110011101111100000111101110111011011001011010001001101010110001100000000101111001101000111011111001000110101110110111 =%
b0 J'
b0 S'
#34
b1110101000101010000010100000000000000000001000000000000010100000000000000001011111111110000111111111110111111110000100000000000 $
1.#
b1100111110010000000101000001111110111000011100011100010111110101010110101101110111100111100010111001111011001001010000101111101 =%
b1 J'
b1 S'
#35
b11010101111111111010111111111001011110101111101001010001010010001011111011111010100001001111100001100000101010101100000001010101 $
b100001111011101110100011100011001001001010111011011100100000000010110001111100110001011011010011000010100101001000101110111011 =%
#36
b10001100011011101101111110110000111011111101110101111011101011100001101010111000100011110101101000000111111000110111000011100110 $
b1111110100111001100111110000111101011010111001000101010010101101101110010000000111101111011000100110101110010100110011110110000 =%
#37
b1010000001110110111101111000010110011101101011011110101100011101010100110010100110111001011001111111001111010000111000000010001 $
b11110011000101000011010111011110111010010010001001010101001011110101111100100001111001000110010101101110111000010101111101111 =%
#38
b11101000101111111011111010111110100011110011001001010111101101110011101000010000100010000010101010001010011110110111011101100000 $
b11101011010001101010010101010011000100010110011010010110111101001110001010111100001100011111001001110111111001111101111110110001 =%
#39
b11000111100000110000101100011011100101100001100011110010100111111110010010110100101000010001000010000111110011110000101000011000 $
b1011001001100100101011010111101000001110011100111101000101000010111111001101011011001000100011101001110010001000100111110011010 =%
#40
b1110001101110011101111100000111101110111011011001011010001001101010110001100000000101111001101000111011111001000110101110110111 $
b1011100111000100000011001001101010111011110011001101110010011000100101101110000011100000100110100001001011100110111010110111110 =%
#41
b1100111110010000000101000001111110111000011100011100010111110101010110101101110111100111100010111001111011001001010000101111101 $
b11010010000101110101111100100010111101101011110110011000100001001101101001000001100001011010010010011001111011010101111010000111 =%
#42
b100001111011101110100011100011001001001010111011011100100000000010110001111100110001011011010011000010100101001000101110111011 $
b1110010100010111110001110010000111001100100111000101010110100101100111011001110100000011011011100100000000101110001000101011000 =%
#43
b1111110100111001100111110000111101011010111001000101010010101101101110010000000111101111011000100110101110010100110011110110000 $
b100101000001000000000111001110101110110111101101001101001110001111100111000110111011010110100001000100101001100111101 =%
#44
b11110011000101000011010111011110111010010010001001010101001011110101111100100001111001000110010101101110111000010101111101111 $
b10111001100111010101000001100100101000101010010000100010110100111000110111101010100010010110010001001101110010001010100000101 =%
#45
b11101011010001101010010101010011000100010110011010010110111101001110001010111100001100011111001001110111111001111101111110110001 $
b11011101001001111001100110001001010011111101010001000101000000001111010011101000000001100011001100011001001010101110101100101000 =%
#46
b1011001001100100101011010111101000001110011100111101000101000010111111001101011011001000100011101001110010001000100111110011010 $
b11100000100101111001100001000000100111110111001011010111111101101100011011000111101110101101100001000001001100000010010111001101 =%
#47
b1011100111000100000011001001101010111011110011001101110010011000100101101110000011100000100110100001001011100110111010110111110 $
b101100010001101010110101010001101100110010110100100001111001001010101111111101011000000010010001001000011001010011000111010011 =%
#48
b11010010000101110101111100100010111101101011110110011000100001001101101001000001100001011010010010011001111011010101111010000111 $
b101111110000111101100011100111010010101110100010001010000001110010011011101010100111101011111111010010100111001000100101101101 =%
#49
b1110010100010111110001110010000111001100100111000101010110100101100111011001110100000011011011100100000000101110001000101011000 $
b101111101000000000000101001001001000011011100000110101101101011010010111000000001100101010100001000100100010000001101101101001 =%
#50
b100101000001000000000111001110101110110111101101001101001110001111100111000110111011010110100001000100101001100111101 $
b10101000101110000001101011000110000001000101001001001101010000100101010110101000111011010110010101001111011100000111000010100011 =%
#51
b10111001100111010101000001100100101000101010010000100010110100111000110111101010100010010110010001001101110010001010100000101 $
b10010100000000011111000000010100110000111001010101101100011100110000000111111001001001101111000100001110110000101101011010111010 =%
#52
b11011101001001111001100110001001010011111101010001000101000000001111010011101000000001100011001100011001001010101110101100101000 $
b11111010011011011101011001111111111011100110111110010101110110100000000101110010110011001000100111000100000111100010010101000 =%
#53
b11100000100101111001100001000000100111110111001011010111111101101100011011000111101110101101100001000001001100000010010111001101 $
b1001001100101011101111101010001110111010001101111111110001001110000001011111111001101100010001011111100000010101000000011110100 =%
#54
b101100010001101010110101010001101100110010110100100001111001001010101111111101011000000010010001001000011001010011000111010011 $
b11010101101110000011111011111001101000101111111000000101111011111010001010001001010010000100110101100011000010110101110001101010 =%
#55
b101111110000111101100011100111010010101110100010001010000001110010011011101010100111101011111111010010100111001000100101101101 $
b1001000100101001101101011011101000010000101101100001010101101001001010100000101000110101111111000010111101101000001000001011110 =%
#56
b101111101000000000000101001001001000011011100000110101101101011010010111000000001100101010100001000100100010000001101101101001 $
b11000011001011001111111111111101100110101101101110001101111000100000001001100010000010000110000011001110100100110011111011011101 =%
#57
b10101000101110000001101011000110000001000101001001001101010000100101010110101000111011010110010101001111011100000111000010100011 $
b1100100010010000000111100001100110010110100011010001011100010011011011101000000101110000100100100001010111001100001111100101 =%
#58
b10010100000000011111000000010100110000111001010101101100011100110000000111111001001001101111000100001110110000101101011010111010 $
b10110111101100000110101111011001011110011010110001101001011101010111100100111000110110100010100000111110000101111111101100010011 =%
#59
b11111010011011011101011001111111111011100110111110010101110110100000000101110010110011001000100111000100000111100010010101000 $
b10111100001111111111010100001110110010101010001001011001101001001111110101011111101011010011100110001100111101011010010101001100 =%
#60
b1001001100101011101111101010001110111010001101111111110001001110000001011111111001101100010001011111100000010101000000011110100 $
b10101000010111001111001110110111001000010001100100011001011101011001010100101000000010001000100001010000000000100110111110111 =%
#61
b11010101101110000011111011111001101000101111111000000101111011111010001010001001010010000100110101100011000010110101110001101010 $
b111101011100111100110000101100100010110110101111010111001101110000100010000110000011101100110111010100110100000100001001011010 =%
#62
b1001000100101001101101011011101000010000101101100001010101101001001010100000101000110101111111000010111101101000001000001011110 $
b10111111110010011010101001110001110011011100100111000100001000110011101000011101101001011100100111110100100110110101001111011 =%
#63
b11000011001011001111111111111101100110101101101110001101111000100000001001100010000010000110000011001110100100110011111011011101 $
b1010000000011000110011011000111010000011011101110110100100110111100100111011001100110000011011000000010011011100100001001000010 =%
#64
b1100100010010000000111100001100110010110100011010001011100010011011011101000000101110000100100100001010111001100001111100101 $
b1001000010110101000001000111000111011010010011000000111110111111010111100011001110101000010101111010101011100010101000000101010 =%
#65
b10110111101100000110101111011001011110011010110001101001011101010111100100111000110110100010100000111110000101111111101100010011 $
b10010110011100110010000011100000110010110000100100000110011000000110000100110001110000111100010000010110101101010111111101000 =%
#66
b10111100001111111111010100001110110010101010001001011001101001001111110101011111101011010011100110001100111101011010010101001100 $
b11011000011100111001100000100110010010011001000100100001000010001011001011010011100111001010000001100010010011001000010010100000 =%
#67
b10101000010111001111001110110111001000010001100100011001011101011001010100101000000010001000100001010000000000100110111110111 $
b101000100111110001010011100010010111001001101100000101001101010101000101110101101000001111011011100011010111011010001100111010 =%
#68
b111101011100111100110000101100100010110110101111010111001101110000100010000110000011101100110111010100110100000100001001011010 $
b10100011001101001100110010001011000010000000110100111000100010101110010010111111111111000101001011110011101110000111100000010001 =%
#69
b10111111110010011010101001110001110011011100100111000100001000110011101000011101101001011100100111110100100110110101001111011 $
b1010001111011001110001110010010110100101110101110010000001001110110010110001010100110010000011101110001000110110110111001100 =%
#70
b1010000000011000110011011000111010000011011101110110100100110111100100111011001100110000011011000000010011011100100001001000010 $
b11000000000011101011101111101101110101010100111110001000000001001011101101100011100100000111100100110010011011101011000111001111 =%
#71
b1001000010110101000001000111000111011010010011000000111110111111010111100011001110101000010101111010101011100010101000000101010 $
b1101111101011101011000100000001111010110101100110010001000100101111010000100110000001001011010001001001111001100001101100101 =%
#72
b10010110011100110010000011100000110010110000100100000110011000000110000100110001110000111100010000010110101101010111111101000 $
b11010001110000111100110010110001110011001011001011010000000011100111011101110010101000100001000000001100110101110011110000011011 =%
#73
b11011000011100111001100000100110010010011001000100100001000010001011001011010011100111001010000001100010010011001000010010100000 $
b11111000100111010101101101010110000011001110011000001110101110101010100010111011111100000110001011001110000000100111101100101101 =%
#74
b101000100111110001010011100010010111001001101100000101001101010101000101110101101000001111011011100011010111011010001100111010 $
b111111100010101011000100111100000010001011111000010110010111101010011101110001000000010001001101101100000000000001001000001111 =%
#75
b10100011001101001100110010001011000010000000110100111000100010101110010010111111111111000101001011110011101110000111100000010001 $
b1100111111011001111000000011111111111000011111101011110100001110010101100011011001101100011100001001000010111111110111011100010 =%
#76
b1010001111011001110001110010010110100101110101110010000001001110110010110001010100110010000011101110001000110110110111001100 $
b1000101100110011111100111100101111011100100110001010100010001100001000100001011000000001010100101000101000000100101010001110100 =%
#77
b11000000000011101011101111101101110101010100111110001000000001001011101101100011100100000111100100110010011011101011000111001111 $
b10010100010010001110010110010101000110010100000100001010100101111100011101110101011110110001110101001000110100011100100110001 =%
#78
b1101111101011101011000100000001111010110101100110010001000100101111010000100110000001001011010001001001111001100001101100101 $
b100010011000111100110100111101110010000000000100101100101010100101101000011110010111010011001010011100011100101011110100110100 =%
#79
b11010001110000111100110010110001110011001011001011010000000011100111011101110010101000100001000000001100110101110011110000011011 $
b10010011001001111010110111010010110100100011100110100100011111000000100111010001101110101110011100000100101110100111101111100110 =%
#80
b11111000100111010101101101010110000011001110011000001110101110101010100010111011111100000110001011001110000000100111101100101101 $
b1010001000001110101010010101101011001001001000011110000001101101101101110011011111010011100001011110111010110111110110001111000 =%
#81
b111111100010101011000100111100000010001011111000010110010111101010011101110001000000010001001101101100000000000001001000001111 $
b1110101111000001100100101000010110010111010011010011110110111100111001110110011011000011101011111100101101010111010101101011011 =%
#82
b1100111111011001111000000011111111111000011111101011110100001110010101100011011001101100011100001001000010111111110111011100010 $
b11100111111010001010011100101100101000110000110100010000111100110100110111110010000101100011110101100101111011000000100110000111 =%
#83
b1000101100110011111100111100101111011100100110001010100010001100001000100001011000000001010100101000101000000100101010001110100 $
b10110110111101010000100010010011010110110001111001001001111001111001000101110100111101000111110001000001101110001000011100100110 =%
#84
b10010100010010001110010110010101000110010100000100001010100101111100011101110101011110110001110101001000110100011100100110001 $
b10110111111101001101111001111100000011101110001010001010000001101010011011001000100110111101111110110001001111001101110101110011 =%
#85
b100010011000111100110100111101110010000000000100101100101010100101101000011110010111010011001010011100011100101011110100110100 $
b10110001100100110000011110111000010000011010000010000101001011100000101110101010110110111110011101000000001000101101010111101000 =%
#86
b10010011001001111010110111010010110100100011100110100100011111000000100111010001101110101110011100000100101110100111101111100110 $
b1110111001000010000110101010111110010011010001110100001001101100100011110000000100010110011001100001111111000001010011000110011 =%
#87
b1010001000001110101010010101101011001001001000011110000001101101101101110011011111010011100001011110111010110111110110001111000 $
b10001101111000110011101010011011011011001111010110011001001001100010101010101111100001111100011011001010001101100101110110110000 =%
#88
b1110101111000001100100101000010110010111010011010011110110111100111001110110011011000011101011111100101101010111010101101011011 $
b10110000110010000000010111001101100011111100100100111001000100101111110001100100011011011010111011100101111001001101111111000101 =%
#89
b11100111111010001010011100101100101000110000110100010000111100110100110111110010000101100011110101100101111011000000100110000111 $
b11110001001101011000010111010100001110101100100100100110101010010111010011010001000010001000110101101010011011101011001001000 =%
#90
b10110110111101010000100010010011010110110001111001001001111001111001000101110100111101000111110001000001101110001000011100100110 $
b10100001001110010001101111101001010001110000110101101011001100010001000111110110001110001110001000010011011100001111001011111010 =%
#91
b10110111111101001101111001111100000011101110001010001010000001101010011011001000100110111101111110110001001111001101110101110011 $
b11000000011001010110001110000011001000100111101111010101111011001011000101110100101011110111100000101010111010111011101001111001 =%
#92
b10110001100100110000011110111000010000011010000010000101001011100000101110101010110110111110011101000000001000101101010111101000 $
b1101110101101100000100000001110000100100001001000001011000000000100100010110110000000011000011111011100000111101110011011010101 =%
#93
b1110111001000010000110101010111110010011010001110100001001101100100011110000000100010110011001100001111111000001010011000110011 $
b11111010000010101111111000001100000000100111001011000101111000001100010001001011101000101000110011001110111101101111011111011 =%
#94
b10001101111000110011101010011011011011001111010110011001001001100010101010101111100001111100011011001010001101100101110110110000 $
b11100101101100110101110011110011010010110000001101001010110110000110101001000100010111110001011001111001000011110000110101110000 =%
#95
b10110000110010000000010111001101100011111100100100111001000100101111110001100100011011011010111011100101111001001101111111000101 $
b10110001011101001001111001010011111000000001000101001111111100001010101010000100100011100001011110110111000000100111110011010 =%
#96
b11110001001101011000010111010100001110101100100100100110101010010111010011010001000010001000110101101010011011101011001001000 $
b1000100110011111001111011010000000010010001001001101001101101100011000111100011110011000100110101010010001101111000100111110100 =%
#97
b10100001001110010001101111101001010001110000110101101011001100010001000111110110001110001110001000010011011100001111001011111010 $
b10000000001010111011111110010000010011101110111011000000000000000000000010111111111111111111111111111111111111111111111110 1#
b1000001001010101010101010101010101010101010101010101010111010101 S$
b11000000100111101101101101101100101011001000010001000010100100010001110110110110010000111001001000001110111000101110010010101010 =%
#98
b11000000011001010110001110000011001000100111101111010101111011001011000101110100101011110111100000101010111010111011101001111001 $
b10000000001010111011111110010000010011101110111011000000000000000000000010111111111111111111111111111111111111111111111111 1#
b1000101000000001101110111000000011001111110100010111001000011010011000100111010000010010001001111111111010010011000110100 =%
#99
b1101110101101100000100000001110000100100001001000001011000000000100100010110110000000011000011111011100000111101110011011010101 $
b10001111010001001011011100101101001100011001101100110111011000010000110010100001010101000111001001110101110011110111010000001100 =%
#100
b11111010000010101111111000001100000000100111001011000101111000001100010001001011101000101000110011001110111101101111011111011 $
b1000001101010101010101010101010101010101010101010101010111010101 S$
1;%
b1010110011110000001010010100100011101100111110001010111001001000100101010001100001010001001011111001000001011101011001010111111 =%
b1 M'
b1 V'
1\'
#101
b11100101101100110101110011110011010010110000001101001010110110000110101001000100010111110001011001111001000011110000110101110000 $
b11111110111111101111111011111110111111101111111011111110111111101111111011111110111111101111111011111110111111101111111011111110 1#
b1000000101010101010101010101010101010101010101010101010111010101 S$
b11000101110110110011111001100010100001000111110000010011011001101110100001111001000100111110010101100001111101100101010011000000 =%
#102
b10110001011101001001111001010011111000000001000101001111111100001010101010000100100011100001011110110111000000100111110011010 $
b10001010000010000100110010100100011110110010111010001100010110111111101000001011001100101111110000101010011100000100101000001100 =%
#103
b1000100110011111001111011010000000010010001001001101001101101100011000111100011110011000100110101010010001101111000100111110100 $
b10011001111101000111101000011110110110001010010110100111011000001011100100110100110010111110000100001010110111010011100011101111 =%
#104
b11000000100111101101101101101100101011001000010001000010100100010001110110110110010000111001001000001110111000101110010010101010 $
b1010111111110001100011010010000111001110110100111010011111110100011110110110100101011100001110111010100101110101111100101110111 =%
#105
b1000101000000001101110111000000011001111110100010111001000011010011000100111010000010010001001111111111010010011000110100 $
b11111000001001101110001100000001110100001010000101000010100001100001010000101000110100001101001110110100101000000101000011010001 =%
#106
b10001111010001001011011100101101001100011001101100110111011000010000110010100001010101000111001001110101110011110111010000001100 $
b11000111111111101000100100110011010011100001101110101101101001110011110000001110001111111101100111111010101101111000110000100101 =%
#107
b1010110011110000001010010100100011101100111110001010111001001000100101010001100001010001001011111001000001011101011001010111111 $
b110000000100100000000000000000000000010000101010000000011100100000010100000000000000000000000000000001000000000000000000000000 1#
b1001001100101101100101101101001100101010001101101010100000110100010100011101010110000010010010110001011011110001100110100001 =%
#108
b11000101110110110011111001100010100001000111110000010011011001101110100001111001000100111110010101100001111101100101010011000000 $
b11111110111111101111111011111110111111101111111011111110111111101111111011111110111111101111111011111110111111101111111011111110 1#
b1011110011110000100100110010111111111000110001001100111110100111111110000100001000011000 =%
b101000000100000000000000000000000000000000000000000000000000000000 _&
1I'
b10 Y'
#109
b10001010000010000100110010100100011110110010111010001100010110111111101000001011001100101111110000101010011100000100101000001100 $
b1110101000101010000010100000000000000000001000000000000010100000000000000001011111111110000111111111110111111110000100000000000 1#
b10000000001010111011111110010000010011101110111011000000000000000000000010111111111111111111111111111111111111111111111111 =%
b1000001100000000000000000000000000000000000000000000000000000000 _&
0I'
b1 Y'
#110
b10011001111101000111101000011110110110001010010110100111011000001011100100110100110010111110000100001010110111010011100011101111 $
b11010101111111111010111111111001011110101111101001010001010010001011111011111010100001001111100001100000101010101100000001010100 1#
b1000000000100100000000000000000000000010000101010000000011100100000010100000000000000000000000000000001000000000000000000000000 =%
b1000000100000000000000000000000000000000000000000000000000000000 _&
#111
b1010111111110001100011010010000111001110110100111010011111110100011110110110100101011100001110111010100101110101111100101110111 $
b10001100011011101101111110110000111011111101110101111011101011100001101010111000100011110101101000000111111000110111000011100110 1#
b1101010000100010000110000000000000000000000010000000000010100000000000010001011111111110000111111111110111111110000100000001000 =%
#112
b11111000001001101110001100000001110100001010000101000010100001100001010000101000110100001101001110110100101000000101000011010001 $
b1010000001110110111101111000010110011101101011011110101100011101010100110010100110111001011001111111001111010000111000000010000 1#
b111010110001111011101011110000101010000111110010110000010000111001011001101000000100001000100011011101010000100000111111100101 =%
#113
b11000111111111101000100100110011010011100001101110101101101001110011110000001110001111111101100111111010101101111000110000100101 $
b11101000101111111011111010111110100011110011001001010111101101110011101000010000100010000010101010001010011110110111011101100000 1#
b11000101001111111101100000111010101001001110001101110011000011101001100101010000000010110010001110001001111000001101111000100011 =%
#114
b1001001100101101100101101101001100101010001101101010100000110100010100011101010110000010010010110001011011110001100110100001 $
b11000111100000110000101100011011100101100001100011110010100111111110010010110100101000010001000010000111110011110000101000011000 1#
b10101011011001100000010100111100110011101110101110000100100011011000011010001101011000011111010111100110111010101110010111100110 =%
#115
b1011110011110000100100110010111111111000110001001100111110100111111110000100001000011000 $
b101000000100000000000000000000000000000000000000000000000000000000 F"
b1110001101110011101111100000111101110111011011001011010001001101010110001100000000101111001101000111011111001000110101110110110 1#
b10000110010110000001110001101000101100010011011011010110010010011001111000100010010110011001100010011000001001110000000100101110 =%
#116
b10000000001010111011111110010000010011101110111011000000000000000000000010111111111111111111111111111111111111111111111111 $
b1000001100000000000000000000000000000000000000000000000000000000 F"
b1100111110010000000101000001111110111000011100011100010111110101010110101101110111100111100010111001111011001001010000101111101 1#
b101011000101101111001000101110100101111011011011111001001111110010001101001001111111000010001100011010100011101010000010101100 =%
#117
b1000000000100100000000000000000000000010000101010000000011100100000010100000000000000000000000000000001000000000000000000000000 $
b1000000100000000000000000000000000000000000000000000000000000000 F"
b100001111011101110100011100011001001001010111011011100100000000010110001111100110001011011010011000010100101001000101110111011 1#
b10101001100111100011111010100001010011011010010001001011100101101011100011111111110100011110100110110011011000111001011001111011 =%
#118
b1101010000100010000110000000000000000000000010000000000010100000000000010001011111111110000111111111110111111110000100000001000 $
b1111110100111001100111110000111101011010111001000101010010101101101110010000000111101111011000100110101110010100110011110110000 1#
b11111000001011010110111101100010100001011001010010100000100000001000011011011000111110101110011111110100010111000110100111101000 =%
#119
b111010110001111011101011110000101010000111110010110000010000111001011001101000000100001000100011011101010000100000111111100101 $
b11110011000101000011010111011110111010010010001001010101001011110101111100100001111001000110010101101110111000010101111101110 1#
b10001100001001100011010011100101000100101110010111110010001101010110101010010010000101000111010001011011000101100111100010011 =%
#120
b11000101001111111101100000111010101001001110001101110011000011101001100101010000000010110010001110001001111000001101111000100011 $
b11101011010001101010010101010011000100010110011010010110111101001110001010111100001100011111001001110111111001111101111110110001 1#
b1111000000101101011110010100001100011011010111000010101000011001100011110111011100011111111011011000111000100100100101100010101 =%
#121
b10101011011001100000010100111100110011101110101110000100100011011000011010001101011000011111010111100110111010101110010111100110 $
b1011001001100100101011010111101000001110011100111101000101000010111111001101011011001000100011101001110010001000100111110011010 1#
b11100110100100110100101111110010110010011111100001000001010011011110011111110011010110000001011001101000010001101011001010110110 =%
#122
b10000110010110000001110001101000101100010011011011010110010010011001111000100010010110011001100010011000001001110000000100101110 $
b1011100111000100000011001001101010111011110011001101110010011000100101101110000011100000100110100001001011100110111010110111110 1#
b1110011000110100011000011111001110010011110000100000010001010001100110110111001110000011110010000011000011010100000101010000111 =%
#123
b101011000101101111001000101110100101111011011011111001001111110010001101001001111111000010001100011010100011101010000010101100 $
b11010010000101110101111100100010111101101011110110011000100001001101101001000001100001011010010010011001111011010101111010000110 1#
b11011001100101010100001100101001101100101101011101101011100101100110010101100110010111001001011101011101100001100110111000100010 =%
#124
b10101001100111100011111010100001010011011010010001001011100101101011100011111111110100011110100110110011011000111001011001111011 $
0/#
b1110010100010111110001110010000111001100100111000101010110100101100111011001110100000011011011100100000000101110001000101011000 1#
b10001010100001000100001100101000100100110010101101100100001101111100000111001100111010111010001101111000001100011010010011100110 =%
b0 J'
b0 S'
#125
1/#
b100101000001000000000111001110101110110111101101001101001110001111100111000110111011010110100001000100101001100111100 1#
b1100000001010010110111101011000000111011001100010110110010001001011100110100001100101101001001100101111110011000011101101010101 =%
b1 J'
b1 S'
#126
b11111000001011010110111101100010100001011001010010100000100000001000011011011000111110101110011111110100010111000110100111101000 $
b10111001100111010101000001100100101000101010010000100010110100111000110111101010100010010110010001001101110010001010100000101 1#
b100110001111100010100110101010111001010000100110110011010111100001110000011110111010101010000101110000100010101000001001001110 =%
#127
b10001100001001100011010011100101000100101110010111110010001101010110101010010010000101000111010001011011000101100111100010011 $
b11011101001001111001100110001001010011111101010001000101000000001111010011101000000001100011001100011001001010101110101100101000 1#
b110111011110100001100101011100001000001000000110011111111011110010111101100111011010110101010100001011010000100000001111 =%
#128
b1111000000101101011110010100001100011011010111000010101000011001100011110111011100011111111011011000111000100100100101100010101 $
b11100000100101111001100001000000100111110111001011010111111101101100011011000111101110101101100001000001001100000010010111001100 1#
b11001001100111101010011111111110011110101011000010000000100001001101011101110011111010001000000011010110100101110001001000001100 =%
#129
b11100110100100110100101111110010110010011111100001000001010011011110011111110011010110000001011001101000010001101011001010110110 $
b101100010001101010110101010001101100110010110100100001111001001010101111111101011000000010010001001000011001010011000111010011 1#
b100001111010111011001001011010000000011111101001000110101000011011001101000110011000111011100010111001000101001000101000010011 =%
#130
b1110011000110100011000011111001110010011110000100000010001010001100110110111001110000011110010000011000011010100000101010000111 $
b101111110000111101100011100111010010101110100010001010000001110010011011101010100111101011111111010010100111001000100101101101 1#
b10011101010001111001010111110100110111010100010100101001100001000111101011111001111000011111100001011010000000011010110000100010 =%
#131
b11011001100101010100001100101001101100101101011101101011100101100110010101100110010111001001011101011101100001100110111000100010 $
b101111101000000000000101001001001000011011100000110101101101011010010111000000001100101010100001000100100010000001101101101001 1#
b1111010001100110010101000110111111111101110111110101100010000101110100101001001000001110111001001011101001001110000100000110111 =%
#132
b10001010100001000100001100101000100100110010101101100100001101111100000111001100111010111010001101111000001100011010010011100110 $
b10101000101110000001101011000110000001000101001001001101010000100101010110101000111011010110010101001111011100000111000010100011 1#
b1001011101110100010010011001000011110111010111111101111110000001101010100101011101110001010100001011001001101110010001111000010 =%
#133
b1100000001010010110111101011000000111011001100010110110010001001011100110100001100101101001001100101111110011000011101101010101 $
b10010100000000011111000000010100110000111001010101101100011100110000000111111001001001101111000100001110110000101101011010111010 1#
b10000111000000111001100100001011100010000110110111111000111010100001011101101110011100110100011000011101111010100111110101110100 =%
#134
b100110001111100010100110101010111001010000100110110011010111100001110000011110111010101010000101110000100010101000001001001110 $
b11111010011011011101011001111111111011100110111110010101110110100000000101110010110011001000100111000100000111100010010101000 1#
b1100111000000111101111001011010111110001000010001110001001110100001010011010111001010101100011100111100110100011001010000011110 =%
#135
b110111011110100001100101011100001000001000000110011111111011110010111101100111011010110101010100001011010000100000001111 $
b1001001100101011101111101010001110111010001101111111110001001110000001011111111001101100010001011111100000010101000000011110100 1#
b101011010010010010001000101001111000111101001001100110111010011011000000010100001000111101000010011000000111110110011111000000 =%
#136
b11001001100111101010011111111110011110101011000010000000100001001101011101110011111010001000000011010110100101110001001000001100 $
b11010101101110000011111011111001101000101111111000000101111011111010001010001001010010000100110101100011000010110101110001101010 1#
b10011000001011110110011100001100001101011101101010111111000010011001101001101101011111010000001000010011011011000010101000000010 =%
#137
b100001111010111011001001011010000000011111101001000110101000011011001101000110011000111011100010111001000101001000101000010011 $
b1001000100101001101101011011101000010000101101100001010101101001001010100000101000110101111111000010111101101000001000001011110 1#
b10101010100001001000011011001001101101010111000011000000100000111100111011001001010001010100101000110001101001110010101110010011 =%
#138
b10011101010001111001010111110100110111010100010100101001100001000111101011111001111000011111100001011010000000011010110000100010 $
b11000011001011001111111111111101100110101101101110001101111000100000001001100010000010000110000011001110100100110011111011011100 1#
b1100001101110011110110111011010011101110000101011101011000001101100001110110001110001111100010110000000001110110110010100011000 =%
#139
b1111010001100110010101000110111111111101110111110101100010000101110100101001001000001110111001001011101001001110000100000110111 $
b1100100010010000000111100001100110010110100011010001011100010011011011101000000101110000100100100001010111001100001111100101 1#
b10100111000010010100110000011111010110101010001110111110110011000001001111101101010010101010000011001110100101010111101010011101 =%
#140
b1001011101110100010010011001000011110111010111111101111110000001101010100101011101110001010100001011001001101110010001111000010 $
b10110111101100000110101111011001011110011010110001101001011101010111100100111000110110100010100000111110000101111111101100010011 1#
b1110100111011010111100100101000011101110100111010111101111101111011010100111001100000001000100111000101000011001010001011101111 =%
#141
b10000111000000111001100100001011100010000110110111111000111010100001011101101110011100110100011000011101111010100111110101110100 $
b10111100001111111111010100001110110010101010001001011001101001001111110101011111101011010011100110001100111101011010010101001100 1#
b10110000101101001100100001010000111100110101111000010101001100010101100110111111111001000100110011110110100100001100000001101000 =%
#142
b1100111000000111101111001011010111110001000010001110001001110100001010011010111001010101100011100111100110100011001010000011110 $
b10101000010111001111001110110111001000010001100100011001011101011001010100101000000010001000100001010000000000100110111110110 1#
b11010001001000100000111101000111100101101111000001111000111111010000001000111000100110100111000101000010101111000000000001010010 =%
