Looping_Hardware-design/project_1/.Xil/Vivado-6740-client32/hw_ila_data_1/zip_work/waveform.vcd
$date
        2023-Mar-03 17:40:36
$end
$version
        Vivado v2019.1 (64-bit)
$end
$timescale
        1ps
$end
$scope module dut $end
$var reg 2 " check_40G_sim_i/system_ila_0/inst/probe0_1 [1:0] $end
$var reg 4 $ check_40G_sim_i/system_ila_0/inst/probe1_1 [3:0] $end
$var reg 8 ( check_40G_sim_i/system_ila_0/inst/probe2_1 [7:0] $end
$var reg 8 0 check_40G_sim_i/system_ila_0/inst/probe3_1 [7:0] $end
$var reg 12 8 check_40G_sim_i/system_ila_0/inst/probe4_1 [11:0] $end
$var reg 3 D check_40G_sim_i/system_ila_0/inst/probe5_1 [2:0] $end
$var reg 32 G check_40G_sim_i/system_ila_0/inst/net_slot_0_axis_tdata [31:0] $end
$var reg 1 g check_40G_sim_i/system_ila_0/inst/net_slot_0_axis_tvalid $end
$var reg 1 h check_40G_sim_i/system_ila_0/inst/net_slot_0_axis_tready $end
$var reg 1 i check_40G_sim_i/system_ila_0/inst/net_slot_0_axis_tlast $end
$var reg 128 j check_40G_sim_i/system_ila_0/inst/net_slot_1_axis_tdata [127:0] $end
$var reg 16 .# check_40G_sim_i/system_ila_0/inst/net_slot_1_axis_tkeep [15:0] $end
$var reg 1 ># check_40G_sim_i/system_ila_0/inst/net_slot_1_axis_tuser $end
$var reg 1 ?# check_40G_sim_i/system_ila_0/inst/net_slot_1_axis_tvalid $end
$var reg 1 @# check_40G_sim_i/system_ila_0/inst/net_slot_1_axis_tready $end
$var reg 1 A# check_40G_sim_i/system_ila_0/inst/net_slot_1_axis_tlast $end
$var reg 128 B# check_40G_sim_i/system_ila_0/inst/net_slot_2_axis_tdata [127:0] $end
$var reg 1 d$ check_40G_sim_i/system_ila_0/inst/net_slot_2_axis_tvalid $end
$var reg 1 e$ check_40G_sim_i/system_ila_0/inst/net_slot_2_axis_tready $end
$var reg 1 f$ check_40G_sim_i/system_ila_0/inst/net_slot_2_axis_tlast $end
$var reg 64 g$ check_40G_sim_i/system_ila_0/inst/net_slot_3_axis_tdata [63:0] $end
$var reg 1 I% check_40G_sim_i/system_ila_0/inst/net_slot_3_axis_tvalid $end
$var reg 1 J% check_40G_sim_i/system_ila_0/inst/net_slot_3_axis_tready $end
$var reg 1 K% check_40G_sim_i/system_ila_0/inst/net_slot_3_axis_tlast $end
$var reg 128 L% check_40G_sim_i/system_ila_0/inst/net_slot_4_axis_tdata [127:0] $end
$var reg 1 n& check_40G_sim_i/system_ila_0/inst/net_slot_4_axis_tvalid $end
$var reg 1 o& check_40G_sim_i/system_ila_0/inst/net_slot_4_axis_tready $end
$var reg 1 p& check_40G_sim_i/system_ila_0/inst/net_slot_4_axis_tlast $end
$var reg 64 q& check_40G_sim_i/system_ila_0/inst/net_slot_5_axis_tdata [63:0] $end
$var reg 8 S' check_40G_sim_i/system_ila_0/inst/net_slot_5_axis_tkeep [7:0] $end
$var reg 1 [' check_40G_sim_i/system_ila_0/inst/net_slot_5_axis_tuser $end
$var reg 1 \' check_40G_sim_i/system_ila_0/inst/net_slot_5_axis_tvalid $end
$var reg 1 ]' check_40G_sim_i/system_ila_0/inst/net_slot_5_axis_tlast $end
$var reg 128 ^' check_40G_sim_i/system_ila_0/inst/net_slot_6_axis_tdata [127:0] $end
$var reg 16 ") check_40G_sim_i/system_ila_0/inst/net_slot_6_axis_tkeep [15:0] $end
$var reg 1 2) check_40G_sim_i/system_ila_0/inst/net_slot_6_axis_tuser $end
$var reg 1 3) check_40G_sim_i/system_ila_0/inst/net_slot_6_axis_tvalid $end
$var reg 1 4) check_40G_sim_i/system_ila_0/inst/net_slot_6_axis_tready $end
$var reg 1 5) check_40G_sim_i/system_ila_0/inst/net_slot_6_axis_tlast $end
$var reg 128 6) check_40G_sim_i/system_ila_0/inst/net_slot_7_axis_tdata [127:0] $end
$var reg 16 X* check_40G_sim_i/system_ila_0/inst/net_slot_7_axis_tkeep [15:0] $end
$var reg 1 h* check_40G_sim_i/system_ila_0/inst/net_slot_7_axis_tvalid $end
$var reg 1 i* check_40G_sim_i/system_ila_0/inst/net_slot_7_axis_tready $end
$var reg 1 j* check_40G_sim_i/system_ila_0/inst/net_slot_7_axis_tlast $end
$var reg 3 k* Interface__i1_s0___ecpri_demux_0_control_data_out_ [2:0] $end
$var reg 3 n* Interface__i1_s1___ecpri_demux_0_user_data_out_ [2:0] $end
$var reg 3 q* Interface__i1_s2___cplane_depacketizer_0_beam_data_ [2:0] $end
$var reg 3 t* Interface__i1_s3___cplane_depacketizer_0_beam_info_V_ [2:0] $end
$var reg 3 w* Interface__i1_s4___uplane_depacketiser_0_data_out_ [2:0] $end
$var reg 3 z* Interface__i1_s5___xxv_ethernet_0_axis_rx_0_ [2:0] $end
$var reg 3 }* Interface__i1_s6___Ethernet_demux_0_cu_data_out_ [2:0] $end
$var reg 3 "+ Interface__i1_s7___tkeep_cleaner_FAPI_1_master_ [2:0] $end
$var reg 3 %+ T_Channel__i1_s0___ecpri_demux_0_control_data_out_ [2:0] $end
$var reg 3 (+ T_Channel__i1_s1___ecpri_demux_0_user_data_out_ [2:0] $end
$var reg 3 ++ T_Channel__i1_s2___cplane_depacketizer_0_beam_data_ [2:0] $end
$var reg 3 .+ T_Channel__i1_s3___cplane_depacketizer_0_beam_info_V_ [2:0] $end
$var reg 3 1+ T_Channel__i1_s4___uplane_depacketiser_0_data_out_ [2:0] $end
$var reg 3 4+ T_Channel__i1_s5___xxv_ethernet_0_axis_rx_0_ [2:0] $end
$var reg 3 7+ T_Channel__i1_s6___Ethernet_demux_0_cu_data_out_ [2:0] $end
$var reg 3 :+ T_Channel__i1_s7___tkeep_cleaner_FAPI_1_master_ [2:0] $end
$var reg 1 =+ _TRIGGER $end
$var reg 1 >+ _WINDOW $end
$var reg 1 ?+ _GAP $end
$upscope $end
$enddefinitions $end
#0
$dumpvars
b1 "
b1100 $
b100 (
b1101001 0
b10000101 8
b100 D
b0 G
0g
1h
0i
b10001100000000001000110000000000100011000000000010001100000000001000110000000000100011000000000010001100000000001000110000000000 j
b1111111111111111 .#
0>#
0?#
1@#
0A#
b0 B#
0d$
1e$
0f$
b0 g$
0I%
1J%
0K%
b100011000000000010001100000000001000110000000000100011000000000010001100000000001000110000000000100011000000000010001100 L%
0n&
1o&
0p&
b1000110000000000100011000000000010001100000000001000110000000000 q&
b11111111 S'
0['
1\'
0]'
b10001100000000001000110000000000100011000000000010001100000000001000110000000000100011000000000010001100000000001000110000000000 ^'
b1111111111111111 ")
02)
03)
14)
05)
b0 6)
b0 X*
0h*
1i*
0j*
b11 k*
b0 n*
b11 q*
b11 t*
b0 w*
b0 z*
b0 }*
b0 "+
b11 %+
b0 (+
b11 ++
b11 .+
b0 1+
b0 4+
b0 7+
b0 :+
0=+
1>+
0?+
$end
#1
b101 (
1?#
1n&
13)
b10001100000000001000110000000000100011000000000010001100000000001000110000000000100011000000000010001100000000001000110000000000 6)
b1111111111111111 X*
1h*
b1 n*
b1 w*
b1 z*
b1 }*
b1 "+
b1 (+
b1 1+
b1 4+
b1 7+
b1 :+
#2
0?#
0n&
03)
b0 6)
b0 X*
0h*
b0 n*
b0 w*
b0 }*
b0 "+
b0 (+
b0 1+
b0 7+
b0 :+
#3
b11 (
b1101010 0
1?#
1n&
13)
b10001100000000001000110000000000100011000000000010001100000000001000110000000000100011000000000010001100000000001000110000000000 6)
b1111111111111111 X*
1h*
b1 n*
b1 w*
b1 }*
b1 "+
b1 (+
b1 1+
b1 7+
b1 :+
#4
0?#
0n&
03)
b0 6)
b0 X*
0h*
b0 n*
b0 w*
b0 }*
b0 "+
b0 (+
b0 1+
b0 7+
b0 :+
#5
b100 (
1?#
1n&
13)
b10001100000000001000110000000000100011000000000010001100000000001000110000000000100011000000000010001100000000001000110000000000 6)
b1111111111111111 X*
1h*
b1 n*
b1 w*
b1 }*
b1 "+
b1 (+
b1 1+
b1 7+
b1 :+
#6
0?#
0n&
03)
b0 6)
b0 X*
0h*
b0 n*
b0 w*
b0 }*
b0 "+
b0 (+
b0 1+
b0 7+
b0 :+
#7
b101 (
1?#
1n&
13)
b10001100000000001000110000000000100011000000000010001100000000001000110000000000100011000000000010001100000000001000110000000000 6)
b1111111111111111 X*
1h*
b1 n*
b1 w*
b1 }*
b1 "+
b1 (+
b1 1+
b1 7+
b1 :+
#8
0?#
0n&
03)
b0 6)
b0 X*
0h*
b0 n*
b0 w*
b0 }*
b0 "+
b0 (+
b0 1+
b0 7+
b0 :+
#9
b11 (
b1101011 0
1?#
1n&
13)
b10001100000000001000110000000000100011000000000010001100000000001000110000000000100011000000000010001100000000001000110000000000 6)
b1111111111111111 X*
1h*
b1 n*
b1 w*
b1 }*
b1 "+
b1 (+
b1 1+
b1 7+
b1 :+
#10
0?#
0n&
03)
b0 6)
b0 X*
0h*
b0 n*
b0 w*
b0 }*
b0 "+
b0 (+
b0 1+
b0 7+
b0 :+
#11
b100 (
1?#
1n&
13)
b10001100000000001000110000000000100011000000000010001100000000001000110000000000100011000000000010001100000000001000110000000000 6)
b1111111111111111 X*
1h*
b1 n*
b1 w*
b1 }*
b1 "+
b1 (+
b1 1+
b1 7+
b1 :+
#12
0?#
0n&
03)
b0 6)
b0 X*
0h*
b0 n*
b0 w*
b0 }*
b0 "+
b0 (+
b0 1+
b0 7+
b0 :+
#13
b101 (
1?#
1n&
13)
b10001100000000001000110000000000100011000000000010001100000000001000110000000000100011000000000010001100000000001000110000000000 6)
b1111111111111111 X*
1h*
b1 n*
b1 w*
b1 }*
b1 "+
b1 (+
b1 1+
b1 7+
b1 :+
#14
0?#
0n&
03)
b0 6)
b0 X*
0h*
b0 n*
b0 w*
b0 }*
b0 "+
b0 (+
b0 1+
b0 7+
b0 :+
#15
b11 (
b1101100 0
1?#
1n&
13)
b10001100000000001000110000000000100011000000000010001100000000001000110000000000100011000000000010001100000000001000110000000000 6)
b1111111111111111 X*
1h*
b1 n*
b1 w*
b1 }*
b1 "+
b1 (+
b1 1+
b1 7+
b1 :+
#16
0?#
0n&
03)
b0 6)
b0 X*
0h*
b0 n*
b0 w*
b0 }*
b0 "+
b0 (+
b0 1+
b0 7+
b0 :+
#17
b100 (
1?#
1n&
13)
b10001100000000001000110000000000100011000000000010001100000000001000110000000000100011000000000010001100000000001000110000000000 6)
b1111111111111111 X*
1h*
b1 n*
b1 w*
b1 }*
b1 "+
b1 (+
b1 1+
b1 7+
b1 :+
#18
0?#
0n&
03)
b0 6)
b0 X*
0h*
b0 n*
b0 w*
b0 }*
b0 "+
b0 (+
b0 1+
b0 7+
b0 :+
#19
b101 (
1?#
1n&
13)
b10001100000000001000110000000000100011000000000010001100000000001000110000000000100011000000000010001100000000001000110000000000 6)
b1111111111111111 X*
1h*
b1 n*
b1 w*
b1 }*
b1 "+
b1 (+
b1 1+
b1 7+
b1 :+
#20
0?#
0n&
03)
b0 6)
b0 X*
0h*
b0 n*
b0 w*
b0 }*
b0 "+
b0 (+
b0 1+
b0 7+
b0 :+
#21
b11 (
b1101101 0
1?#
1n&
13)
b10001100000000001000110000000000100011000000000010001100000000001000110000000000100011000000000010001100000000001000110000000000 6)
b1111111111111111 X*
1h*
b1 n*
b1 w*
b1 }*
b1 "+
b1 (+
b1 1+
b1 7+
b1 :+
#22
0?#
0n&
03)
b0 6)
b0 X*
0h*
b0 n*
b0 w*
b0 }*
b0 "+
b0 (+
b0 1+
b0 7+
b0 :+
#23
b100 (
1?#
1n&
13)
b10001100000000001000110000000000100011000000000010001100000000001000110000000000100011000000000010001100000000001000110000000000 6)
b1111111111111111 X*
1h*
b1 n*
b1 w*
b1 }*
b1 "+
b1 (+
b1 1+
b1 7+
b1 :+
#24
0?#
0n&
03)
b0 6)
b0 X*
0h*
b0 n*
b0 w*
b0 }*
b0 "+
b0 (+
b0 1+
b0 7+
b0 :+
#25
b101 (
1?#
1n&
13)
b10001100000000001000110000000000100011000000000010001100000000001000110000000000100011000000000010001100000000001000110000000000 6)
b1111111111111111 X*
1h*
b1 n*
b1 w*
b1 }*
b1 "+
b1 (+
b1 1+
b1 7+
b1 :+
#26
0?#
0n&
03)
b0 6)
b0 X*
0h*
b0 n*
b0 w*
b0 }*
b0 "+
b0 (+
b0 1+
b0 7+
b0 :+
#27
b11 (
b1101110 0
1?#
1n&
13)
b10001100000000001000110000000000100011000000000010001100000000001000110000000000100011000000000010001100000000001000110000000000 6)
b1111111111111111 X*
1h*
b1 n*
b1 w*
b1 }*
b1 "+
b1 (+
b1 1+
b1 7+
b1 :+
#28
0?#
0n&
03)
b0 6)
b0 X*
0h*
b0 n*
b0 w*
b0 }*
b0 "+
b0 (+
b0 1+
b0 7+
b0 :+
#29
b100 (
1?#
1n&
13)
b10001100000000001000110000000000100011000000000010001100000000001000110000000000100011000000000010001100000000001000110000000000 6)
b1111111111111111 X*
1h*
b1 n*
b1 w*
b1 }*
b1 "+
b1 (+
b1 1+
b1 7+
b1 :+
#30
0?#
0n&
03)
b0 6)
b0 X*
0h*
b0 n*
b0 w*
b0 }*
b0 "+
b0 (+
b0 1+
b0 7+
b0 :+
#31
b101 (
1?#
1n&
13)
b10001100000000001000110000000000100011000000000010001100000000001000110000000000100011000000000010001100000000001000110000000000 6)
b1111111111111111 X*
1h*
b1 n*
b1 w*
b1 }*
b1 "+
b1 (+
b1 1+
b1 7+
b1 :+
#32
0?#
0n&
03)
b0 6)
b0 X*
0h*
b0 n*
b0 w*
b0 }*
b0 "+
b0 (+
b0 1+
b0 7+
b0 :+
#33
b11 (
b1101111 0
1?#
1n&
13)
b10001100000000001000110000000000100011000000000010001100000000001000110000000000100011000000000010001100000000001000110000000000 6)
b1111111111111111 X*
1h*
b1 n*
b1 w*
b1 }*
b1 "+
b1 (+
b1 1+
b1 7+
b1 :+
#34
0?#
0n&
03)
b0 6)
b0 X*
0h*
b0 n*
b0 w*
b0 }*
b0 "+
b0 (+
b0 1+
b0 7+
b0 :+
#35
b100 (
1?#
1n&
13)
b10001100000000001000110000000000100011000000000010001100000000001000110000000000100011000000000010001100000000001000110000000000 6)
b1111111111111111 X*
1h*
b1 n*
b1 w*
b1 }*
b1 "+
b1 (+
b1 1+
b1 7+
b1 :+
#36
0?#
0n&
03)
b0 6)
b0 X*
0h*
b0 n*
b0 w*
b0 }*
b0 "+
b0 (+
b0 1+
b0 7+
b0 :+
#37
b101 (
1?#
1n&
13)
b10001100000000001000110000000000100011000000000010001100000000001000110000000000100011000000000010001100000000001000110000000000 6)
b1111111111111111 X*
1h*
b1 n*
b1 w*
b1 }*
b1 "+
b1 (+
b1 1+
b1 7+
b1 :+
#38
0?#
0n&
03)
b0 6)
b0 X*
0h*
b0 n*
b0 w*
b0 }*
b0 "+
b0 (+
b0 1+
b0 7+
b0 :+
#39
b11 (
b1110000 0
1?#
1n&
13)
b10001100000000001000110000000000100011000000000010001100000000001000110000000000100011000000000010001100000000001000110000000000 6)
b1111111111111111 X*
1h*
b1 n*
b1 w*
b1 }*
b1 "+
b1 (+
b1 1+
b1 7+
b1 :+
#40
0?#
0n&
03)
b0 6)
b0 X*
0h*
b0 n*
b0 w*
b0 }*
b0 "+
b0 (+
b0 1+
b0 7+
b0 :+
#41
b100 (
1?#
1n&
13)
b10001100000000001000110000000000100011000000000010001100000000001000110000000000100011000000000010001100000000001000110000000000 6)
b1111111111111111 X*
1h*
b1 n*
b1 w*
b1 }*
b1 "+
b1 (+
b1 1+
b1 7+
b1 :+
#42
0?#
0n&
03)
b0 6)
b0 X*
0h*
b0 n*
b0 w*
b0 }*
b0 "+
b0 (+
b0 1+
b0 7+
b0 :+
#43
b101 (
1?#
1n&
13)
b10001100000000001000110000000000100011000000000010001100000000001000110000000000100011000000000010001100000000001000110000000000 6)
b1111111111111111 X*
1h*
b1 n*
b1 w*
b1 }*
b1 "+
b1 (+
b1 1+
b1 7+
b1 :+
#44
0?#
0n&
03)
b0 6)
b0 X*
0h*
b0 n*
b0 w*
b0 }*
b0 "+
b0 (+
b0 1+
b0 7+
b0 :+
#45
b11 (
b1110001 0
1?#
1n&
13)
b10001100000000001000110000000000100011000000000010001100000000001000110000000000100011000000000010001100000000001000110000000000 6)
b1111111111111111 X*
1h*
b1 n*
b1 w*
b1 }*
b1 "+
b1 (+
b1 1+
b1 7+
b1 :+
#46
0?#
0n&
03)
b0 6)
b0 X*
0h*
b0 n*
b0 w*
b0 }*
b0 "+
b0 (+
b0 1+
b0 7+
b0 :+
#47
b100 (
1?#
1n&
13)
b10001100000000001000110000000000100011000000000010001100000000001000110000000000100011000000000010001100000000001000110000000000 6)
b1111111111111111 X*
1h*
b1 n*
b1 w*
b1 }*
b1 "+
b1 (+
b1 1+
b1 7+
b1 :+
#48
0?#
0n&
03)
b0 6)
b0 X*
0h*
b0 n*
b0 w*
b0 }*
b0 "+
b0 (+
b0 1+
b0 7+
b0 :+
#49
b101 (
1?#
1n&
13)
b10001100000000001000110000000000100011000000000010001100000000001000110000000000100011000000000010001100000000001000110000000000 6)
b1111111111111111 X*
1h*
b1 n*
b1 w*
b1 }*
b1 "+
b1 (+
b1 1+
b1 7+
b1 :+
#50
0?#
0n&
03)
b0 6)
b0 X*
0h*
b0 n*
b0 w*
b0 }*
b0 "+
b0 (+
b0 1+
b0 7+
b0 :+
#51
b11 (
b1110010 0
1?#
1n&
13)
b10001100000000001000110000000000100011000000000010001100000000001000110000000000100011000000000010001100000000001000110000000000 6)
b1111111111111111 X*
1h*
b1 n*
b1 w*
b1 }*
b1 "+
b1 (+
b1 1+
b1 7+
b1 :+
#52
0?#
0n&
03)
b0 6)
b0 X*
0h*
b0 n*
b0 w*
b0 }*
b0 "+
b0 (+
b0 1+
b0 7+
b0 :+
#53
b100 (
1?#
1n&
13)
b10001100000000001000110000000000100011000000000010001100000000001000110000000000100011000000000010001100000000001000110000000000 6)
b1111111111111111 X*
1h*
b1 n*
b1 w*
b1 }*
b1 "+
b1 (+
b1 1+
b1 7+
b1 :+
#54
0?#
0n&
03)
b0 6)
b0 X*
0h*
b0 n*
b0 w*
b0 }*
b0 "+
b0 (+
b0 1+
b0 7+
b0 :+
#55
b101 (
1?#
1n&
13)
b10001100000000001000110000000000100011000000000010001100000000001000110000000000100011000000000010001100000000001000110000000000 6)
b1111111111111111 X*
1h*
b1 n*
b1 w*
b1 }*
b1 "+
b1 (+
b1 1+
b1 7+
b1 :+
#56
0?#
0n&
03)
b0 6)
b0 X*
0h*
b0 n*
b0 w*
b0 }*
b0 "+
b0 (+
b0 1+
b0 7+
b0 :+
#57
b11 (
b1110011 0
1?#
1n&
13)
b10001100000000001000110000000000100011000000000010001100000000001000110000000000100011000000000010001100000000001000110000000000 6)
b1111111111111111 X*
1h*
b1 n*
b1 w*
b1 }*
b1 "+
b1 (+
b1 1+
b1 7+
b1 :+
#58
0?#
0n&
b1010100100000011111111011010111110001100000000001000110000000000 q&
b1111 S'
1]'
03)
b0 6)
b0 X*
0h*
b0 n*
b0 w*
b0 }*
b0 "+
b0 (+
b0 1+
b10 4+
b0 7+
b0 :+
#59
b100 (
1?#
1n&
b1000100000000111111111111111111111111111111111111111111111111 q&
b11111111 S'
0\'
0]'
13)
b10001100000000001000110000000000100011000000000010001100000000001000110000000000100011000000000010001100000000001000110000000000 6)
b1111111111111111 X*
1h*
b1 n*
b1 w*
b0 z*
b1 }*
b1 "+
b1 (+
b1 1+
b0 4+
b1 7+
b1 :+
#60
0?#
0n&
03)
b0 6)
b0 X*
0h*
b0 n*
b0 w*
b0 }*
b0 "+
b0 (+
b0 1+
b0 7+
b0 :+
#61
b101 (
1?#
1n&
1\'
13)
b10001100000000001000110000000000100011000000000010001100000000001000110000000000100011000000000010001100000000001000110000000000 6)
b1111111111111111 X*
1h*
b1 n*
b1 w*
b1 z*
b1 }*
b1 "+
b1 (+
b1 1+
b1 4+
b1 7+
b1 :+
#62
0?#
0n&
b100000000000000001000000101010101010001000011001100100010 q&
03)
b0 6)
b0 X*
0h*
b0 n*
b0 w*
b0 }*
b0 "+
b0 (+
b0 1+
b0 7+
b0 :+
#63
b11 (
b1110100 0
1?#
1n&
b101011100000010100000000000100001111111010101110 q&
13)
b10001100000000001000110000000000100011000000000010001100000000001000110000000000100011000000000010001100000000001000110000000000 6)
b1111111111111111 X*
1h*
b1 n*
b1 w*
b1 }*
b1 "+
b1 (+
b1 1+
b1 7+
b1 :+
#64
0?#
0n&
b11000000000000000011011000000001111001100100001000000010010001 q&
03)
b0 6)
b0 X*
0h*
b0 n*
b0 w*
b0 }*
b0 "+
b0 (+
b0 1+
b0 7+
b0 :+
#65
b100 (
1?#
1n&
b1000110000000000100011000000000000000000000000000001111001011010 q&
13)
b10001100000000001000110000000000100011000000000010001100000000001000110000000000100011000000000010001100000000001000110000000000 6)
b1111111111111111 X*
1h*
b1 n*
b1 w*
b1 }*
b1 "+
b1 (+
b1 1+
b1 7+
b1 :+
#66
0?#
0n&
b1000110000000000100011000000000010001100000000001000110000000000 q&
03)
b0 6)
b0 X*
0h*
b0 n*
b0 w*
b0 }*
b0 "+
b0 (+
b0 1+
b0 7+
b0 :+
#67
b101 (
1?#
1n&
13)
b10001100000000001000110000000000100011000000000010001100000000001000110000000000100011000000000010001100000000001000110000000000 6)
b1111111111111111 X*
1h*
b1 n*
b1 w*
b1 }*
b1 "+
b1 (+
b1 1+
b1 7+
b1 :+
#68
0?#
0n&
03)
b0 6)
b0 X*
0h*
b0 n*
b0 w*
b0 }*
b0 "+
b0 (+
b0 1+
b0 7+
b0 :+
#69
b11 (
b1110101 0
1?#
1n&
b10101001000000111111110110101111100011000000000010001100000000001010100100000011111111011010111110001100000000001000110000000000 ^'
b1111 ")
13)
15)
b10001100000000001000110000000000100011000000000010001100000000001000110000000000100011000000000010001100000000001000110000000000 6)
b1111111111111111 X*
1h*
b1 n*
b1 w*
b1 }*
b1 "+
b1 (+
b1 1+
b10 7+
b1 :+
#70
0?#
0n&
03)
b0 6)
b0 X*
0h*
b0 n*
b0 w*
b0 }*
b0 "+
b0 (+
b0 1+
b0 7+
b0 :+
#71
b100 (
1?#
1n&
b10001100000000001000110000000000100011000000000010001100000000001000110000000000100011000000000010001100000000001000110000000000 6)
b1111111111111111 X*
1h*
b1 n*
b1 w*
b1 "+
b1 (+
b1 1+
b1 :+
#72
b0 D
0?#
0n&
b10101010100010000110011001000100001000100000000111111111111111111111111111111111111111111111111 ^'
b111111111111 ")
13)
05)
b0 6)
b0 X*
0h*
b0 n*
b0 w*
b1 }*
b0 "+
b0 (+
b0 1+
b1 7+
b0 :+
#73
b101 (
b11 D
1?#
1n&
b10101001000000111111110110101111100011000000000010001100000000001010100100000011111111011010111110001100000000001000110000000000 ^'
b1111 ")
03)
15)
b10001100000000001000110000000000100011000000000010001100000000001000110000000000100011000000000010001100000000001000110000000000 6)
b1111111111111111 X*
1h*
1j*
b1 n*
b1 w*
b0 }*
b1 "+
b1 (+
b1 1+
b0 7+
b10 :+
#74
b100 D
0?#
0n&
b110000000000000000110110000000011110011001000010000000100100010000000000000000101011100000010100000000000100001111111010101110 ^'
b1111111111111111 ")
13)
05)
0h*
0j*
b0 n*
b0 w*
b1 }*
b0 "+
b0 (+
b0 1+
b1 7+
b0 :+
#75
b11 (
b1110110 0
1?#
1n&
03)
b0 6)
b0 X*
b1 n*
b1 w*
b0 }*
b1 (+
b1 1+
b0 7+
#76
0?#
0n&
b10001100000000001000110000000000100011000000000010001100000000001000110000000000100011000000000000000000000000000001111001011010 ^'
13)
b10101010100010000110011001000100001000100000000111111111111111111111111111111111111111111111111 6)
b111111111111 X*
b0 n*
b0 w*
b1 }*
b0 (+
b0 1+
b1 7+
#77
b100 (
1?#
1n&
03)
b0 6)
b0 X*
b1 n*
b1 w*
b0 }*
b1 (+
b1 1+
b0 7+
#78
0?#
0n&
b10001100000000001000110000000000100011000000000010001100000000001000110000000000100011000000000010001100000000001000110000000000 ^'
13)
b100001111111010101110010101010100010000110011001000100001000100000000111111111111111111111111111111111111111111111111 6)
b1111111111111111 X*
1h*
b0 n*
b0 w*
b1 }*
b1 "+
b0 (+
b0 1+
b1 7+
b1 :+
#79
b101 (
1?#
1A#
1n&
03)
b0 6)
b0 X*
0h*
b1 n*
b1 w*
b0 }*
b0 "+
b10 (+
b1 1+
b0 7+
b0 :+
#80
0?#
0n&
13)
b1111001011010001100000000000000001101100000000111100110010000100000001001000100000000000000001010111000000101 6)
b1111111111111111 X*
1h*
b0 n*
b0 w*
b1 }*
b1 "+
b0 (+
b0 1+
b1 7+
b1 :+
#81
b11 (
b1110111 0
1n&
03)
b0 6)
b0 X*
0h*
b1 w*
b0 }*
b0 "+
b1 1+
b0 7+
b0 :+
#82
0n&
13)
b10001100000000001000110000000000100011000000000010001100000000001000110000000000100011000000000010001100000000001000110000000000 6)
b1111111111111111 X*
1h*
b0 w*
b1 }*
b1 "+
b0 1+
b1 7+
b1 :+
#83
b100 (
1n&
03)
b0 6)
b0 X*
0h*
b1 w*
b0 }*
b0 "+
b1 1+
b0 7+
b0 :+
#84
b0 "
b100001111111010101110010101010100010000110011001000100001000100000000111111111111111111111111111111111111111111111111 j
1?#
0A#
0n&
13)
b10001100000000001000110000000000100011000000000010001100000000001000110000000000100011000000000010001100000000001000110000000000 6)
b1111111111111111 X*
1h*
b1 n*
b0 w*
b1 }*
b1 "+
b1 (+
b0 1+
b1 7+
b1 :+
#85
b101 (
0?#
1n&
1p&
03)
b0 6)
b0 X*
0h*
b0 n*
b1 w*
b0 }*
b0 "+
b0 (+
b10 1+
b0 7+
b0 :+
#86
b1 "
b1111001011010001100000000000000001101100000000111100110010000100000001001000100000000000000001010111000000101 j
1?#
0n&
0p&
13)
b10001100000000001000110000000000100011000000000010001100000000001000110000000000100011000000000010001100000000001000110000000000 6)
b1111111111111111 X*
1h*
b1 n*
b0 w*
b1 }*
b1 "+
b1 (+
b0 1+
b1 7+
b1 :+
#87
0?#
03)
b0 6)
b0 X*
0h*
b0 n*
b0 }*
b0 "+
b0 (+
b0 7+
b0 :+
#88
b10001100000000001000110000000000100011000000000010001100000000001000110000000000100011000000000010001100000000001000110000000000 j
1?#
13)
b10001100000000001000110000000000100011000000000010001100000000001000110000000000100011000000000010001100000000001000110000000000 6)
b1111111111111111 X*
1h*
b1 n*
b1 }*
b1 "+
b1 (+
b1 7+
b1 :+
#89
0?#
03)
b0 6)
b0 X*
0h*
b0 n*
b0 }*
b0 "+
b0 (+
b0 7+
b0 :+
#90
b1 (
b1111000 0
1?#
13)
b10001100000000001000110000000000100011000000000010001100000000001000110000000000100011000000000010001100000000001000110000000000 6)
b1111111111111111 X*
1h*
b1 n*
b1 }*
b1 "+
b1 (+
b1 7+
b1 :+
#91
0?#
03)
b0 6)
b0 X*
0h*
b0 n*
b0 }*
b0 "+
b0 (+
b0 7+
b0 :+
#92
b10 (
1?#
13)
b10001100000000001000110000000000100011000000000010001100000000001000110000000000100011000000000010001100000000001000110000000000 6)
b1111111111111111 X*
1h*
b1 n*
b1 }*
b1 "+
b1 (+
b1 7+
b1 :+
#93
0?#
03)
b0 6)
b0 X*
0h*
b0 n*
b0 }*
b0 "+
b0 (+
b0 7+
b0 :+
#94
b11 (
1?#
1n&
13)
b10001100000000001000110000000000100011000000000010001100000000001000110000000000100011000000000010001100000000001000110000000000 6)
b1111111111111111 X*
1h*
b1 n*
b1 w*
b1 }*
b1 "+
b1 (+
b1 1+
b1 7+
b1 :+
#95
0?#
0n&
03)
b0 6)
b0 X*
0h*
b0 n*
b0 w*
b0 }*
b0 "+
b0 (+
b0 1+
b0 7+
b0 :+
#96
b100 (
1?#
1n&
13)
b10001100000000001000110000000000100011000000000010001100000000001000110000000000100011000000000010001100000000001000110000000000 6)
b1111111111111111 X*
1h*
b1 n*
b1 w*
b1 }*
b1 "+
b1 (+
b1 1+
b1 7+
b1 :+
#97
0?#
0n&
03)
b0 6)
b0 X*
0h*
b0 n*
b0 w*
b0 }*
b0 "+
b0 (+
b0 1+
b0 7+
b0 :+
#98
b101 (
1?#
1n&
13)
b10001100000000001000110000000000100011000000000010001100000000001000110000000000100011000000000010001100000000001000110000000000 6)
b1111111111111111 X*
1h*
b1 n*
b1 w*
b1 }*
b1 "+
b1 (+
b1 1+
b1 7+
b1 :+
#99
0?#
0n&
03)
b0 6)
b0 X*
0h*
b0 n*
b0 w*
b0 }*
b0 "+
b0 (+
b0 1+
b0 7+
b0 :+
#100
b110 (
b1 0
b100010001 8
1?#
13)
b10001100000000001000110000000000100011000000000010001100000000001000110000000000100011000000000010001100000000001000110000000000 6)
b1111111111111111 X*
1h*
b1 n*
b1 }*
b1 "+
b1 (+
b1 7+
b1 :+
1=+
#101
0?#
03)
b0 6)
b0 X*
0h*
b0 n*
b0 }*
b0 "+
b0 (+
b0 7+
b0 :+
#102
b11 (
1?#
1n&
13)
b10001100000000001000110000000000100011000000000010001100000000001000110000000000100011000000000010001100000000001000110000000000 6)
b1111111111111111 X*
1h*
b1 n*
b1 w*
b1 }*
b1 "+
b1 (+
b1 1+
b1 7+
b1 :+
#103
0?#
0n&
03)
b0 6)
b0 X*
0h*
b0 n*
b0 w*
b0 }*
b0 "+
b0 (+
b0 1+
b0 7+
b0 :+
#104
b100 (
1?#
1n&
13)
b10001100000000001000110000000000100011000000000010001100000000001000110000000000100011000000000010001100000000001000110000000000 6)
b1111111111111111 X*
1h*
b1 n*
b1 w*
b1 }*
b1 "+
b1 (+
b1 1+
b1 7+
b1 :+
#105
0?#
0n&
03)
b0 6)
b0 X*
0h*
b0 n*
b0 w*
b0 }*
b0 "+
b0 (+
b0 1+
b0 7+
b0 :+
