Looping_Hardware-design/project_1/.Xil/Vivado-3169-client70/hw_ila_data_3/zip_work/waveform.vcd
$date
        2021-Apr-09 17:33:09
$end
$version
        Vivado v2019.1 (64-bit)
$end
$timescale
        1ps
$end
$scope module dut $end
$var reg 3 " check_40G_sim_i/system_ila_2/inst/probe0_1 [2:0] $end
$var reg 2 % check_40G_sim_i/system_ila_2/inst/probe1_1 [1:0] $end
$var reg 128 ' check_40G_sim_i/system_ila_2/inst/net_slot_0_axis_tdata [127:0] $end
$var reg 16 I" check_40G_sim_i/system_ila_2/inst/net_slot_0_axis_tkeep [15:0] $end
$var reg 16 Y" check_40G_sim_i/system_ila_2/inst/net_slot_0_axis_tuser [15:0] $end
$var reg 1 i" check_40G_sim_i/system_ila_2/inst/net_slot_0_axis_tvalid $end
$var reg 1 j" check_40G_sim_i/system_ila_2/inst/net_slot_0_axis_tready $end
$var reg 1 k" check_40G_sim_i/system_ila_2/inst/net_slot_0_axis_tlast $end
$var reg 128 l" check_40G_sim_i/system_ila_2/inst/net_slot_1_axis_tdata [127:0] $end
$var reg 16 0$ check_40G_sim_i/system_ila_2/inst/net_slot_1_axis_tkeep [15:0] $end
$var reg 1 @$ check_40G_sim_i/system_ila_2/inst/net_slot_1_axis_tuser $end
$var reg 1 A$ check_40G_sim_i/system_ila_2/inst/net_slot_1_axis_tvalid $end
$var reg 1 B$ check_40G_sim_i/system_ila_2/inst/net_slot_1_axis_tready $end
$var reg 1 C$ check_40G_sim_i/system_ila_2/inst/net_slot_1_axis_tlast $end
$var reg 128 D$ check_40G_sim_i/system_ila_2/inst/net_slot_2_axis_tdata [127:0] $end
$var reg 16 f% check_40G_sim_i/system_ila_2/inst/net_slot_2_axis_tkeep [15:0] $end
$var reg 1 v% check_40G_sim_i/system_ila_2/inst/net_slot_2_axis_tuser $end
$var reg 1 w% check_40G_sim_i/system_ila_2/inst/net_slot_2_axis_tvalid $end
$var reg 1 x% check_40G_sim_i/system_ila_2/inst/net_slot_2_axis_tready $end
$var reg 1 y% check_40G_sim_i/system_ila_2/inst/net_slot_2_axis_tlast $end
$var reg 128 z% check_40G_sim_i/system_ila_2/inst/net_slot_3_axis_tdata [127:0] $end
$var reg 16 >' check_40G_sim_i/system_ila_2/inst/net_slot_3_axis_tkeep [15:0] $end
$var reg 1 N' check_40G_sim_i/system_ila_2/inst/net_slot_3_axis_tuser $end
$var reg 1 O' check_40G_sim_i/system_ila_2/inst/net_slot_3_axis_tvalid $end
$var reg 1 P' check_40G_sim_i/system_ila_2/inst/net_slot_3_axis_tready $end
$var reg 1 Q' check_40G_sim_i/system_ila_2/inst/net_slot_3_axis_tlast $end
$var reg 3 R' Interface__i3_s0___axis_dwidth_converter_0_M_AXIS_ [2:0] $end
$var reg 3 U' Interface__i3_s1___ecpri_demux_0_control_data_out_ [2:0] $end
$var reg 3 X' Interface__i3_s2___ecpri_demux_0_user_data_out_ [2:0] $end
$var reg 3 [' Interface__i3_s3___axis_data_fifo_9_M_AXIS_ [2:0] $end
$var reg 3 ^' T_Channel__i3_s0___axis_dwidth_converter_0_M_AXIS_ [2:0] $end
$var reg 3 a' T_Channel__i3_s1___ecpri_demux_0_control_data_out_ [2:0] $end
$var reg 3 d' T_Channel__i3_s2___ecpri_demux_0_user_data_out_ [2:0] $end
$var reg 3 g' T_Channel__i3_s3___axis_data_fifo_9_M_AXIS_ [2:0] $end
$var reg 1 j' _TRIGGER $end
$var reg 1 k' _WINDOW $end
$var reg 1 l' _GAP $end
$upscope $end
$enddefinitions $end
#0
$dumpvars
b0 "
b0 %
b0 '
b0 I"
b0 Y"
0i"
1j"
0k"
b0 l"
b0 0$
0@$
0A$
1B$
0C$
b0 D$
b0 f%
0v%
0w%
1x%
0y%
b0 z%
b0 >'
0N'
0O'
0P'
0Q'
b0 R'
b0 U'
b0 X'
b0 ['
b0 ^'
b0 a'
b0 d'
b0 g'
0j'
1k'
0l'
$end
#20
b10000000001010111011111110010000010011101110111011000000000000000000000010111111111111111111111111111111111111111111111111 '
b1111111111111111 I"
1i"
b1 R'
b1 ^'
1j'
#21
b110000000100100000000000000000000000010000101010000000011100100101000010000000000000000000000000000000000100000000000000000000 '
#22
b1110101000100010000101000000000000000000000100000000000010100000000000010001011111111110000111111111110111111110000100000000000 '
#23
b11010101111111111010111111111001011110101111101001010001010010001011111011111010100001001111100001100000101010101100000001010101 '
#24
b1 "
b10001100011011101101111110110000111011111101110101111011101011100001101010111000100011110101101000000111111000110111000011100110 '
#25
b1010000001110110111101111000010110011101101011011110101100011101010100110010100110111001011001111111001111010000111000000010001 '
#26
b11101000101111111011111010111110100011110011001001010111101101110011101000010000100010000010101010001010011110110111011101100000 '
b10000000001010111011111110010000010011101110111011000000000000000000000010111111111111111111111111111111111111111111111111 z%
b1111111111111111 >'
1O'
1P'
b1 ['
b1 g'
#27
b11000111100000110000101100011011100101100001100011110010100111111110010010110100101000010001000010000111110011110000101000011000 '
b110000000100100000000000000000000000010000101010000000011100100101000010000000000000000000000000000000000100000000000000000000 z%
#28
b1110001101110011101111100000111101110111011011001011010001001101010110001100000000101111001101000111011111001000110101110110111 '
b10000000001010111011111110010000010011101110111011000000000000000000000010111111111111111111111111111111111111111111111111 l"
b1111111111111111 0$
b10000000001010111011111110010000010011101110111011000000000000000000000010111111111111111111111111111111111111111111111111 D$
b1111111111111111 f%
b1110101000100010000101000000000000000000000100000000000010100000000000010001011111111110000111111111110111111110000100000000000 z%
#29
b10 %
b1100111110010000000101000001111110111000011100011100010111110101010110101101110111100111100010111001111011001001010000101111101 '
b110000000100100000000000000000000000010000101010000000011100100101000010000000000000000000000000000000000100000000000000000000 l"
1A$
b110000000100100000000000000000000000010000101010000000011100100101000010000000000000000000000000000000000100000000000000000000 D$
b11010101111111111010111111111001011110101111101001010001010010001011111011111010100001001111100001100000101010101100000001010101 z%
b1 U'
b1 a'
#30
b100001111011101110100011100011001001001010111011011100100000000010110001111100110001011011010011000010100101001000101110111011 '
b1110101000100010000101000000000000000000000100000000000010100000000000010001011111111110000111111111110111111110000100000000000 l"
b1110101000100010000101000000000000000000000100000000000010100000000000010001011111111110000111111111110111111110000100000000000 D$
b10001100011011101101111110110000111011111101110101111011101011100001101010111000100011110101101000000111111000110111000011100110 z%
#31
b1111110100111001100111110000111101011010111001000101010010101101101110010000000111101111011000100110101110010100110011110110000 '
b11010101111111111010111111111001011110101111101001010001010010001011111011111010100001001111100001100000101010101100000001010101 l"
b11010101111111111010111111111001011110101111101001010001010010001011111011111010100001001111100001100000101010101100000001010101 D$
b1010000001110110111101111000010110011101101011011110101100011101010100110010100110111001011001111111001111010000111000000010001 z%
#32
b11110011000101000011010111011110111010010010001001010101001011110101111100100001111001000110010101101110111000010101111101111 '
b10001100011011101101111110110000111011111101110101111011101011100001101010111000100011110101101000000111111000110111000011100110 l"
b10001100011011101101111110110000111011111101110101111011101011100001101010111000100011110101101000000111111000110111000011100110 D$
b11101000101111111011111010111110100011110011001001010111101101110011101000010000100010000010101010001010011110110111011101100000 z%
#33
b11101011010001101010010101010011000100010110011010010110111101001110001010111100001100011111001001110111111001111101111110110001 '
b1010000001110110111101111000010110011101101011011110101100011101010100110010100110111001011001111111001111010000111000000010001 l"
b1010000001110110111101111000010110011101101011011110101100011101010100110010100110111001011001111111001111010000111000000010001 D$
b11000111100000110000101100011011100101100001100011110010100111111110010010110100101000010001000010000111110011110000101000011000 z%
#34
b1011001001100100101011010111101000001110011100111101000101000010111111001101011011001000100011101001110010001000100111110011010 '
b11101000101111111011111010111110100011110011001001010111101101110011101000010000100010000010101010001010011110110111011101100000 l"
b11101000101111111011111010111110100011110011001001010111101101110011101000010000100010000010101010001010011110110111011101100000 D$
b1110001101110011101111100000111101110111011011001011010001001101010110001100000000101111001101000111011111001000110101110110111 z%
#35
b1011100111000100000011001001101010111011110011001101110010011000100101101110000011100000100110100001001011100110111010110111110 '
b11000111100000110000101100011011100101100001100011110010100111111110010010110100101000010001000010000111110011110000101000011000 l"
b11000111100000110000101100011011100101100001100011110010100111111110010010110100101000010001000010000111110011110000101000011000 D$
b1100111110010000000101000001111110111000011100011100010111110101010110101101110111100111100010111001111011001001010000101111101 z%
#36
b11010010000101110101111100100010111101101011110110011000100001001101101001000001100001011010010010011001111011010101111010000111 '
b1110001101110011101111100000111101110111011011001011010001001101010110001100000000101111001101000111011111001000110101110110111 l"
b1110001101110011101111100000111101110111011011001011010001001101010110001100000000101111001101000111011111001000110101110110111 D$
b100001111011101110100011100011001001001010111011011100100000000010110001111100110001011011010011000010100101001000101110111011 z%
#37
b1110010100010111110001110010000111001100100111000101010110100101100111011001110100000011011011100100000000101110001000101011000 '
b1100111110010000000101000001111110111000011100011100010111110101010110101101110111100111100010111001111011001001010000101111101 l"
b1100111110010000000101000001111110111000011100011100010111110101010110101101110111100111100010111001111011001001010000101111101 D$
b1111110100111001100111110000111101011010111001000101010010101101101110010000000111101111011000100110101110010100110011110110000 z%
#38
b100101000001000000000111001110101110110111101101001101001110001111100111000110111011010110100001000100101001100111101 '
b100001111011101110100011100011001001001010111011011100100000000010110001111100110001011011010011000010100101001000101110111011 l"
b100001111011101110100011100011001001001010111011011100100000000010110001111100110001011011010011000010100101001000101110111011 D$
b11110011000101000011010111011110111010010010001001010101001011110101111100100001111001000110010101101110111000010101111101111 z%
#39
b0 '
1k"
b1111110100111001100111110000111101011010111001000101010010101101101110010000000111101111011000100110101110010100110011110110000 l"
b1111110100111001100111110000111101011010111001000101010010101101101110010000000111101111011000100110101110010100110011110110000 D$
b11101011010001101010010101010011000100010110011010010110111101001110001010111100001100011111001001110111111001111101111110110001 z%
b10 ^'
#40
b100101000001000000000111001110101110110111101101001101001110001111100111000110111011010110100001000100101001100111101 '
0i"
0k"
b11110011000101000011010111011110111010010010001001010101001011110101111100100001111001000110010101101110111000010101111101111 l"
b11110011000101000011010111011110111010010010001001010101001011110101111100100001111001000110010101101110111000010101111101111 D$
b1011001001100100101011010111101000001110011100111101000101000010111111001101011011001000100011101001110010001000100111110011010 z%
b0 R'
b0 ^'
#41
b10000000001010111011111110010000010011101110111011000000000000000000000010111111111111111111111111111111111111111111111111 '
1i"
b11101011010001101010010101010011000100010110011010010110111101001110001010111100001100011111001001110111111001111101111110110001 l"
b11101011010001101010010101010011000100010110011010010110111101001110001010111100001100011111001001110111111001111101111110110001 D$
b1011100111000100000011001001101010111011110011001101110010011000100101101110000011100000100110100001001011100110111010110111110 z%
b1 R'
b1 ^'
#42
b1000000000100100000000000000000000000010000101010000000011100100101000010000000000000000000000000000000000100000000000000000000 '
b1011001001100100101011010111101000001110011100111101000101000010111111001101011011001000100011101001110010001000100111110011010 l"
b1011001001100100101011010111101000001110011100111101000101000010111111001101011011001000100011101001110010001000100111110011010 D$
b11010010000101110101111100100010111101101011110110011000100001001101101001000001100001011010010010011001111011010101111010000111 z%
#43
b10111001000100010000101100000000000000000000010000000000010100000000000010001011111111110000111111111110111111110000100000001000 '
b1011100111000100000011001001101010111011110011001101110010011000100101101110000011100000100110100001001011100110111010110111110 l"
b1011100111000100000011001001101010111011110011001101110010011000100101101110000011100000100110100001001011100110111010110111110 D$
b1110010100010111110001110010000111001100100111000101010110100101100111011001110100000011011011100100000000101110001000101011000 z%
#44
b0 "
b101010111010110010100000010111001100111010101000001100100101000101010010000100010110100111000110111101010100010010110010001001 '
b11010010000101110101111100100010111101101011110110011000100001001101101001000001100001011010010010011001111011010101111010000111 l"
b11010010000101110101111100100010111101101011110110011000100001001101101001000001100001011010010010011001111011010101111010000111 D$
b100101000001000000000111001110101110110111101101001101001110001111100111000110111011010110100001000100101001100111101 z%
#45
b1 "
b110000001001011100110111011101001001111001100110001001010011111101010001000101000000001111010011101000000001100011001100011001 '
b1110010100010111110001110010000111001100100111000101010110100101100111011001110100000011011011100100000000101110001000101011000 l"
b1110010100010111110001110010000111001100100111000101010110100101100111011001110100000011011011100100000000101110001000101011000 D$
0O'
0P'
b0 ['
b0 g'
#46
b1100101001100011101001111100000100101111001100001000000100111110111001011010111111101101100011011000111101110101101100001000001 '
b100101000001000000000111001110101110110111101101001101001110001111100111000110111011010110100001000100101001100111101 l"
0A$
b100101000001000000000111001110101110110111101101001101001110001111100111000110111011010110100001000100101001100111101 D$
b0 z%
1O'
1P'
1Q'
b0 U'
b1 ['
b0 a'
b10 g'
#47
b10011100100010010110110100101100010001101010110101010001101100110010110100100001111001001010101111111101011000000010010001001000 '
1A$
b10000000001010111011111110010000010011101110111011000000000000000000000010111111111111111111111111111111111111111111111111 z%
0Q'
b1 U'
b1 a'
b1 g'
#48
b10001000000110110110100100101111110000111101100011100111010010101110100010001010000001110010011011101010100111101011111111010010 '
b0 l"
1C$
b0 D$
b1000000000100100000000000000000000000010000101010000000011100100101000010000000000000000000000000000000000100000000000000000000 z%
b10 a'
#49
b0 %
b1110000011100001010001100101111101000000000000101001001001000011011100000110101101101011010010111000000001100101010100001000100 '
b10000000001010111011111110010000010011101110111011000000000000000000000010111111111111111111111111111111111111111111111111 l"
0A$
0C$
b10000000001010111011111110010000010011101110111011000000000000000000000010111111111111111111111111111111111111111111111111 D$
b10111001000100010000101100000000000000000000010000000000010100000000000010001011111111110000111111111110111111110000100000001000 z%
b0 U'
b0 a'
#50
b10 %
b11000010110101101011101010101000101110000001101011000110000001000101001001001101010000100101010110101000111011010110010101001111 '
b1000000000100100000000000000000000000010000101010000000011100100101000010000000000000000000000000000000000100000000000000000000 l"
1A$
b1000000000100100000000000000000000000010000101010000000011100100101000010000000000000000000000000000000000100000000000000000000 D$
b101010111010110010100000010111001100111010101000001100100101000101010010000100010110100111000110111101010100010010110010001001 z%
b1 U'
b1 a'
#51
b10000011110001001010100010010100000000011111000000010100110000111001010101101100011100110000000111111001001001101111000100001110 '
b10111001000100010000101100000000000000000000010000000000010100000000000010001011111111110000111111111110111111110000100000001000 l"
b10111001000100010000101100000000000000000000010000000000010100000000000010001011111111110000111111111110111111110000100000001000 D$
b110000001001011100110111011101001001111001100110001001010011111101010001000101000000001111010011101000000001100011001100011001 z%
#52
b1010100000001111010000011111010011011011101011001111111111011100110111110010101110110100000000101110010110011001000100111000 '
b101010111010110010100000010111001100111010101000001100100101000101010010000100010110100111000110111101010100010010110010001001 l"
b101010111010110010100000010111001100111010101000001100100101000101010010000100010110100111000110111101010100010010110010001001 D$
b1100101001100011101001111100000100101111001100001000000100111110111001011010111111101101100011011000111101110101101100001000001 z%
#53
b1011010111000110101001001001100101011101111101010001110111010001101111111110001001110000001011111111001101100010001011111100 '
b110000001001011100110111011101001001111001100110001001010011111101010001000101000000001111010011101000000001100011001100011001 l"
b110000001001011100110111011101001001111001100110001001010011111101010001000101000000001111010011101000000001100011001100011001 D$
b10011100100010010110110100101100010001101010110101010001101100110010110100100001111001001010101111111101011000000010010001001000 z%
#54
b10110100000100000101111011010101101110000011111011111001101000101111111000000101111011111010001010001001010010000100110101100011 '
b1100101001100011101001111100000100101111001100001000000100111110111001011010111111101101100011011000111101110101101100001000001 l"
b1100101001100011101001111100000100101111001100001000000100111110111001011010111111101101100011011000111101110101101100001000001 D$
b10001000000110110110100100101111110000111101100011100111010010101110100010001010000001110010011011101010100111101011111111010010 z%
#55
b10010011001111101101110101001000100101001101101011011101000010000101101100001010101101001001010100000101000110101111111000010111 '
b10011100100010010110110100101100010001101010110101010001101100110010110100100001111001001010101111111101011000000010010001001000 l"
b10011100100010010110110100101100010001101010110101010001101100110010110100100001111001001010101111111101011000000010010001001000 D$
b1110000011100001010001100101111101000000000000101001001001000011011100000110101101101011010010111000000001100101010100001000100 z%
#56
b1011100110000111110010111000011001011001111111111111101100110101101101110001101111000100000001001100010000010000110000011001110 '
b10001000000110110110100100101111110000111101100011100111010010101110100010001010000001110010011011101010100111101011111111010010 l"
b10001000000110110110100100101111110000111101100011100111010010101110100010001010000001110010011011101010100111101011111111010010 D$
b11000010110101101011101010101000101110000001101011000110000001000101001001001101010000100101010110101000111011010110010101001111 z%
#57
b10111111110110001001100001100100010010000000111100001100110010110100011010001011100010011011011101000000101110000100100100001 '
b1110000011100001010001100101111101000000000000101001001001000011011100000110101101101011010010111000000001100101010100001000100 l"
b1110000011100001010001100101111101000000000000101001001001000011011100000110101101101011010010111000000001100101010100001000100 D$
b10000011110001001010100010010100000000011111000000010100110000111001010101101100011100110000000111111001001001101111000100001110 z%
#58
b11110101101001010100110010110111101100000110101111011001011110011010110001101001011101010111100100111000110110100010100000111110 '
b11000010110101101011101010101000101110000001101011000110000001000101001001001101010000100101010110101000111011010110010101001111 l"
b11000010110101101011101010101000101110000001101011000110000001000101001001001101010000100101010110101000111011010110010101001111 D$
b1010100000001111010000011111010011011011101011001111111111011100110111110010101110110100000000101110010110011001000100111000 z%
#59
b10011011111011110111100001111111111010100001110110010101010001001011001101001001111110101011111101011010011100110001100 '
b10000011110001001010100010010100000000011111000000010100110000111001010101101100011100110000000111111001001001101111000100001110 l"
b10000011110001001010100010010100000000011111000000010100110000111001010101101100011100110000000111111001001001101111000100001110 D$
b1011010111000110101001001001100101011101111101010001110111010001101111111110001001110000001011111111001101100010001011111100 z%
#60
b11010000010000100101101000010101000010111001111001110110111001000010001100100011001011101011001010100101000000010001001000001011 '
b1010100000001111010000011111010011011011101011001111111111011100110111110010101110110100000000101110010110011001000100111000 l"
b1010100000001111010000011111010011011011101011001111111111011100110111110010101110110100000000101110010110011001000100111000 D$
b10110100000100000101111011010101101110000011111011111001101000101111111000000101111011111010001010001001010010000100110101100011 z%
#61
b10010011011010100111101100111101011100111100110000101100100010110110101111010111001101110000100010000110000011101100110111010100 '
b1011010111000110101001001001100101011101111101010001110111010001101111111110001001110000001011111111001101100010001011111100 l"
b1011010111000110101001001001100101011101111101010001110111010001101111111110001001110000001011111111001101100010001011111100 D$
b10010011001111101101110101001000100101001101101011011101000010000101101100001010101101001001010100000101000110101111111000010111 z%
#62
b1101110010000100100001000010111111110010011010101001110001110011011100100111000100001000110011101000011101101001011100100111110 '
b10110100000100000101111011010101101110000011111011111001101000101111111000000101111011111010001010001001010010000100110101100011 l"
b10110100000100000101111011010101101110000011111011111001101000101111111000000101111011111010001010001001010010000100110101100011 D$
b1011100110000111110010111000011001011001111111111111101100110101101101110001101111000100000001001100010000010000110000011001110 z%
#63
b1110001010100000010101001010000000011000110011011000111010000011011101110110100100110111100100111011001100110000011011000000010 '
b10010011001111101101110101001000100101001101101011011101000010000101101100001010101101001001010100000101000110101111111000010111 l"
b10010011001111101101110101001000100101001101101011011101000010000101101100001010101101001001010100000101000110101111111000010111 D$
b10111111110110001001100001100100010010000000111100001100110010110100011010001011100010011011011101000000101110000100100100001 z%
#64
b11010110101011111110100001001000010110101000001000111000111011010010011000000111110111111010111100011001110101000010101111010101 '
b1011100110000111110010111000011001011001111111111111101100110101101101110001101111000100000001001100010000010000110000011001110 l"
b1011100110000111110010111000011001011001111111111111101100110101101101110001101111000100000001001100010000010000110000011001110 D$
b11110101101001010100110010110111101100000110101111011001011110011010110001101001011101010111100100111000110110100010100000111110 z%
#65
b1001100100001001010000000010010110011100110010000011100000110010110000100100000110011000000110000100110001110000111100010000010 '
b10111111110110001001100001100100010010000000111100001100110010110100011010001011100010011011011101000000101110000100100100001 l"
b10111111110110001001100001100100010010000000111100001100110010110100011010001011100010011011011101000000101110000100100100001 D$
b10011011111011110111100001111111111010100001110110010101010001001011001101001001111110101011111101011010011100110001100 z%
#66
b1011101101000110011101011011000011100111001100000100110010010011001000100100001000010001011001011010011100111001010000001100010 '
b11110101101001010100110010110111101100000110101111011001011110011010110001101001011101010111100100111000110110100010100000111110 l"
b11110101101001010100110010110111101100000110101111011001011110011010110001101001011101010111100100111000110110100010100000111110 D$
b11010000010000100101101000010101000010111001111001110110111001000010001100100011001011101011001010100101000000010001001000001011 z%
#67
b10111000011110000001000100101000100111110001010011100010010111001001101100000101001101010101000101110101101000001111011011100011 '
b10011011111011110111100001111111111010100001110110010101010001001011001101001001111110101011111101011010011100110001100 l"
b10011011111011110111100001111111111010100001110110010101010001001011001101001001111110101011111101011010011100110001100 D$
b10010011011010100111101100111101011100111100110000101100100010110110101111010111001101110000100010000110000011101100110111010100 z%
#68
b100011011011011100110010100011001101001100110010001011000010000000110100111000100010101110010010111111111111000101001011110011 '
b11010000010000100101101000010101000010111001111001110110111001000010001100100011001011101011001010100101000000010001001000001011 l"
b11010000010000100101101000010101000010111001111001110110111001000010001100100011001011101011001010100101000000010001001000001011 D$
b1101110010000100100001000010111111110010011010101001110001110011011100100111000100001000110011101000011101101001011100100111110 z%
#69
b1101110101100011100111100001010001111011001110001110010010110100101110101110010000001001110110010110001010100110010000011101110 '
b10010011011010100111101100111101011100111100110000101100100010110110101111010111001101110000100010000110000011101100110111010100 l"
b10010011011010100111101100111101011100111100110000101100100010110110101111010111001101110000100010000110000011101100110111010100 D$
b1110001010100000010101001010000000011000110011011000111010000011011101110110100100110111100100111011001100110000011011000000010 z%
#70
b111100110000110110010111000000000011101011101111101101110101010100111110001000000001001011101101100011100100000111100100110010 '
b1101110010000100100001000010111111110010011010101001110001110011011100100111000100001000110011101000011101101001011100100111110 l"
b1101110010000100100001000010111111110010011010101001110001110011011100100111000100001000110011101000011101101001011100100111110 D$
b11010110101011111110100001001000010110101000001000111000111011010010011000000111110111111010111100011001110101000010101111010101 z%
#71
b11010111001111000001101100001101111101011101011000100000001111010110101100110010001000100101111010000100110000001001011010001001 '
b1110001010100000010101001010000000011000110011011000111010000011011101110110100100110111100100111011001100110000011011000000010 l"
b1110001010100000010101001010000000011000110011011000111010000011011101110110100100110111100100111011001100110000011011000000010 D$
b1001100100001001010000000010010110011100110010000011100000110010110000100100000110011000000110000100110001110000111100010000010 z%
#72
b10011110110010110111010001110000111100110010110001110011001011001011010000000011100111011101110010101000100001000000001100 '
b11010110101011111110100001001000010110101000001000111000111011010010011000000111110111111010111100011001110101000010101111010101 l"
b11010110101011111110100001001000010110101000001000111000111011010010011000000111110111111010111100011001110101000010101111010101 D$
b1011101101000110011101011011000011100111001100000100110010010011001000100100001000010001011001011010011100111001010000001100010 z%
#73
b100100000111111111000100111010101101101010110000011001110011000001110101110101010100010111011111100000110001011001110 '
b1001100100001001010000000010010110011100110010000011100000110010110000100100000110011000000110000100110001110000111100010000010 l"
b1001100100001001010000000010010110011100110010000011100000110010110000100100000110011000000110000100110001110000111100010000010 D$
b10111000011110000001000100101000100111110001010011100010010111001001101100000101001101010101000101110101101000001111011011100011 z%
#74
b1011111111011101110001000111111100010101011000100111100000010001011111000010110010111101010011101110001000000010001001101101100 '
b1011101101000110011101011011000011100111001100000100110010010011001000100100001000010001011001011010011100111001010000001100010 l"
b1011101101000110011101011011000011100111001100000100110010010011001000100100001000010001011001011010011100111001010000001100010 D$
b100011011011011100110010100011001101001100110010001011000010000000110100111000100010101110010010111111111111000101001011110011 z%
#75
b10010101000111010001100111111011001111000000011111111111000011111101011110100001110010101100011011001101100011100001001000 '
b10111000011110000001000100101000100111110001010011100010010111001001101100000101001101010101000101110101101000001111011011100011 l"
b10111000011110000001000100101000100111110001010011100010010111001001101100000101001101010101000101110101101000001111011011100011 D$
b1101110101100011100111100001010001111011001110001110010010110100101110101110010000001001110110010110001010100110010000011101110 z%
#76
b1010100101000101 '
1k"
b100011011011011100110010100011001101001100110010001011000010000000110100111000100010101110010010111111111111000101001011110011 l"
b100011011011011100110010100011001101001100110010001011000010000000110100111000100010101110010010111111111111000101001011110011 D$
b111100110000110110010111000000000011101011101111101101110101010100111110001000000001001011101101100011100100000111100100110010 z%
b10 ^'
#77
b10010101000111010001100111111011001111000000011111111111000011111101011110100001110010101100011011001101100011100001001000 '
0i"
0k"
b1101110101100011100111100001010001111011001110001110010010110100101110101110010000001001110110010110001010100110010000011101110 l"
b1101110101100011100111100001010001111011001110001110010010110100101110101110010000001001110110010110001010100110010000011101110 D$
b11010111001111000001101100001101111101011101011000100000001111010110101100110010001000100101111010000100110000001001011010001001 z%
b0 R'
b0 ^'
#78
b10000000001010111011111110010000010011101110111011000000000000000000000010111111111111111111111111111111111111111111111111 '
1i"
b111100110000110110010111000000000011101011101111101101110101010100111110001000000001001011101101100011100100000111100100110010 l"
b111100110000110110010111000000000011101011101111101101110101010100111110001000000001001011101101100011100100000111100100110010 D$
b10011110110010110111010001110000111100110010110001110011001011001011010000000011100111011101110010101000100001000000001100 z%
b1 R'
b1 ^'
#79
b1010000000100100000000000000000000000010000101010000000011100100101000010000000000000000000000000000000000100000000000000000000 '
b11010111001111000001101100001101111101011101011000100000001111010110101100110010001000100101111010000100110000001001011010001001 l"
b11010111001111000001101100001101111101011101011000100000001111010110101100110010001000100101111010000100110000001001011010001001 D$
b100100000111111111000100111010101101101010110000011001110011000001110101110101010100010111011111100000110001011001110 z%
#80
b1000110000100010000110000000000000000000000010000000000010100000000000010001011111111110000111111111110111111110000110000010000 '
b10011110110010110111010001110000111100110010110001110011001011001011010000000011100111011101110010101000100001000000001100 l"
b10011110110010110111010001110000111100110010110001110011001011001011010000000011100111011101110010101000100001000000001100 D$
b1011111111011101110001000111111100010101011000100111100000010001011111000010110010111101010011101110001000000010001001101101100 z%
#81
b0 "
b1010010111110001110111010101111011000111010100100011010001110010011000101000101100110011111100111100101111011100100110001010100 '
b100100000111111111000100111010101101101010110000011001110011000001110101110101010100010111011111100000110001011001110 l"
b100100000111111111000100111010101101101010110000011001110011000001110101110101010100010111011111100000110001011001110 D$
b10010101000111010001100111111011001111000000011111111111000011111101011110100001110010101100011011001101100011100001001000 z%
#82
b1 "
b10101010010110100001111001011101001100101001110001110010101111010011010000010010100010010001110010110010101000110010100000100001 '
b1011111111011101110001000111111100010101011000100111100000010001011111000010110010111101010011101110001000000010001001101101100 l"
b1011111111011101110001000111111100010101011000100111100000010001011111000010110010111101010011101110001000000010001001101101100 D$
0O'
0P'
b0 ['
b0 g'
#83
b1111100000010011101000110111010111001110000010010111010011110111110011000100010011000111100110100111101110010000000000100101100 '
b10010101000111010001100111111011001111000000011111111111000011111101011110100001110010101100011011001101100011100001001000 l"
0A$
b10010101000111010001100111111011001111000000011111111111000011111101011110100001110010101100011011001101100011100001001000 D$
b1010100101000101 z%
1O'
1P'
1Q'
b0 U'
b1 ['
b0 a'
b10 g'
#84
b110110110110111001101111101001110000101111011101011011111011000111100010010011001001111010110111010010110100100011100110100100 '
1A$
b10000000001010111011111110010000010011101110111011000000000000000000000010111111111111111111111111111111111111111111111111 z%
0Q'
b1 U'
b1 a'
b1 g'
#85
b11011110011100111011001101100001110101111110010110101011101010110101101101010001000001110101010010101101011001001001000011110000 '
b1010100101000101 l"
1C$
b1010100101000101 D$
b1010000000100100000000000000000000000010000101010000000011100100101000010000000000000000000000000000000000100000000000000000000 z%
b10 a'
#86
b0 %
b11110011010011011111001000010110001111010110010111101100000010011000011101110101111000001100100101000010110010111010011010011110 '
b10000000001010111011111110010000010011101110111011000000000000000000000010111111111111111111111111111111111111111111111111 l"
0A$
0C$
b10000000001010111011111110010000010011101110111011000000000000000000000010111111111111111111111111111111111111111111111111 D$
b1000110000100010000110000000000000000000000010000000000010100000000000010001011111111110000111111111110111111110000110000010000 z%
b0 U'
b0 a'
#87
b10 %
b11100111100100010111010011110100011111000100000110111000100001110010011011100111111010001010011100101100101000110000110100010000 '
b1010000000100100000000000000000000000010000101010000000011100100101000010000000000000000000000000000000000100000000000000000000 l"
1A$
b1010000000100100000000000000000000000010000101010000000011100100101000010000000000000000000000000000000000100000000000000000000 D$
b1010010111110001110111010101111011000111010100100011010001110010011000101000101100110011111100111100101111011100100110001010100 z%
b1 U'
b1 a'
#88
b110101001101100100010011011110111111011000100111100110111010111001110110110111101010000100010010011010110110001111001001001 '
b1000110000100010000110000000000000000000000010000000000010100000000000010001011111111110000111111111110111111110000110000010000 l"
b1000110000100010000110000000000000000000000010000000000010100000000000010001011111111110000111111111110111111110000110000010000 D$
b10101010010110100001111001011101001100101001110001110010101111010011010000010010100010010001110010110010101000110010100000100001 z%
#89
b101110000010111010101011011011111001110100000000100010110101011110100010110111111101001101111001111100000011101110001010001010 '
b1010010111110001110111010101111011000111010100100011010001110010011000101000101100110011111100111100101111011100100110001010100 l"
b1010010111110001110111010101111011000111010100100011010001110010011000101000101100110011111100111100101111011100100110001010100 D$
b1111100000010011101000110111010111001110000010010111010011110111110011000100010011000111100110100111101110010000000000100101100 z%
#90
b110110010001111000000010001011001100110000111111100000101001100011001110110001100100110000011110111000010000011010000010000101 '
b10101010010110100001111001011101001100101001110001110010101111010011010000010010100010010001110010110010101000110010100000100001 l"
b10101010010110100001111001011101001100101001110001110010101111010011010000010010100010010001110010110010101000110010100000100001 D$
b110110110110111001101111101001110000101111011101011011111011000111100010010011001001111010110111010010110100100011100110100100 z%
#91
b100110001010101010111110000111110001101100101000110110010111011011000001110111001000010000110101010111110010011010001110100001 '
b1111100000010011101000110111010111001110000010010111010011110111110011000100010011000111100110100111101110010000000000100101100 l"
b1111100000010011101000110111010111001110000010010111010011110111110011000100010011000111100110100111101110010000000000100101100 D$
b11011110011100111011001101100001110101111110010110101011101010110101101101010001000001110101010010101101011001001001000011110000 z%
#92
b10010111111000110010001101101101011101110010111100100110111111100010110001101111000110011101010011011011011001111010110011001 '
b110110110110111001101111101001110000101111011101011011111011000111100010010011001001111010110111010010110100100011100110100100 l"
b110110110110111001101111101001110000101111011101011011111011000111100010010011001001111010110111010010110100100011100110100100 D$
b11110011010011011111001000010110001111010110010111101100000010011000011101110101111000001100100101000010110010111010011010011110 z%
