Looping_Hardware-design/project_1/.Xil/Vivado-24320-client32/hw_ila_data_2/zip_work/waveform.vcd
$date
        2022-Nov-25 18:13:46
$end
$version
        Vivado v2019.1 (64-bit)
$end
$timescale
        1ps
$end
$scope module dut $end
$var reg 4 " check_40G_sim_i/system_ila_1/inst/probe0_1 [3:0] $end
$var reg 8 & check_40G_sim_i/system_ila_1/inst/probe1_1 [7:0] $end
$var reg 128 . check_40G_sim_i/system_ila_1/inst/net_slot_0_axis_tdata [127:0] $end
$var reg 16 P" check_40G_sim_i/system_ila_1/inst/net_slot_0_axis_tkeep [15:0] $end
$var reg 1 `" check_40G_sim_i/system_ila_1/inst/net_slot_0_axis_tvalid $end
$var reg 1 a" check_40G_sim_i/system_ila_1/inst/net_slot_0_axis_tready $end
$var reg 1 b" check_40G_sim_i/system_ila_1/inst/net_slot_0_axis_tlast $end
$var reg 64 c" check_40G_sim_i/system_ila_1/inst/net_slot_1_axis_tdata [63:0] $end
$var reg 8 E# check_40G_sim_i/system_ila_1/inst/net_slot_1_axis_tkeep [7:0] $end
$var reg 8 M# check_40G_sim_i/system_ila_1/inst/net_slot_1_axis_tuser [7:0] $end
$var reg 1 U# check_40G_sim_i/system_ila_1/inst/net_slot_1_axis_tvalid $end
$var reg 1 V# check_40G_sim_i/system_ila_1/inst/net_slot_1_axis_tready $end
$var reg 1 W# check_40G_sim_i/system_ila_1/inst/net_slot_1_axis_tlast $end
$var reg 128 X# check_40G_sim_i/system_ila_1/inst/net_slot_2_axis_tdata [127:0] $end
$var reg 16 z$ check_40G_sim_i/system_ila_1/inst/net_slot_2_axis_tkeep [15:0] $end
$var reg 1 ,% check_40G_sim_i/system_ila_1/inst/net_slot_2_axis_tuser $end
$var reg 1 -% check_40G_sim_i/system_ila_1/inst/net_slot_2_axis_tvalid $end
$var reg 1 .% check_40G_sim_i/system_ila_1/inst/net_slot_2_axis_tready $end
$var reg 1 /% check_40G_sim_i/system_ila_1/inst/net_slot_2_axis_tlast $end
$var reg 128 0% check_40G_sim_i/system_ila_1/inst/net_slot_3_axis_tdata [127:0] $end
$var reg 16 R& check_40G_sim_i/system_ila_1/inst/net_slot_3_axis_tkeep [15:0] $end
$var reg 1 b& check_40G_sim_i/system_ila_1/inst/net_slot_3_axis_tvalid $end
$var reg 1 c& check_40G_sim_i/system_ila_1/inst/net_slot_3_axis_tready $end
$var reg 1 d& check_40G_sim_i/system_ila_1/inst/net_slot_3_axis_tlast $end
$var reg 3 e& Interface__i2_s0___uplane_packetiser_0_eth_data1_ [2:0] $end
$var reg 3 h& Interface__i2_s1___axis_data_fifo_5_M_AXIS_ [2:0] $end
$var reg 3 k& Interface__i2_s2___ethernet_mux_0_eth_data_out_ [2:0] $end
$var reg 3 n& Interface__i2_s3___tkeep_cleaner_FAPI_0_master_ [2:0] $end
$var reg 3 q& T_Channel__i2_s0___uplane_packetiser_0_eth_data1_ [2:0] $end
$var reg 3 t& T_Channel__i2_s1___axis_data_fifo_5_M_AXIS_ [2:0] $end
$var reg 3 w& T_Channel__i2_s2___ethernet_mux_0_eth_data_out_ [2:0] $end
$var reg 3 z& T_Channel__i2_s3___tkeep_cleaner_FAPI_0_master_ [2:0] $end
$var reg 1 }& _TRIGGER $end
$var reg 1 ~& _WINDOW $end
$var reg 1 !' _GAP $end
$upscope $end
$enddefinitions $end
#0
$dumpvars
b1101 "
b111 &
b1011000000000000000000000000000000000000000000000000000000000000000000000000000000000000000000000000000000000000000000000000000 .
b1111111111111111 P"
1`"
1a"
0b"
b1000101000000000000000000000000 c"
b11111111 E#
b0 M#
1U#
1V#
0W#
b101001000000000000000000000000 X#
b1111111111111111 z$
0,%
1-%
1.%
0/%
b1010110000000000000000000000000 0%
b1111111111111111 R&
1b&
0c&
0d&
b0 e&
b0 h&
b0 k&
b0 n&
b0 q&
b0 t&
b0 w&
b0 z&
0}&
1~&
0!'
$end
#1
b101 &
b1011001000000000000000000000000000000000000000000000000000000000000000000000000000000000000000000000000000000000000000000000000 .
0`"
0a"
b0 c"
b101010000000000000000000000000 X#
0-%
0.%
1c&
b1 h&
b1 n&
b1 t&
b1 z&
#2
1`"
1a"
b1000110000000000000000000000000 c"
1-%
1.%
b1010111000000000000000000000000 0%
0c&
b1 e&
b1 k&
b0 n&
b1 q&
b1 w&
b0 z&
#3
b110 &
b1011010000000000000000000000000000000000000000000000000000000000000000000000000000000000000000000000000000000000000000000000000 .
0`"
0a"
b0 c"
b101011000000000000000000000000 X#
0-%
0.%
1c&
b0 e&
b0 k&
b1 n&
b0 q&
b0 w&
b1 z&
#4
1`"
1a"
b1000111000000000000000000000000 c"
1-%
1.%
b1011000000000000000000000000000 0%
0c&
b1 e&
b1 k&
b0 n&
b1 q&
b1 w&
b0 z&
#5
b111 &
b1011011000000000000000000000000000000000000000000000000000000000000000000000000000000000000000000000000000000000000000000000000 .
0`"
0a"
b0 c"
b101100000000000000000000000000 X#
0-%
0.%
1c&
b0 e&
b0 k&
b1 n&
b0 q&
b0 w&
b1 z&
#6
1`"
1a"
b1001000000000000000000000000000 c"
1-%
1.%
b1011001000000000000000000000000 0%
0c&
b1 e&
b1 k&
b0 n&
b1 q&
b1 w&
b0 z&
#7
b101 &
b1011100000000000000000000000000000000000000000000000000000000000000000000000000000000000000000000000000000000000000000000000000 .
0`"
0a"
b0 c"
b101101000000000000000000000000 X#
0-%
0.%
1c&
b0 e&
b0 k&
b1 n&
b0 q&
b0 w&
b1 z&
#8
1`"
1a"
b1001001000000000000000000000000 c"
1-%
1.%
b1011010000000000000000000000000 0%
0c&
b1 e&
b1 k&
b0 n&
b1 q&
b1 w&
b0 z&
#9
b110 &
b1011101000000000000000000000000000000000000000000000000000000000000000000000000000000000000000000000000000000000000000000000000 .
0`"
0a"
b0 c"
b101110000000000000000000000000 X#
0-%
0.%
1c&
b0 e&
b0 k&
b1 n&
b0 q&
b0 w&
b1 z&
#10
1`"
1a"
b1001010000000000000000000000000 c"
1-%
1.%
b1011011000000000000000000000000 0%
0c&
b1 e&
b1 k&
b0 n&
b1 q&
b1 w&
b0 z&
#11
b111 &
b1011110000000000000000000000000000000000000000000000000000000000000000000000000000000000000000000000000000000000000000000000000 .
0`"
0a"
b0 c"
b101111000000000000000000000000 X#
0-%
0.%
1c&
b0 e&
b0 k&
b1 n&
b0 q&
b0 w&
b1 z&
#12
1`"
1a"
b1001011000000000000000000000000 c"
1-%
1.%
b1011100000000000000000000000000 0%
0c&
b1 e&
b1 k&
b0 n&
b1 q&
b1 w&
b0 z&
#13
b101 &
b1011111000000000000000000000000000000000000000000000000000000000000000000000000000000000000000000000000000000000000000000000000 .
0`"
0a"
b0 c"
b110000000000000000000000000000 X#
0-%
0.%
1c&
b0 e&
b0 k&
b1 n&
b0 q&
b0 w&
b1 z&
#14
1`"
1a"
b1001100000000000000000000000000 c"
1-%
1.%
b1011101000000000000000000000000 0%
0c&
b1 e&
b1 k&
b0 n&
b1 q&
b1 w&
b0 z&
#15
b110 &
b1100000000000000000000000000000000000000000000000000000000000000000000000000000000000000000000000000000000000000000000000000000 .
0`"
0a"
b0 c"
b110001000000000000000000000000 X#
0-%
0.%
1c&
b0 e&
b0 k&
b1 n&
b0 q&
b0 w&
b1 z&
#16
1`"
1a"
b1001101000000000000000000000000 c"
1-%
1.%
b1011110000000000000000000000000 0%
0c&
b1 e&
b1 k&
b0 n&
b1 q&
b1 w&
b0 z&
#17
b111 &
b1100001000000000000000000000000000000000000000000000000000000000000000000000000000000000000000000000000000000000000000000000000 .
0`"
0a"
b0 c"
b110010000000000000000000000000 X#
0-%
0.%
1c&
b0 e&
b0 k&
b1 n&
b0 q&
b0 w&
b1 z&
#18
1`"
1a"
b1001110000000000000000000000000 c"
1-%
1.%
b1011111000000000000000000000000 0%
0c&
b1 e&
b1 k&
b0 n&
b1 q&
b1 w&
b0 z&
#19
b101 &
b1100010000000000000000000000000000000000000000000000000000000000000000000000000000000000000000000000000000000000000000000000000 .
0`"
0a"
b0 c"
b110011000000000000000000000000 X#
0-%
0.%
1c&
b0 e&
b0 k&
b1 n&
b0 q&
b0 w&
b1 z&
#20
1`"
1a"
b1001111000000000000000000000000 c"
1-%
1.%
b1100000000000000000000000000000 0%
0c&
b1 e&
b1 k&
b0 n&
b1 q&
b1 w&
b0 z&
#21
b110 &
b1100011000000000000000000000000000000000000000000000000000000000000000000000000000000000000000000000000000000000000000000000000 .
0`"
0a"
b0 c"
b110100000000000000000000000000 X#
0-%
0.%
1c&
b0 e&
b0 k&
b1 n&
b0 q&
b0 w&
b1 z&
#22
1`"
1a"
b1010000000000000000000000000000 c"
1-%
1.%
b1100001000000000000000000000000 0%
0c&
b1 e&
b1 k&
b0 n&
b1 q&
b1 w&
b0 z&
#23
b111 &
b0 .
0`"
0a"
b0 c"
b110101000000000000000000000000 X#
0-%
0.%
1c&
b0 e&
b0 k&
b1 n&
b0 q&
b0 w&
b1 z&
#24
1`"
1a"
b1010001000000000000000000000000 c"
1-%
1.%
b1100010000000000000000000000000 0%
0c&
b1 e&
b1 k&
b0 n&
b1 q&
b1 w&
b0 z&
#25
b101 &
b1000000000000000000000000000000000000000000000000000000000000000000000000000000000000000000000000000000000000000000000000 .
0`"
0a"
b0 c"
b110110000000000000000000000000 X#
0-%
0.%
1c&
b0 e&
b0 k&
b1 n&
b0 q&
b0 w&
b1 z&
#26
1`"
1a"
b1010010000000000000000000000000 c"
1-%
1.%
b1100011000000000000000000000000 0%
0c&
b1 e&
b1 k&
b0 n&
b1 q&
b1 w&
b0 z&
#27
b110 &
b10000000000000000000000000000000000000000000000000000000000000000000000000000000000000000000000000000000000000000000000000 .
0`"
0a"
b0 c"
b110111000000000000000000000000 X#
0-%
0.%
1c&
b0 e&
b0 k&
b1 n&
b0 q&
b0 w&
b1 z&
#28
1`"
1a"
b1010011000000000000000000000000 c"
1-%
1.%
b0 0%
0c&
b1 e&
b1 k&
b0 n&
b1 q&
b1 w&
b0 z&
#29
b111 &
b11000000000000000000000000000000000000000000000000000000000000000000000000000000000000000000000000000000000000000000000000 .
0`"
0a"
b0 c"
b111000000000000000000000000000 X#
0-%
0.%
1c&
b0 e&
b0 k&
b1 n&
b0 q&
b0 w&
b1 z&
#30
1`"
1a"
b1010100000000000000000000000000 c"
1-%
1.%
b1000000000000000000000000 0%
0c&
b1 e&
b1 k&
b0 n&
b1 q&
b1 w&
b0 z&
#31
b101 &
b100000000000000000000000000000000000000000000000000000000000000000000000000000000000000000000000000000000000000000000000000 .
0`"
0a"
b0 c"
b111001000000000000000000000000 X#
0-%
0.%
1c&
b0 e&
b0 k&
b1 n&
b0 q&
b0 w&
b1 z&
#32
1`"
1a"
b1010101000000000000000000000000 c"
1-%
1.%
b10000000000000000000000000 0%
0c&
b1 e&
b1 k&
b0 n&
b1 q&
b1 w&
b0 z&
#33
b110 &
b101000000000000000000000000000000000000000000000000000000000000000000000000000000000000000000000000000000000000000000000000 .
0`"
0a"
b0 c"
b111010000000000000000000000000 X#
0-%
0.%
1c&
b0 e&
b0 k&
b1 n&
b0 q&
b0 w&
b1 z&
#34
1`"
1a"
b1010110000000000000000000000000 c"
1-%
1.%
b11000000000000000000000000 0%
0c&
b1 e&
b1 k&
b0 n&
b1 q&
b1 w&
b0 z&
#35
b111 &
b110000000000000000000000000000000000000000000000000000000000000000000000000000000000000000000000000000000000000000000000000 .
0`"
0a"
b0 c"
b111011000000000000000000000000 X#
0-%
0.%
1c&
b0 e&
b0 k&
b1 n&
b0 q&
b0 w&
b1 z&
#36
1`"
1a"
b1010111000000000000000000000000 c"
1-%
1.%
b100000000000000000000000000 0%
0c&
b1 e&
b1 k&
b0 n&
b1 q&
b1 w&
b0 z&
#37
b101 &
b111000000000000000000000000000000000000000000000000000000000000000000000000000000000000000000000000000000000000000000000000 .
0`"
0a"
b0 c"
b111100000000000000000000000000 X#
0-%
0.%
1c&
b0 e&
b0 k&
b1 n&
b0 q&
b0 w&
b1 z&
#38
1`"
1a"
b1011000000000000000000000000000 c"
1-%
1.%
b101000000000000000000000000 0%
0c&
b1 e&
b1 k&
b0 n&
b1 q&
b1 w&
b0 z&
#39
b110 &
b1000000000000000000000000000000000000000000000000000000000000000000000000000000000000000000000000000000000000000000000000000 .
0`"
0a"
b0 c"
b111101000000000000000000000000 X#
0-%
0.%
1c&
b0 e&
b0 k&
b1 n&
b0 q&
b0 w&
b1 z&
#40
1`"
1a"
b1011001000000000000000000000000 c"
1-%
1.%
b110000000000000000000000000 0%
0c&
b1 e&
b1 k&
b0 n&
b1 q&
b1 w&
b0 z&
#41
b111 &
b1001000000000000000000000000000000000000000000000000000000000000000000000000000000000000000000000000000000000000000000000000 .
0`"
0a"
b0 c"
b111110000000000000000000000000 X#
0-%
0.%
1c&
b0 e&
b0 k&
b1 n&
b0 q&
b0 w&
b1 z&
#42
1`"
1a"
b1011010000000000000000000000000 c"
1-%
1.%
b111000000000000000000000000 0%
0c&
b1 e&
b1 k&
b0 n&
b1 q&
b1 w&
b0 z&
#43
b101 &
b1010000000000000000000000000000000000000000000000000000000000000000000000000000000000000000000000000000000000000000000000000 .
0`"
0a"
b0 c"
b111111000000000000000000000000 X#
0-%
0.%
1c&
b0 e&
b0 k&
b1 n&
b0 q&
b0 w&
b1 z&
#44
1`"
1a"
b1011011000000000000000000000000 c"
1-%
1.%
b1000000000000000000000000000 0%
0c&
b1 e&
b1 k&
b0 n&
b1 q&
b1 w&
b0 z&
#45
b110 &
b1011000000000000000000000000000000000000000000000000000000000000000000000000000000000000000000000000000000000000000000000000 .
0`"
0a"
b0 c"
b1000000000000000000000000000000 X#
0-%
0.%
1c&
b0 e&
b0 k&
b1 n&
b0 q&
b0 w&
b1 z&
#46
1`"
1a"
b1011100000000000000000000000000 c"
1-%
1.%
b1001000000000000000000000000 0%
0c&
b1 e&
b1 k&
b0 n&
b1 q&
b1 w&
b0 z&
#47
b111 &
b1100000000000000000000000000000000000000000000000000000000000000000000000000000000000000000000000000000000000000000000000000 .
0`"
0a"
b0 c"
b1000001000000000000000000000000 X#
0-%
0.%
1c&
b0 e&
b0 k&
b1 n&
b0 q&
b0 w&
b1 z&
#48
1`"
1a"
b1011101000000000000000000000000 c"
1-%
1.%
b1010000000000000000000000000 0%
0c&
b1 e&
b1 k&
b0 n&
b1 q&
b1 w&
b0 z&
#49
b101 &
b1101000000000000000000000000000000000000000000000000000000000000000000000000000000000000000000000000000000000000000000000000 .
0`"
0a"
b0 c"
b1000010000000000000000000000000 X#
0-%
0.%
1c&
b0 e&
b0 k&
b1 n&
b0 q&
b0 w&
b1 z&
#50
1`"
1a"
b1011110000000000000000000000000 c"
1-%
1.%
b1011000000000000000000000000 0%
0c&
b1 e&
b1 k&
b0 n&
b1 q&
b1 w&
b0 z&
#51
b110 &
b1110000000000000000000000000000000000000000000000000000000000000000000000000000000000000000000000000000000000000000000000000 .
0`"
0a"
b0 c"
b1000011000000000000000000000000 X#
0-%
0.%
1c&
b0 e&
b0 k&
b1 n&
b0 q&
b0 w&
b1 z&
#52
1`"
1a"
b1011111000000000000000000000000 c"
1-%
1.%
b1100000000000000000000000000 0%
0c&
b1 e&
b1 k&
b0 n&
b1 q&
b1 w&
b0 z&
#53
b111 &
b1111000000000000000000000000000000000000000000000000000000000000000000000000000000000000000000000000000000000000000000000000 .
0`"
0a"
b0 c"
b1000100000000000000000000000000 X#
0-%
0.%
1c&
b0 e&
b0 k&
b1 n&
b0 q&
b0 w&
b1 z&
#54
1`"
1a"
b1100000000000000000000000000000 c"
1-%
1.%
b1101000000000000000000000000 0%
0c&
b1 e&
b1 k&
b0 n&
b1 q&
b1 w&
b0 z&
#55
b101 &
b10000000000000000000000000000000000000000000000000000000000000000000000000000000000000000000000000000000000000000000000000000 .
0`"
0a"
b0 c"
b1000101000000000000000000000000 X#
0-%
0.%
1c&
b0 e&
b0 k&
b1 n&
b0 q&
b0 w&
b1 z&
#56
1`"
1a"
b1100001000000000000000000000000 c"
1-%
1.%
b1110000000000000000000000000 0%
0c&
b1 e&
b1 k&
b0 n&
b1 q&
b1 w&
b0 z&
#57
b110 &
b10001000000000000000000000000000000000000000000000000000000000000000000000000000000000000000000000000000000000000000000000000 .
0`"
0a"
b0 c"
b1000110000000000000000000000000 X#
0-%
0.%
1c&
b0 e&
b0 k&
b1 n&
b0 q&
b0 w&
b1 z&
#58
1`"
1a"
b1100010000000000000000000000000 c"
1-%
1.%
b1111000000000000000000000000 0%
0c&
b1 e&
b1 k&
b0 n&
b1 q&
b1 w&
b0 z&
#59
b111 &
b10010000000000000000000000000000000000000000000000000000000000000000000000000000000000000000000000000000000000000000000000000 .
0`"
0a"
b0 c"
b1000111000000000000000000000000 X#
0-%
0.%
1c&
b0 e&
b0 k&
b1 n&
b0 q&
b0 w&
b1 z&
#60
1`"
1a"
b1100011000000000000000000000000 c"
1-%
1.%
b10000000000000000000000000000 0%
0c&
b1 e&
b1 k&
b0 n&
b1 q&
b1 w&
b0 z&
#61
b101 &
b10011000000000000000000000000000000000000000000000000000000000000000000000000000000000000000000000000000000000000000000000000 .
0`"
0a"
b0 c"
b1001000000000000000000000000000 X#
0-%
0.%
1c&
b0 e&
b0 k&
b1 n&
b0 q&
b0 w&
b1 z&
#62
1`"
1a"
1-%
1.%
b10001000000000000000000000000 0%
0c&
b1 e&
b1 k&
b0 n&
b1 q&
b1 w&
b0 z&
#63
b110 &
b10100000000000000000000000000000000000000000000000000000000000000000000000000000000000000000000000000000000000000000000000000 .
0`"
0a"
b1001001000000000000000000000000 X#
0-%
0.%
1c&
b0 e&
b0 k&
b1 n&
b0 q&
b0 w&
b1 z&
#64
1`"
1a"
b1000000000000000000000000 c"
1-%
1.%
b10010000000000000000000000000 0%
0c&
b1 e&
b1 k&
b0 n&
b1 q&
b1 w&
b0 z&
#65
b111 &
b10101000000000000000000000000000000000000000000000000000000000000000000000000000000000000000000000000000000000000000000000000 .
0`"
0a"
1b"
b0 c"
b1001010000000000000000000000000 X#
0-%
0.%
1c&
b0 e&
b0 k&
b1 n&
b0 q&
b0 w&
b1 z&
#66
1`"
1a"
b10000000000000000000000000 c"
1-%
1.%
b10011000000000000000000000000 0%
0c&
b1 e&
b1 k&
b0 n&
b10 q&
b1 w&
b0 z&
#67
b1 &
b1000000000000000010000001010101010100010000110011001000100001000100000000010001000100010000110011001000100001000100000000 .
0`"
0a"
0b"
b0 c"
b1001011000000000000000000000000 X#
0-%
0.%
1c&
b0 e&
b0 k&
b1 n&
b0 q&
b0 w&
b1 z&
#68
b11000000000000000000000000 c"
1-%
1.%
b10100000000000000000000000000 0%
0c&
b1 k&
b0 n&
b1 w&
b0 z&
#69
b0 c"
b1001100000000000000000000000000 X#
0-%
0.%
1c&
b0 k&
b1 n&
b0 w&
b1 z&
#70
b100000000000000000000000000 c"
1-%
1.%
b10101000000000000000000000000 0%
b1111 R&
0c&
1d&
b1 k&
b0 n&
b1 w&
b0 z&
#71
b0 c"
b1001101000000000000000000000000 X#
0-%
0.%
1c&
b0 k&
b1 n&
b0 w&
b10 z&
#72
1`"
1a"
b1101011011100100010100000001001000000101000000000000000000000000 c"
1-%
1.%
0b&
0c&
0d&
b1 e&
b1 k&
b0 n&
b1 q&
b1 w&
b0 z&
#73
b10 &
b11111111010101110 .
b1111 P"
0`"
0a"
b0 c"
b1001110000000000000000000000000 X#
0-%
0.%
1c&
b0 e&
b0 k&
b0 q&
b0 w&
#74
1`"
1a"
1-%
1.%
b1000000000000000010000001010101010100010000110011001000100001000100000000010001000100010000110011001000100001000100000000 0%
b1111111111111111 R&
1b&
b1 e&
b1 k&
b1 n&
b1 q&
b1 w&
b1 z&
#75
b11 &
b100000000000100001010000000000101 .
b1111111111111111 P"
b1001111000000000000000000000000 X#
0-%
0.%
b11111111010101110 0%
b1111 R&
0b&
b0 k&
b0 n&
b0 w&
b0 z&
#76
b101 &
b10110000000000000000000000000000000000000000000000000000000000000000000000000000000000000000000000000000000000000000000000000 .
b110000000000000000000000000 c"
1-%
1.%
b10000000000010000101000000000010100000000000000011111111010101110 0%
b1111111111111111 R&
1b&
b1 k&
b1 n&
b1 w&
b1 z&
#77
b110 &
b10111000000000000000000000000000000000000000000000000000000000000000000000000000000000000000000000000000000000000000000000000 .
b0 c"
b1010000000000000000000000000000 X#
0-%
0.%
b0 0%
b0 k&
b0 w&
#78
b111 &
b11000000000000000000000000000000000000000000000000000000000000000000000000000000000000000000000000000000000000000000000000000 .
b111000000000000000000000000 c"
1-%
1.%
b10110000000000000000000000000 0%
0c&
b1 k&
b0 n&
b1 w&
b0 z&
#79
b101 &
b11001000000000000000000000000000000000000000000000000000000000000000000000000000000000000000000000000000000000000000000000000 .
0`"
0a"
b0 c"
b1010001000000000000000000000000 X#
0-%
0.%
1c&
b0 e&
b0 k&
b1 n&
b0 q&
b0 w&
b1 z&
#80
1`"
1a"
b1000000000000000000000000000 c"
1-%
1.%
b10111000000000000000000000000 0%
0c&
b1 e&
b1 k&
b0 n&
b1 q&
b1 w&
b0 z&
#81
b110 &
b11010000000000000000000000000000000000000000000000000000000000000000000000000000000000000000000000000000000000000000000000000 .
0`"
0a"
b0 c"
1W#
b1010010000000000000000000000000 X#
0-%
0.%
1c&
b0 e&
b0 k&
b1 n&
b0 q&
b10 t&
b0 w&
b1 z&
#82
1`"
1a"
b1000100000000010001000100010000110011001000100001000100000000 c"
0W#
1-%
1.%
b11000000000000000000000000000 0%
0c&
b1 e&
b1 k&
b0 n&
b1 q&
b1 t&
b1 w&
b0 z&
#83
b111 &
b11011000000000000000000000000000000000000000000000000000000000000000000000000000000000000000000000000000000000000000000000000 .
0`"
0a"
b100000000000000001000000101010101010001000011001100100010 c"
b1010011000000000000000000000000 X#
0-%
0.%
1c&
b0 e&
b0 k&
b1 n&
b0 q&
b0 w&
b1 z&
#84
1`"
1a"
b10000101000000000010100000000000000011111111010101110 c"
1-%
1.%
b11001000000000000000000000000 0%
0c&
b1 e&
b1 k&
b0 n&
b1 q&
b1 w&
b0 z&
#85
b101 &
b11100000000000000000000000000000000000000000000000000000000000000000000000000000000000000000000000000000000000000000000000000 .
0`"
0a"
b1 c"
b1010100000000000000000000000000 X#
0-%
0.%
1c&
b0 e&
b0 k&
b1 n&
b0 q&
b0 w&
b1 z&
#86
1`"
1a"
b0 c"
1-%
1.%
b11010000000000000000000000000 0%
0c&
b1 e&
b1 k&
b0 n&
b1 q&
b1 w&
b0 z&
#87
b110 &
b11101000000000000000000000000000000000000000000000000000000000000000000000000000000000000000000000000000000000000000000000000 .
0`"
0a"
0V#
b1010101000000000000000000000000 X#
0-%
0.%
1c&
b0 e&
b0 h&
b0 k&
b1 n&
b0 q&
b0 t&
b0 w&
b1 z&
#88
1`"
1a"
1V#
1-%
1.%
b11011000000000000000000000000 0%
0c&
b1 e&
b1 h&
b1 k&
b0 n&
b1 q&
b1 t&
b1 w&
b0 z&
#89
b111 &
b11110000000000000000000000000000000000000000000000000000000000000000000000000000000000000000000000000000000000000000000000000 .
0`"
0a"
b1001000000000000000000000000 c"
0V#
b1010110000000000000000000000000 X#
0-%
0.%
1c&
b0 e&
b0 h&
b0 k&
b1 n&
b0 q&
b0 t&
b0 w&
b1 z&
#90
1`"
1a"
1V#
b11100000000000000000000000000 0%
0c&
b1 e&
b1 h&
b0 n&
b1 q&
b1 t&
b0 z&
#91
b101 &
b11111000000000000000000000000000000000000000000000000000000000000000000000000000000000000000000000000000000000000000000000000 .
0`"
0a"
b0 c"
0V#
b0 e&
b0 h&
b0 q&
b0 t&
#92
1V#
1-%
1.%
b1 h&
b1 k&
b1 t&
b1 w&
#93
b1010000000000000000000000000 c"
b1010111000000000000000000000000 X#
0-%
0.%
1c&
b0 k&
b1 n&
b0 w&
b1 z&
#94
1`"
1a"
b0 c"
b11101000000000000000000000000 0%
0c&
b1 e&
b0 n&
b1 q&
b0 z&
#95
b110 &
b100000000000000000000000000000000000000000000000000000000000000000000000000000000000000000000000000000000000000000000000000000 .
0`"
0a"
b1011000000000000000000000000 c"
1-%
1.%
b0 e&
b1 k&
b0 q&
b1 w&
#96
b0 c"
b1011000000000000000000000000000 X#
0-%
0.%
1c&
b0 k&
b1 n&
b0 w&
b1 z&
#97
1`"
1a"
b1100000000000000000000000000 c"
1-%
1.%
b11110000000000000000000000000 0%
0c&
b1 e&
b1 k&
b0 n&
b1 q&
b1 w&
b0 z&
#98
b111 &
b100001000000000000000000000000000000000000000000000000000000000000000000000000000000000000000000000000000000000000000000000000 .
0`"
0a"
b0 c"
b1011001000000000000000000000000 X#
0-%
0.%
1c&
b0 e&
b0 k&
b1 n&
b0 q&
b0 w&
b1 z&
#99
1`"
1a"
b1101000000000000000000000000 c"
1-%
1.%
b11111000000000000000000000000 0%
0c&
b1 e&
b1 k&
b0 n&
b1 q&
b1 w&
b0 z&
#100
b101 &
b100010000000000000000000000000000000000000000000000000000000000000000000000000000000000000000000000000000000000000000000000000 .
0`"
0a"
b0 c"
b1011010000000000000000000000000 X#
0-%
0.%
1c&
b0 e&
b0 k&
b1 n&
b0 q&
b0 w&
b1 z&
1}&
#101
1`"
1a"
b1110000000000000000000000000 c"
1-%
1.%
b100000000000000000000000000000 0%
0c&
b1 e&
b1 k&
b0 n&
b1 q&
b1 w&
b0 z&
#102
b110 &
b100011000000000000000000000000000000000000000000000000000000000000000000000000000000000000000000000000000000000000000000000000 .
0`"
0a"
b0 c"
b1011011000000000000000000000000 X#
0-%
0.%
1c&
b0 e&
b0 k&
b1 n&
b0 q&
b0 w&
b1 z&
#103
1`"
1a"
b1111000000000000000000000000 c"
1-%
1.%
b100001000000000000000000000000 0%
0c&
b1 e&
b1 k&
b0 n&
b1 q&
b1 w&
b0 z&
#104
b111 &
b100100000000000000000000000000000000000000000000000000000000000000000000000000000000000000000000000000000000000000000000000000 .
0`"
0a"
b0 c"
b1011100000000000000000000000000 X#
0-%
0.%
1c&
b0 e&
b0 k&
b1 n&
b0 q&
b0 w&
b1 z&
#105
1`"
1a"
b10000000000000000000000000000 c"
1-%
1.%
b100010000000000000000000000000 0%
0c&
b1 e&
b1 k&
b0 n&
b1 q&
b1 w&
b0 z&
#106
b101 &
b100101000000000000000000000000000000000000000000000000000000000000000000000000000000000000000000000000000000000000000000000000 .
0`"
0a"
b0 c"
b1011101000000000000000000000000 X#
0-%
0.%
1c&
b0 e&
b0 k&
b1 n&
b0 q&
b0 w&
b1 z&
#107
1`"
1a"
b10001000000000000000000000000 c"
1-%
1.%
b100011000000000000000000000000 0%
0c&
b1 e&
b1 k&
b0 n&
b1 q&
b1 w&
b0 z&
#108
b110 &
b100110000000000000000000000000000000000000000000000000000000000000000000000000000000000000000000000000000000000000000000000000 .
0`"
0a"
b0 c"
b1011110000000000000000000000000 X#
0-%
0.%
1c&
b0 e&
b0 k&
b1 n&
b0 q&
b0 w&
b1 z&
#109
1`"
1a"
b10010000000000000000000000000 c"
1-%
1.%
b100100000000000000000000000000 0%
0c&
b1 e&
b1 k&
b0 n&
b1 q&
b1 w&
b0 z&
#110
b111 &
b100111000000000000000000000000000000000000000000000000000000000000000000000000000000000000000000000000000000000000000000000000 .
0`"
0a"
b0 c"
b1011111000000000000000000000000 X#
0-%
0.%
1c&
b0 e&
b0 k&
b1 n&
b0 q&
b0 w&
b1 z&
#111
1`"
1a"
b10011000000000000000000000000 c"
1-%
1.%
b100101000000000000000000000000 0%
0c&
b1 e&
b1 k&
b0 n&
b1 q&
b1 w&
b0 z&
#112
b101 &
b101000000000000000000000000000000000000000000000000000000000000000000000000000000000000000000000000000000000000000000000000000 .
0`"
0a"
b0 c"
b1100000000000000000000000000000 X#
0-%
0.%
1c&
b0 e&
b0 k&
b1 n&
b0 q&
b0 w&
b1 z&
#113
1`"
1a"
b10100000000000000000000000000 c"
1-%
1.%
b100110000000000000000000000000 0%
0c&
b1 e&
b1 k&
b0 n&
b1 q&
b1 w&
b0 z&
#114
b110 &
b101001000000000000000000000000000000000000000000000000000000000000000000000000000000000000000000000000000000000000000000000000 .
0`"
0a"
b0 c"
b1100001000000000000000000000000 X#
0-%
0.%
1c&
b0 e&
b0 k&
b1 n&
b0 q&
b0 w&
b1 z&
#115
1`"
1a"
b10101000000000000000000000000 c"
1-%
1.%
b100111000000000000000000000000 0%
0c&
b1 e&
b1 k&
b0 n&
b1 q&
b1 w&
b0 z&
#116
b111 &
b101010000000000000000000000000000000000000000000000000000000000000000000000000000000000000000000000000000000000000000000000000 .
0`"
0a"
b0 c"
b1100010000000000000000000000000 X#
0-%
0.%
1c&
b0 e&
b0 k&
b1 n&
b0 q&
b0 w&
b1 z&
#117
1`"
1a"
b10110000000000000000000000000 c"
1-%
1.%
b101000000000000000000000000000 0%
0c&
b1 e&
b1 k&
b0 n&
b1 q&
b1 w&
b0 z&
#118
b101 &
b101011000000000000000000000000000000000000000000000000000000000000000000000000000000000000000000000000000000000000000000000000 .
0`"
0a"
b0 c"
b1100011000000000000000000000000 X#
0-%
0.%
1c&
b0 e&
b0 k&
b1 n&
b0 q&
b0 w&
b1 z&
#119
1`"
1a"
b10111000000000000000000000000 c"
1-%
1.%
b101001000000000000000000000000 0%
0c&
b1 e&
b1 k&
b0 n&
b1 q&
b1 w&
b0 z&
#120
b110 &
b101100000000000000000000000000000000000000000000000000000000000000000000000000000000000000000000000000000000000000000000000000 .
0`"
0a"
b0 c"
b0 X#
0-%
0.%
1c&
b0 e&
b0 k&
b1 n&
b0 q&
b0 w&
b1 z&
#121
1`"
1a"
b11000000000000000000000000000 c"
1-%
1.%
b101010000000000000000000000000 0%
0c&
b1 e&
b1 k&
b0 n&
b1 q&
b1 w&
b0 z&
