Looping_Hardware-design/project_1/.Xil/Vivado-25360-client70/hw_ila_data_1/zip_work/waveform.vcd
$date
        2021-Feb-15 10:48:47
$end
$version
        Vivado v2019.1 (64-bit)
$end
$timescale
        1ps
$end
$scope module dut $end
$var reg 8 " check_40G_sim_i/system_ila_0/inst/probe0_1 [7:0] $end
$var reg 4 * check_40G_sim_i/system_ila_0/inst/probe1_1 [3:0] $end
$var reg 2 . check_40G_sim_i/system_ila_0/inst/probe2_1 [1:0] $end
$var reg 12 0 check_40G_sim_i/system_ila_0/inst/probe3_1 [11:0] $end
$var reg 128 < check_40G_sim_i/system_ila_0/inst/net_slot_0_axis_tdata [127:0] $end
$var reg 70 ^" check_40G_sim_i/system_ila_0/inst/net_slot_0_axis_tuser [69:0] $end
$var reg 1 F# check_40G_sim_i/system_ila_0/inst/net_slot_0_axis_tvalid $end
$var reg 1 G# check_40G_sim_i/system_ila_0/inst/net_slot_0_axis_tready $end
$var reg 1 H# check_40G_sim_i/system_ila_0/inst/net_slot_0_axis_tlast $end
$var reg 128 I# check_40G_sim_i/system_ila_0/inst/net_slot_1_axis_tdata [127:0] $end
$var reg 16 k$ check_40G_sim_i/system_ila_0/inst/net_slot_1_axis_tkeep [15:0] $end
$var reg 1 {$ check_40G_sim_i/system_ila_0/inst/net_slot_1_axis_tuser $end
$var reg 1 |$ check_40G_sim_i/system_ila_0/inst/net_slot_1_axis_tvalid $end
$var reg 1 }$ check_40G_sim_i/system_ila_0/inst/net_slot_1_axis_tready $end
$var reg 1 ~$ check_40G_sim_i/system_ila_0/inst/net_slot_1_axis_tlast $end
$var reg 128 !% check_40G_sim_i/system_ila_0/inst/net_slot_2_axis_tdata [127:0] $end
$var reg 1 C& check_40G_sim_i/system_ila_0/inst/net_slot_2_axis_tvalid $end
$var reg 1 D& check_40G_sim_i/system_ila_0/inst/net_slot_2_axis_tready $end
$var reg 1 E& check_40G_sim_i/system_ila_0/inst/net_slot_2_axis_tlast $end
$var reg 128 F& check_40G_sim_i/system_ila_0/inst/net_slot_3_axis_tdata [127:0] $end
$var reg 70 h' check_40G_sim_i/system_ila_0/inst/net_slot_3_axis_tuser [69:0] $end
$var reg 1 P( check_40G_sim_i/system_ila_0/inst/net_slot_3_axis_tvalid $end
$var reg 1 Q( check_40G_sim_i/system_ila_0/inst/net_slot_3_axis_tlast $end
$var reg 3 R( Interface__i1_s0___axis_data_fifo_5_M_AXIS_ [2:0] $end
$var reg 3 U( Interface__i1_s1___uplane_packetiser_0_eth_data_ [2:0] $end
$var reg 3 X( Interface__i1_s2___cplane_packetizer_0_eth_data_ [2:0] $end
$var reg 3 [( Interface__i1_s3___l_ethernet_0_axis_rx_0_ [2:0] $end
$var reg 3 ^( T_Channel__i1_s0___axis_data_fifo_5_M_AXIS_ [2:0] $end
$var reg 3 a( T_Channel__i1_s1___uplane_packetiser_0_eth_data_ [2:0] $end
$var reg 3 d( T_Channel__i1_s2___cplane_packetizer_0_eth_data_ [2:0] $end
$var reg 3 g( T_Channel__i1_s3___l_ethernet_0_axis_rx_0_ [2:0] $end
$var reg 1 j( _TRIGGER $end
$var reg 1 k( _WINDOW $end
$var reg 1 l( _GAP $end
$upscope $end
$enddefinitions $end
#0
$dumpvars
b0 "
b0 *
b0 .
b0 0
b0 <
b0 ^"
0F#
1G#
0H#
b0 I#
b0 k$
0{$
0|$
1}$
0~$
b10000000001010111011111110010000010011101110111011000000000000000000000010111111111111111111111111111111111111111111111111 !%
0C&
1D&
0E&
b0 F&
b0 h'
0P(
0Q(
b0 R(
b0 U(
b0 X(
b0 [(
b0 ^(
b0 a(
b0 d(
b0 g(
0j(
1k(
0l(
$end
#3634
0G#
#3636
1G#
#8171
1C&
b1 X(
b1 d(
#8172
b1 "
b11010111011111110000000100000000000000000101110110011101101000001111111111111111111111111111111111111111111111111 I#
b1111111111111111 k$
1|$
b0 !%
0C&
b1 U(
b0 X(
b1 a(
b0 d(
#8173
b10 "
b1 *
b100001 0
b10000100000000010000000000000001000001100100000000011100000000001111010011001000000000000000010010010101001101 I#
#8174
b11 "
b0 0
b0 I#
b0 k$
0|$
b0 U(
b0 a(
#8175
b1111111111111111 k$
1|$
b1 U(
b1 a(
#8176
b100 "
b1 I#
#8177
b101 "
b10 I#
#8178
b110 "
b11 I#
b1 k$
#8179
b11 "
b0 I#
b1111111111111111 k$
#8180
b100 "
b100 I#
#8181
b101 "
b101 I#
#8182
b110 "
b110 I#
b1 k$
#8183
b11 "
b0 I#
b1111111111111111 k$
#8184
b100 "
b111 I#
#8185
b101 "
b1 .
b1000 I#
#8186
b110 "
b1001 I#
b1 k$
#8187
b11 "
b0 I#
b1111111111111111 k$
#8188
b100 "
b1010 I#
b110000000100100000000000000000000000010000101010000000011100100000010100000000000000000000000000000001000000000000000000000000 !%
1C&
b1 X(
b1 d(
#8189
b101 "
b1011 I#
b0 !%
0C&
b0 X(
b0 d(
#8190
b110 "
b1100 I#
b1 k$
b1110101000101010000010100000000000000000001000000000000010100000000000000001011111111110000111111111110111111110000100000000000 !%
1C&
b1 X(
b1 d(
#8191
b11 "
b0 I#
b1111111111111111 k$
b11010101111111111010111111111001011110101111101001010001010010001011111011111010100001001111100001100000101010101100000001010101 !%
#8192
b100 "
b10000000001010111011111110010000010011101110111011000000000000000000000010111111111111111111111111111111111111111111111111 <
b10111111111111111111111111111111111111111111111111 ^"
1F#
b1101 I#
b10001100011011101101111110110000111011111101110101111011101011100001101010111000100011110101101000000111111000110111000011100110 !%
b1 R(
b1 ^(
1j(
#8193
b101 "
0F#
b1110 I#
b1010000001110110111101111000010110011101101011011110101100011101010100110010100110111001011001111111001111010000111000000010001 !%
b0 R(
b0 ^(
#8194
b110 "
b1111 I#
b1 k$
b11101000101111111011111010111110100011110011001001010111101101110011101000010000100010000010101010001010011110110111011101100000 !%
#8195
b11 "
b0 I#
b1111111111111111 k$
b11000111100000110000101100011011100101100001100011110010100111111110010010110100101000010001000010000111110011110000101000011000 !%
#8196
b100 "
b10000 I#
b1110001101110011101111100000111101110111011011001011010001001101010110001100000000101111001101000111011111001000110101110110111 !%
#8197
b101 "
b10001 I#
b1100111110010000000101000001111110111000011100011100010111110101010110101101110111100111100010111001111011001001010000101111101 !%
#8198
b110 "
b10010 I#
b1 k$
b100001111011101110100011100011001001001010111011011100100000000010110001111100110001011011010011000010100101001000101110111011 !%
#8199
b11 "
b110000000100100000000000000000000000010000101010000000011100100000010100000000000000000000000000000001000000000000000000000000 <
b1100100000010100000000000000000000000000000001000000000000000000000000 ^"
1F#
b0 I#
b1111111111111111 k$
b1111110100111001100111110000111101011010111001000101010010101101101110010000000111101111011000100110101110010100110011110110000 !%
b1 R(
b1 ^(
#8200
b100 "
0F#
b10011 I#
b11110011000101000011010111011110111010010010001001010101001011110101111100100001111001000110010101101110111000010101111101111 !%
b0 R(
b0 ^(
#8201
b101 "
b1110101000101010000010100000000000000000001000000000000010100000000000000001011111111110000111111111110111111110000100000000000 <
b100000000000000001011111111110000111111111110111111110000100000000000 ^"
1F#
b10100 I#
b11101011010001101010010101010011000100010110011010010110111101001110001010111100001100011111001001110111111001111101111110110001 !%
b1 R(
b1 ^(
#8202
b110 "
b11010101111111111010111111111001011110101111101001010001010010001011111011111010100001001111100001100000101010101100000001010101 <
b10001011111011111010100001001111100001100000101010101100000001010101 ^"
b10101 I#
b1 k$
b1011001001100100101011010111101000001110011100111101000101000010111111001101011011001000100011101001110010001000100111110011010 !%
#8203
b11 "
b10001100011011101101111110110000111011111101110101111011101011100001101010111000100011110101101000000111111000110111000011100110 <
b1011100001101010111000100011110101101000000111111000110111000011100110 ^"
b0 I#
b1111111111111111 k$
b1011100111000100000011001001101010111011110011001101110010011000100101101110000011100000100110100001001011100110111010110111110 !%
#8204
b100 "
b1010000001110110111101111000010110011101101011011110101100011101010100110010100110111001011001111111001111010000111000000010001 <
b11101010100110010100110111001011001111111001111010000111000000010001 ^"
b10110 I#
b11010010000101110101111100100010111101101011110110011000100001001101101001000001100001011010010010011001111011010101111010000111 !%
#8205
b101 "
b11101000101111111011111010111110100011110011001001010111101101110011101000010000100010000010101010001010011110110111011101100000 <
b1101110011101000010000100010000010101010001010011110110111011101100000 ^"
b10111 I#
b1110010100010111110001110010000111001100100111000101010110100101100111011001110100000011011011100100000000101110001000101011000 !%
#8206
b110 "
b11000111100000110000101100011011100101100001100011110010100111111110010010110100101000010001000010000111110011110000101000011000 <
b111111110010010110100101000010001000010000111110011110000101000011000 ^"
b11000 I#
b1 k$
b100101000001000000000111001110101110110111101101001101001110001111100111000110111011010110100001000100101001100111101 !%
#8207
b11 "
b1110001101110011101111100000111101110111011011001011010001001101010110001100000000101111001101000111011111001000110101110110111 <
b1001101010110001100000000101111001101000111011111001000110101110110111 ^"
b0 I#
b1111111111111111 k$
b10111001100111010101000001100100101000101010010000100010110100111000110111101010100010010110010001001101110010001010100000101 !%
#8208
b100 "
b1100111110010000000101000001111110111000011100011100010111110101010110101101110111100111100010111001111011001001010000101111101 <
b1110101010110101101110111100111100010111001111011001001010000101111101 ^"
b11001 I#
b11011101001001111001100110001001010011111101010001000101000000001111010011101000000001100011001100011001001010101110101100101000 !%
#8209
b101 "
b100001111011101110100011100011001001001010111011011100100000000010110001111100110001011011010011000010100101001000101110111011 <
b10110001111100110001011011010011000010100101001000101110111011 ^"
b11010 I#
b11100000100101111001100001000000100111110111001011010111111101101100011011000111101110101101100001000001001100000010010111001101 !%
#8210
b110 "
b1111110100111001100111110000111101011010111001000101010010101101101110010000000111101111011000100110101110010100110011110110000 <
b101101101110010000000111101111011000100110101110010100110011110110000 ^"
b11011 I#
b1 k$
b101100010001101010110101010001101100110010110100100001111001001010101111111101011000000010010001001000011001010011000111010011 !%
#8211
b11 "
b11110011000101000011010111011110111010010010001001010101001011110101111100100001111001000110010101101110111000010101111101111 <
b1001011110101111100100001111001000110010101101110111000010101111101111 ^"
b0 I#
b1111111111111111 k$
b101111110000111101100011100111010010101110100010001010000001110010011011101010100111101011111111010010100111001000100101101101 !%
#8212
b100 "
b11101011010001101010010101010011000100010110011010010110111101001110001010111100001100011111001001110111111001111101111110110001 <
b1101001110001010111100001100011111001001110111111001111101111110110001 ^"
b11100 I#
b101111101000000000000101001001001000011011100000110101101101011010010111000000001100101010100001000100100010000001101101101001 !%
#8213
b101 "
b1011001001100100101011010111101000001110011100111101000101000010111111001101011011001000100011101001110010001000100111110011010 <
b1000010111111001101011011001000100011101001110010001000100111110011010 ^"
b11101 I#
b10101000101110000001101011000110000001000101001001001101010000100101010110101000111011010110010101001111011100000111000010100011 !%
#8214
b110 "
b1011100111000100000011001001101010111011110011001101110010011000100101101110000011100000100110100001001011100110111010110111110 <
b11000100101101110000011100000100110100001001011100110111010110111110 ^"
b11110 I#
b1 k$
b10010100000000011111000000010100110000111001010101101100011100110000000111111001001001101111000100001110110000101101011010111010 !%
#8215
b11 "
b11010010000101110101111100100010111101101011110110011000100001001101101001000001100001011010010010011001111011010101111010000111 <
b1001101101001000001100001011010010010011001111011010101111010000111 ^"
b0 I#
b1111111111111111 k$
b11111010011011011101011001111111111011100110111110010101110110100000000101110010110011001000100111000100000111100010010101000 !%
#8216
b100 "
b1110010100010111110001110010000111001100100111000101010110100101100111011001110100000011011011100100000000101110001000101011000 <
b100101100111011001110100000011011011100100000000101110001000101011000 ^"
b11111 I#
b1001001100101011101111101010001110111010001101111111110001001110000001011111111001101100010001011111100000010101000000011110100 !%
#8217
b101 "
b100101000001000000000111001110101110110111101101001101001110001111100111000110111011010110100001000100101001100111101 <
b1001101001110001111100111000110111011010110100001000100101001100111101 ^"
0G#
b100000 I#
b11010101101110000011111011111001101000101111111000000101111011111010001010001001010010000100110101100011000010110101110001101010 !%
b0 R(
b0 ^(
#8218
b110 "
1G#
b100001 I#
b1 k$
b1001000100101001101101011011101000010000101101100001010101101001001010100000101000110101111111000010111101101000001000001011110 !%
b1 R(
b1 ^(
#8219
b11 "
b10111001100111010101000001100100101000101010010000100010110100111000110111101010100010010110010001001101110010001010100000101 <
b110100111000110111101010100010010110010001001101110010001010100000101 ^"
b0 I#
b1111111111111111 k$
b11000011001011001111111111111101100110101101101110001101111000100000001001100010000010000110000011001110100100110011111011011101 !%
#8220
b100 "
b11011101001001111001100110001001010011111101010001000101000000001111010011101000000001100011001100011001001010101110101100101000 <
b1111010011101000000001100011001100011001001010101110101100101000 ^"
b100010 I#
b1100100010010000000111100001100110010110100011010001011100010011011011101000000101110000100100100001010111001100001111100101 !%
#8221
b101 "
b11100000100101111001100001000000100111110111001011010111111101101100011011000111101110101101100001000001001100000010010111001101 <
b1101101100011011000111101110101101100001000001001100000010010111001101 ^"
0G#
b100011 I#
b10110111101100000110101111011001011110011010110001101001011101010111100100111000110110100010100000111110000101111111101100010011 !%
b0 R(
b0 ^(
#8222
b110 "
1G#
b100100 I#
b1 k$
b10111100001111111111010100001110110010101010001001011001101001001111110101011111101011010011100110001100111101011010010101001100 !%
b1 R(
b1 ^(
#8223
b11 "
b101100010001101010110101010001101100110010110100100001111001001010101111111101011000000010010001001000011001010011000111010011 <
b1001001010101111111101011000000010010001001000011001010011000111010011 ^"
b0 I#
b1111111111111111 k$
b10101000010111001111001110110111001000010001100100011001011101011001010100101000000010001000100001010000000000100110111110111 !%
#8224
b100 "
b101111110000111101100011100111010010101110100010001010000001110010011011101010100111101011111111010010100111001000100101101101 <
b1110010011011101010100111101011111111010010100111001000100101101101 ^"
b100101 I#
b111101011100111100110000101100100010110110101111010111001101110000100010000110000011101100110111010100110100000100001001011010 !%
#8225
b101 "
b101111101000000000000101001001001000011011100000110101101101011010010111000000001100101010100001000100100010000001101101101001 <
b1101011010010111000000001100101010100001000100100010000001101101101001 ^"
b100110 I#
b10111111110010011010101001110001110011011100100111000100001000110011101000011101101001011100100111110100100110110101001111011 !%
#8226
b110 "
b10101000101110000001101011000110000001000101001001001101010000100101010110101000111011010110010101001111011100000111000010100011 <
b100101010110101000111011010110010101001111011100000111000010100011 ^"
b100111 I#
b1 k$
b1010000000011000110011011000111010000011011101110110100100110111100100111011001100110000011011000000010011011100100001001000010 !%
#8227
b11 "
b10010100000000011111000000010100110000111001010101101100011100110000000111111001001001101111000100001110110000101101011010111010 <
b1100110000000111111001001001101111000100001110110000101101011010111010 ^"
b0 I#
b1111111111111111 k$
b1001000010110101000001000111000111011010010011000000111110111111010111100011001110101000010101111010101011100010101000000101010 !%
#8228
b100 "
b11111010011011011101011001111111111011100110111110010101110110100000000101110010110011001000100111000100000111100010010101000 <
b1110110100000000101110010110011001000100111000100000111100010010101000 ^"
b101000 I#
b10010110011100110010000011100000110010110000100100000110011000000110000100110001110000111100010000010110101101010111111101000 !%
#8229
b101 "
b1001001100101011101111101010001110111010001101111111110001001110000001011111111001101100010001011111100000010101000000011110100 <
b1001110000001011111111001101100010001011111100000010101000000011110100 ^"
b101001 I#
b11011000011100111001100000100110010010011001000100100001000010001011001011010011100111001010000001100010010011001000010010100000 !%
#8230
b110 "
b11010101101110000011111011111001101000101111111000000101111011111010001010001001010010000100110101100011000010110101110001101010 <
b1011111010001010001001010010000100110101100011000010110101110001101010 ^"
b101010 I#
b1 k$
b101000100111110001010011100010010111001001101100000101001101010101000101110101101000001111011011100011010111011010001100111010 !%
#8231
b11 "
b1001000100101001101101011011101000010000101101100001010101101001001010100000101000110101111111000010111101101000001000001011110 <
b1101001001010100000101000110101111111000010111101101000001000001011110 ^"
b0 I#
b1111111111111111 k$
b10100011001101001100110010001011000010000000110100111000100010101110010010111111111111000101001011110011101110000111100000010001 !%
#8232
b100 "
b11000011001011001111111111111101100110101101101110001101111000100000001001100010000010000110000011001110100100110011111011011101 <
b1000100000001001100010000010000110000011001110100100110011111011011101 ^"
b101011 I#
b1010001111011001110001110010010110100101110101110010000001001110110010110001010100110010000011101110001000110110110111001100 !%
#8233
b101 "
b1100100010010000000111100001100110010110100011010001011100010011011011101000000101110000100100100001010111001100001111100101 <
b1100010011011011101000000101110000100100100001010111001100001111100101 ^"
b101100 I#
b11000000000011101011101111101101110101010100111110001000000001001011101101100011100100000111100100110010011011101011000111001111 !%
#8234
b110 "
b10110111101100000110101111011001011110011010110001101001011101010111100100111000110110100010100000111110000101111111101100010011 <
b1101010111100100111000110110100010100000111110000101111111101100010011 ^"
0G#
b101101 I#
b1 k$
b1101111101011101011000100000001111010110101100110010001000100101111010000100110000001001011010001001001111001100001101100101 !%
b0 R(
b0 ^(
#8235
b11 "
1G#
b0 I#
b1111111111111111 k$
b11010001110000111100110010110001110011001011001011010000000011100111011101110010101000100001000000001100110101110011110000011011 !%
b1 R(
b1 ^(
#8236
b100 "
b10111100001111111111010100001110110010101010001001011001101001001111110101011111101011010011100110001100111101011010010101001100 <
b1001001111110101011111101011010011100110001100111101011010010101001100 ^"
0G#
b101110 I#
b11111000100111010101101101010110000011001110011000001110101110101010100010111011111100000110001011001110000000100111101100101101 !%
b0 R(
b0 ^(
#8237
b101 "
1G#
b101111 I#
b111111100010101011000100111100000010001011111000010110010111101010011101110001000000010001001101101100000000000001001000001111 !%
b1 R(
b1 ^(
#8238
b110 "
b10101000010111001111001110110111001000010001100100011001011101011001010100101000000010001000100001010000000000100110111110111 <
b1011101011001010100101000000010001000100001010000000000100110111110111 ^"
b110000 I#
b1 k$
b1100111111011001111000000011111111111000011111101011110100001110010101100011011001101100011100001001000010111111110111011100010 !%
#8239
b11 "
b111101011100111100110000101100100010110110101111010111001101110000100010000110000011101100110111010100110100000100001001011010 <
b1101110000100010000110000011101100110111010100110100000100001001011010 ^"
b0 I#
b1111111111111111 k$
b1000101100110011111100111100101111011100100110001010100010001100001000100001011000000001010100101000101000000100101010001110100 !%
#8240
b100 "
b10111111110010011010101001110001110011011100100111000100001000110011101000011101101001011100100111110100100110110101001111011 <
b1000110011101000011101101001011100100111110100100110110101001111011 ^"
b110001 I#
b10010100010010001110010110010101000110010100000100001010100101111100011101110101011110110001110101001000110100011100100110001 !%
#8241
b101 "
b1010000000011000110011011000111010000011011101110110100100110111100100111011001100110000011011000000010011011100100001001000010 <
b110111100100111011001100110000011011000000010011011100100001001000010 ^"
b110010 I#
b100010011000111100110100111101110010000000000100101100101010100101101000011110010111010011001010011100011100101011110100110100 !%
#8242
b110 "
b1001000010110101000001000111000111011010010011000000111110111111010111100011001110101000010101111010101011100010101000000101010 <
b111111010111100011001110101000010101111010101011100010101000000101010 ^"
0G#
b110011 I#
b1 k$
b10010011001001111010110111010010110100100011100110100100011111000000100111010001101110101110011100000100101110100111101111100110 !%
b0 R(
b0 ^(
#8243
b11 "
1G#
b0 I#
b1111111111111111 k$
b1010001000001110101010010101101011001001001000011110000001101101101101110011011111010011100001011110111010110111110110001111000 !%
b1 R(
b1 ^(
#8244
b100 "
b10010110011100110010000011100000110010110000100100000110011000000110000100110001110000111100010000010110101101010111111101000 <
b11000000110000100110001110000111100010000010110101101010111111101000 ^"
b110100 I#
b1110101111000001100100101000010110010111010011010011110110111100111001110110011011000011101011111100101101010111010101101011011 !%
#8245
b101 "
b11011000011100111001100000100110010010011001000100100001000010001011001011010011100111001010000001100010010011001000010010100000 <
b10001011001011010011100111001010000001100010010011001000010010100000 ^"
b110101 I#
b11100111111010001010011100101100101000110000110100010000111100110100110111110010000101100011110101100101111011000000100110000111 !%
#8246
b110 "
b101000100111110001010011100010010111001001101100000101001101010101000101110101101000001111011011100011010111011010001100111010 <
b1101010101000101110101101000001111011011100011010111011010001100111010 ^"
b110110 I#
b1 k$
b10110110111101010000100010010011010110110001111001001001111001111001000101110100111101000111110001000001101110001000011100100110 !%
#8247
b11 "
b10100011001101001100110010001011000010000000110100111000100010101110010010111111111111000101001011110011101110000111100000010001 <
b10101110010010111111111111000101001011110011101110000111100000010001 ^"
b0 I#
b1111111111111111 k$
b10110111111101001101111001111100000011101110001010001010000001101010011011001000100110111101111110110001001111001101110101110011 !%
#8248
b100 "
b1010001111011001110001110010010110100101110101110010000001001110110010110001010100110010000011101110001000110110110111001100 <
b1001110110010110001010100110010000011101110001000110110110111001100 ^"
0G#
b110111 I#
b10110001100100110000011110111000010000011010000010000101001011100000101110101010110110111110011101000000001000101101010111101000 !%
b0 R(
b0 ^(
#8249
b101 "
1G#
b111000 I#
b1110111001000010000110101010111110010011010001110100001001101100100011110000000100010110011001100001111111000001010011000110011 !%
b1 R(
b1 ^(
#8250
b110 "
b11000000000011101011101111101101110101010100111110001000000001001011101101100011100100000111100100110010011011101011000111001111 <
b1001011101101100011100100000111100100110010011011101011000111001111 ^"
b111001 I#
b1 k$
b10001101111000110011101010011011011011001111010110011001001001100010101010101111100001111100011011001010001101100101110110110000 !%
#8251
b11 "
b1101111101011101011000100000001111010110101100110010001000100101111010000100110000001001011010001001001111001100001101100101 <
b1000100101111010000100110000001001011010001001001111001100001101100101 ^"
b0 I#
b1111111111111111 k$
b10110000110010000000010111001101100011111100100100111001000100101111110001100100011011011010111011100101111001001101111111000101 !%
#8252
b100 "
b11010001110000111100110010110001110011001011001011010000000011100111011101110010101000100001000000001100110101110011110000011011 <
b11100111011101110010101000100001000000001100110101110011110000011011 ^"
0G#
b111010 I#
b11110001001101011000010111010100001110101100100100100110101010010111010011010001000010001000110101101010011011101011001001000 !%
b0 R(
b0 ^(
#8253
b101 "
1G#
b111011 I#
b10100001001110010001101111101001010001110000110101101011001100010001000111110110001110001110001000010011011100001111001011111010 !%
b1 R(
b1 ^(
#8254
b110 "
b11111000100111010101101101010110000011001110011000001110101110101010100010111011111100000110001011001110000000100111101100101101 <
b1110101010100010111011111100000110001011001110000000100111101100101101 ^"
b111100 I#
b1 k$
b11000000011001010110001110000011001000100111101111010101111011001011000101110100101011110111100000101010111010111011101001111001 !%
#8255
b11 "
b111111100010101011000100111100000010001011111000010110010111101010011101110001000000010001001101101100000000000001001000001111 <
b111101010011101110001000000010001001101101100000000000001001000001111 ^"
b0 I#
b1111111111111111 k$
b1101110101101100000100000001110000100100001001000001011000000000100100010110110000000011000011111011100000111101110011011010101 !%
#8256
b100 "
b1100111111011001111000000011111111111000011111101011110100001110010101100011011001101100011100001001000010111111110111011100010 <
b1110010101100011011001101100011100001001000010111111110111011100010 ^"
b111101 I#
b11111010000010101111111000001100000000100111001011000101111000001100010001001011101000101000110011001110111101101111011111011 !%
#8257
b101 "
b1000101100110011111100111100101111011100100110001010100010001100001000100001011000000001010100101000101000000100101010001110100 <
b1100001000100001011000000001010100101000101000000100101010001110100 ^"
b111110 I#
b11100101101100110101110011110011010010110000001101001010110110000110101001000100010111110001011001111001000011110000110101110000 !%
#8258
b110 "
b10010100010010001110010110010101000110010100000100001010100101111100011101110101011110110001110101001000110100011100100110001 <
b100101111100011101110101011110110001110101001000110100011100100110001 ^"
b111111 I#
b1 k$
b10110001011101001001111001010011111000000001000101001111111100001010101010000100100011100001011110110111000000100111110011010 !%
#8259
b11 "
b100010011000111100110100111101110010000000000100101100101010100101101000011110010111010011001010011100011100101011110100110100 <
b1010100101101000011110010111010011001010011100011100101011110100110100 ^"
b0 I#
b1111111111111111 k$
b1000100110011111001111011010000000010010001001001101001101101100011000111100011110011000100110101010010001101111000100111110100 !%
#8260
b100 "
b10010011001001111010110111010010110100100011100110100100011111000000100111010001101110101110011100000100101110100111101111100110 <
b1111000000100111010001101110101110011100000100101110100111101111100110 ^"
b1000000 I#
b11000000100111101101101101101100101011001000010001000010100100010001110110110110010000111001001000001110111000101110010010101010 !%
#8261
b101 "
b1010001000001110101010010101101011001001001000011110000001101101101101110011011111010011100001011110111010110111110110001111000 <
b1101101101101110011011111010011100001011110111010110111110110001111000 ^"
b1000001 I#
b1000101000000001101110111000000011001111110100010111001000011010011000100111010000010010001001111111111010010011000110100 !%
#8262
b110 "
b1110101111000001100100101000010110010111010011010011110110111100111001110110011011000011101011111100101101010111010101101011011 <
b111100111001110110011011000011101011111100101101010111010101101011011 ^"
b1000010 I#
b1 k$
b10001111010001001011011100101101001100011001101100110111011000010000110010100001010101000111001001110101110011110111010000001100 !%
#8263
b11 "
b11100111111010001010011100101100101000110000110100010000111100110100110111110010000101100011110101100101111011000000100110000111 <
b1100110100110111110010000101100011110101100101111011000000100110000111 ^"
b0 I#
b1111111111111111 k$
b1010110011110000001010010100100011101100111110001010111001001000100101010001100001010001001011111001000001011101011001010111111 !%
#8264
b100 "
b10110110111101010000100010010011010110110001111001001001111001111001000101110100111101000111110001000001101110001000011100100110 <
b1001111001000101110100111101000111110001000001101110001000011100100110 ^"
b1000011 I#
b11000101110110110011111001100010100001000111110000010011011001101110100001111001000100111110010101100001111101100101010011000000 !%
#8265
b101 "
b10110111111101001101111001111100000011101110001010001010000001101010011011001000100110111101111110110001001111001101110101110011 <
b1101010011011001000100110111101111110110001001111001101110101110011 ^"
b1000100 I#
b10001010000010000100110010100100011110110010111010001100010110111111101000001011001100101111110000101010011100000100101000001100 !%
#8266
b110 "
b10110001100100110000011110111000010000011010000010000101001011100000101110101010110110111110011101000000001000101101010111101000 <
b1011100000101110101010110110111110011101000000001000101101010111101000 ^"
b1000101 I#
b1 k$
b10011001111101000111101000011110110110001010010110100111011000001011100100110100110010111110000100001010110111010011100011101111 !%
#8267
b11 "
b1110111001000010000110101010111110010011010001110100001001101100100011110000000100010110011001100001111111000001010011000110011 <
b1101100100011110000000100010110011001100001111111000001010011000110011 ^"
b0 I#
b1111111111111111 k$
b1010111111110001100011010010000111001110110100111010011111110100011110110110100101011100001110111010100101110101111100101110111 !%
#8268
b100 "
b10001101111000110011101010011011011011001111010110011001001001100010101010101111100001111100011011001010001101100101110110110000 <
b1001100010101010101111100001111100011011001010001101100101110110110000 ^"
b1000110 I#
b11111000001001101110001100000001110100001010000101000010100001100001010000101000110100001101001110110100101000000101000011010001 !%
#8269
b101 "
b10110000110010000000010111001101100011111100100100111001000100101111110001100100011011011010111011100101111001001101111111000101 <
b100101111110001100100011011011010111011100101111001001101111111000101 ^"
b1000111 I#
b11000111111111101000100100110011010011100001101110101101101001110011110000001110001111111101100111111010101101111000110000100101 !%
#8270
b110 "
b11110001001101011000010111010100001110101100100100100110101010010111010011010001000010001000110101101010011011101011001001000 <
b101010010111010011010001000010001000110101101010011011101011001001000 ^"
0G#
b1001000 I#
b1 k$
b1001001100101101100101101101001100101010001101101010100000110100010100011101010110000010010010110001011011110001100110100001 !%
b0 R(
b0 ^(
#8271
b11 "
1G#
b0 I#
b1111111111111111 k$
b1011110011110000100100110010111111111000110001001100111110100111111110000100001000011000 !%
1E&
b1 R(
b1 ^(
b10 d(
#8272
b100 "
b10100001001110010001101111101001010001110000110101101011001100010001000111110110001110001110001000010011011100001111001011111010 <
b1100010001000111110110001110001110001000010011011100001111001011111010 ^"
b1001001 I#
b10000000001010111011111110010000010011101110111011000000000000000000000010111111111111111111111111111111111111111111111111 !%
0E&
b1 d(
#8273
b101 "
b11000000011001010110001110000011001000100111101111010101111011001011000101110100101011110111100000101010111010111011101001111001 <
b1011001011000101110100101011110111100000101010111010111011101001111001 ^"
b1001010 I#
b1000000000100100000000000000000000000010000101010000000011100100000010100000000000000000000000000000001000000000000000000000000 !%
#8274
b110 "
b1101110101101100000100000001110000100100001001000001011000000000100100010110110000000011000011111011100000111101110011011010101 <
b100100010110110000000011000011111011100000111101110011011010101 ^"
0G#
b1001011 I#
b1 k$
b1101010000100010000110000000000000000000000010000000000010100000000000010001011111111110000111111111110111111110000100000001000 !%
b0 R(
b0 ^(
#8275
b11 "
1G#
b0 I#
b1111111111111111 k$
b111010110001111011101011110000101010000111110010110000010000111001011001101000000100001000100011011101010000100000111111100101 !%
b1 R(
b1 ^(
#8276
b100 "
b11111010000010101111111000001100000000100111001011000101111000001100010001001011101000101000110011001110111101101111011111011 <
b1111000001100010001001011101000101000110011001110111101101111011111011 ^"
0G#
b1001100 I#
b11000101001111111101100000111010101001001110001101110011000011101001100101010000000010110010001110001001111000001101111000100011 !%
b0 R(
b0 ^(
#8277
b101 "
1G#
b1001101 I#
b10101011011001100000010100111100110011101110101110000100100011011000011010001101011000011111010111100110111010101110010111100110 !%
b1 R(
b1 ^(
#8278
b110 "
b11100101101100110101110011110011010010110000001101001010110110000110101001000100010111110001011001111001000011110000110101110000 <
b110000110101001000100010111110001011001111001000011110000110101110000 ^"
b1001110 I#
b1 k$
b10000110010110000001110001101000101100010011011011010110010010011001111000100010010110011001100010011000001001110000000100101110 !%
#8279
b11 "
b10110001011101001001111001010011111000000001000101001111111100001010101010000100100011100001011110110111000000100111110011010 <
b1111100001010101010000100100011100001011110110111000000100111110011010 ^"
b0 I#
b1111111111111111 k$
b101011000101101111001000101110100101111011011011111001001111110010001101001001111111000010001100011010100011101010000010101100 !%
#8280
b100 "
b1000100110011111001111011010000000010010001001001101001101101100011000111100011110011000100110101010010001101111000100111110100 <
b1101100011000111100011110011000100110101010010001101111000100111110100 ^"
b1001111 I#
b10101001100111100011111010100001010011011010010001001011100101101011100011111111110100011110100110110011011000111001011001111011 !%
#8281
b101 "
b11000000100111101101101101101100101011001000010001000010100100010001110110110110010000111001001000001110111000101110010010101010 <
b100010001110110110110010000111001001000001110111000101110010010101010 ^"
0G#
b1010000 I#
b11111000001011010110111101100010100001011001010010100000100000001000011011011000111110101110011111110100010111000110100111101000 !%
b0 R(
b0 ^(
#8282
b110 "
1G#
b1010001 I#
b1 k$
b10001100001001100011010011100101000100101110010111110010001101010110101010010010000101000111010001011011000101100111100010011 !%
b1 R(
b1 ^(
#8283
b11 "
b1000101000000001101110111000000011001111110100010111001000011010011000100111010000010010001001111111111010010011000110100 <
b1001000011010011000100111010000010010001001111111111010010011000110100 ^"
b0 I#
b1111111111111111 k$
b1111000000101101011110010100001100011011010111000010101000011001100011110111011100011111111011011000111000100100100101100010101 !%
