Looping_Hardware-design/project_1/.Xil/Vivado-24320-client32/hw_ila_data_1/zip_work/waveform.vcd
$date
        2022-Nov-25 18:01:31
$end
$version
        Vivado v2019.1 (64-bit)
$end
$timescale
        1ps
$end
$scope module dut $end
$var reg 2 " check_40G_sim_i/system_ila_0/inst/probe0_1 [1:0] $end
$var reg 4 $ check_40G_sim_i/system_ila_0/inst/probe1_1 [3:0] $end
$var reg 8 ( check_40G_sim_i/system_ila_0/inst/probe2_1 [7:0] $end
$var reg 128 0 check_40G_sim_i/system_ila_0/inst/net_slot_0_axis_tdata [127:0] $end
$var reg 16 R" check_40G_sim_i/system_ila_0/inst/net_slot_0_axis_tkeep [15:0] $end
$var reg 1 b" check_40G_sim_i/system_ila_0/inst/net_slot_0_axis_tuser $end
$var reg 1 c" check_40G_sim_i/system_ila_0/inst/net_slot_0_axis_tvalid $end
$var reg 1 d" check_40G_sim_i/system_ila_0/inst/net_slot_0_axis_tready $end
$var reg 1 e" check_40G_sim_i/system_ila_0/inst/net_slot_0_axis_tlast $end
$var reg 128 f" check_40G_sim_i/system_ila_0/inst/net_slot_1_axis_tdata [127:0] $end
$var reg 16 *$ check_40G_sim_i/system_ila_0/inst/net_slot_1_axis_tkeep [15:0] $end
$var reg 1 :$ check_40G_sim_i/system_ila_0/inst/net_slot_1_axis_tuser $end
$var reg 1 ;$ check_40G_sim_i/system_ila_0/inst/net_slot_1_axis_tvalid $end
$var reg 1 <$ check_40G_sim_i/system_ila_0/inst/net_slot_1_axis_tready $end
$var reg 1 =$ check_40G_sim_i/system_ila_0/inst/net_slot_1_axis_tlast $end
$var reg 128 >$ check_40G_sim_i/system_ila_0/inst/net_slot_2_axis_tdata [127:0] $end
$var reg 1 `% check_40G_sim_i/system_ila_0/inst/net_slot_2_axis_tvalid $end
$var reg 1 a% check_40G_sim_i/system_ila_0/inst/net_slot_2_axis_tready $end
$var reg 1 b% check_40G_sim_i/system_ila_0/inst/net_slot_2_axis_tlast $end
$var reg 64 c% check_40G_sim_i/system_ila_0/inst/net_slot_3_axis_tdata [63:0] $end
$var reg 1 E& check_40G_sim_i/system_ila_0/inst/net_slot_3_axis_tvalid $end
$var reg 1 F& check_40G_sim_i/system_ila_0/inst/net_slot_3_axis_tready $end
$var reg 1 G& check_40G_sim_i/system_ila_0/inst/net_slot_3_axis_tlast $end
$var reg 128 H& check_40G_sim_i/system_ila_0/inst/net_slot_4_axis_tdata [127:0] $end
$var reg 1 j' check_40G_sim_i/system_ila_0/inst/net_slot_4_axis_tvalid $end
$var reg 1 k' check_40G_sim_i/system_ila_0/inst/net_slot_4_axis_tready $end
$var reg 1 l' check_40G_sim_i/system_ila_0/inst/net_slot_4_axis_tlast $end
$var reg 64 m' check_40G_sim_i/system_ila_0/inst/net_slot_5_axis_tdata [63:0] $end
$var reg 8 O( check_40G_sim_i/system_ila_0/inst/net_slot_5_axis_tkeep [7:0] $end
$var reg 1 W( check_40G_sim_i/system_ila_0/inst/net_slot_5_axis_tuser $end
$var reg 1 X( check_40G_sim_i/system_ila_0/inst/net_slot_5_axis_tvalid $end
$var reg 1 Y( check_40G_sim_i/system_ila_0/inst/net_slot_5_axis_tlast $end
$var reg 3 Z( Interface__i1_s0___ecpri_demux_0_control_data_out_ [2:0] $end
$var reg 3 ]( Interface__i1_s1___ecpri_demux_0_user_data_out_ [2:0] $end
$var reg 3 `( Interface__i1_s2___cplane_depacketizer_0_beam_data_ [2:0] $end
$var reg 3 c( Interface__i1_s3___cplane_depacketizer_0_beam_info_V_ [2:0] $end
$var reg 3 f( Interface__i1_s4___uplane_depacketiser_0_data_out_ [2:0] $end
$var reg 3 i( Interface__i1_s5___xxv_ethernet_0_axis_rx_0_ [2:0] $end
$var reg 3 l( T_Channel__i1_s0___ecpri_demux_0_control_data_out_ [2:0] $end
$var reg 3 o( T_Channel__i1_s1___ecpri_demux_0_user_data_out_ [2:0] $end
$var reg 3 r( T_Channel__i1_s2___cplane_depacketizer_0_beam_data_ [2:0] $end
$var reg 3 u( T_Channel__i1_s3___cplane_depacketizer_0_beam_info_V_ [2:0] $end
$var reg 3 x( T_Channel__i1_s4___uplane_depacketiser_0_data_out_ [2:0] $end
$var reg 3 {( T_Channel__i1_s5___xxv_ethernet_0_axis_rx_0_ [2:0] $end
$var reg 1 ~( _TRIGGER $end
$var reg 1 !) _WINDOW $end
$var reg 1 ") _GAP $end
$upscope $end
$enddefinitions $end
#0
$dumpvars
b1 "
b111 $
b110 (
b0 0
b1111111111111111 R"
0b"
0c"
1d"
0e"
b0 f"
b1111111111111111 *$
0:$
0;$
1<$
0=$
b0 >$
0`%
1a%
0b%
b0 c%
0E&
1F&
0G&
b0 H&
0j'
1k'
0l'
b1100000000000111000000010100000000000100001111111010101110 m'
b11111111 O(
0W(
1X(
0Y(
b11 Z(
b0 ](
b11 `(
b11 c(
b0 f(
b0 i(
b11 l(
b0 o(
b11 r(
b11 u(
b0 x(
b0 {(
0~(
1!)
0")
$end
#1
b111 (
1;$
b1011000000000000010100100001000000001110110 m'
b1 ](
b1 i(
b1 o(
b1 {(
#2
0;$
b1101100110110 m'
b0 ](
b0 o(
#3
b100 (
1;$
1j'
b0 m'
b1 ](
b1 f(
b1 o(
b1 x(
#4
0;$
0j'
b0 ](
b0 f(
b0 o(
b0 x(
#5
b101 (
1;$
1j'
b1 ](
b1 f(
b1 o(
b1 x(
#6
0;$
0j'
b0 ](
b0 f(
b0 o(
b0 x(
#7
b110 (
1;$
1j'
b1 ](
b1 f(
b1 o(
b1 x(
#8
0;$
0j'
b0 ](
b0 f(
b0 o(
b0 x(
#9
b111 (
1;$
b1 ](
b1 o(
#10
0;$
b0 ](
b0 o(
#11
b100 (
1;$
1j'
b1 ](
b1 f(
b1 o(
b1 x(
#12
0;$
0j'
b0 ](
b0 f(
b0 o(
b0 x(
#13
b101 (
b11011110001101110000000000000000000000000000000000000000000000000000000000000000000000000000000000000000000000000000000000000000 f"
1;$
1j'
b1 ](
b1 f(
b1 o(
b1 x(
#14
b10110101001101101101111000110111000000000000000000000000000000001011010100110110 f"
b111111111111 *$
1=$
0j'
b0 f(
b10 o(
b0 x(
#15
b110 (
0;$
1j'
b0 ](
b1 f(
b0 o(
b1 x(
#16
0j'
b0 f(
b0 x(
#17
b111 (
#18
b0 "
b100001111111010101110001100110100010000110011001000100001000100000000111111111111111111111111111111111111111111111111 f"
b1111111111111111 *$
1;$
0=$
b1 ](
b1 o(
#19
b100 (
0;$
b11011111011110 H&
1j'
b0 ](
b1 f(
b0 o(
b1 x(
#20
b101 (
b110110101101010000000000000000000000000000000000110111110111100011011010110101000000000000000000000000000000000000000000000000 H&
#21
b1 "
b1101100110110000000000000000000000101100000000000001010010000100000000111011000000011000000000001110000000101 f"
1;$
b101101010000000000000000000000000000000000110111110111100011011010110101000000000000000000000000000000000000000000000000 H&
0j'
b1 ](
b0 f(
b1 o(
b0 x(
#22
b0 f"
#23
0;$
b0 ](
b0 o(
#24
b110 (
1;$
b11111111111111111111111111111111111111111111111100000000000100010010001000110011010001000011001110101110111111100001000000000000 H&
1j'
b1 ](
b1 f(
b1 o(
b1 x(
#25
0;$
0j'
b0 ](
b0 f(
b0 o(
b0 x(
#26
1;$
b1 ](
b1 o(
#27
b111 (
0;$
b0 ](
b0 o(
#28
b100 (
1;$
b0 H&
1j'
b1 ](
b1 f(
b1 o(
b1 x(
#29
0;$
b11111111000000000000000000000000000000000000000000000000000000000000000000000000000000000000000000000000000000000000000000000000 H&
0j'
b0 ](
b0 f(
b0 o(
b0 x(
#30
b101 (
1;$
b0 H&
1j'
b1 ](
b1 f(
b1 o(
b1 x(
#31
0;$
b11111111000000000000000000000000000000000000000000000000000000000000000000000000000000000000000000000000000000000000000000000000 H&
0j'
b0 ](
b0 f(
b0 o(
b0 x(
#32
b110 (
1;$
b0 H&
1j'
b1 ](
b1 f(
b1 o(
b1 x(
#33
0;$
0j'
b0 ](
b0 f(
b0 o(
b0 x(
#34
b100 (
1;$
1j'
b1 ](
b1 f(
b1 o(
b1 x(
#35
0;$
0j'
b0 ](
b0 f(
b0 o(
b0 x(
#36
b101 (
1;$
1j'
b1 ](
b1 f(
b1 o(
b1 x(
#37
0;$
0j'
b0 ](
b0 f(
b0 o(
b0 x(
#38
b110 (
1;$
1j'
b1 ](
b1 f(
b1 o(
b1 x(
#39
0;$
0j'
b0 ](
b0 f(
b0 o(
b0 x(
#40
b100 (
1;$
1j'
b1 ](
b1 f(
b1 o(
b1 x(
#41
0;$
0j'
b0 ](
b0 f(
b0 o(
b0 x(
#42
b101 (
1;$
1j'
b1 ](
b1 f(
b1 o(
b1 x(
#43
0;$
0j'
b0 ](
b0 f(
b0 o(
b0 x(
#44
b110 (
1;$
1j'
b1 ](
b1 f(
b1 o(
b1 x(
#45
0;$
0j'
b0 ](
b0 f(
b0 o(
b0 x(
#46
b111 (
1;$
b1 ](
b1 o(
#47
0;$
b0 ](
b0 o(
#48
b100 (
1;$
1j'
b1 ](
b1 f(
b1 o(
b1 x(
#49
0;$
0j'
b0 ](
b0 f(
b0 o(
b0 x(
#50
b101 (
1;$
1j'
b1 ](
b1 f(
b1 o(
b1 x(
#51
0;$
0j'
b0 ](
b0 f(
b0 o(
b0 x(
#52
b110 (
1;$
1j'
b1 ](
b1 f(
b1 o(
b1 x(
#53
0;$
0j'
b0 ](
b0 f(
b0 o(
b0 x(
#54
b111 (
1;$
b1 ](
b1 o(
#55
0;$
b0 ](
b0 o(
#56
b100 (
1;$
1j'
b1 ](
b1 f(
b1 o(
b1 x(
#57
0;$
0j'
b0 ](
b0 f(
b0 o(
b0 x(
#58
b101 (
1;$
1j'
b1 ](
b1 f(
b1 o(
b1 x(
#59
0;$
0j'
b0 ](
b0 f(
b0 o(
b0 x(
#60
b110 (
1;$
1j'
b1 ](
b1 f(
b1 o(
b1 x(
#61
0;$
0j'
b0 ](
b0 f(
b0 o(
b0 x(
#62
b111 (
1;$
b1 ](
b1 o(
#63
0;$
b0 ](
b0 o(
#64
b100 (
1;$
1j'
b1 ](
b1 f(
b1 o(
b1 x(
#65
0;$
0j'
b0 ](
b0 f(
b0 o(
b0 x(
#66
b101 (
1;$
1j'
b1 ](
b1 f(
b1 o(
b1 x(
#67
0;$
0j'
b0 ](
b0 f(
b0 o(
b0 x(
#68
b110 (
1;$
1j'
b1 ](
b1 f(
b1 o(
b1 x(
#69
0;$
0j'
b0 ](
b0 f(
b0 o(
b0 x(
#70
b111 (
1;$
b1 ](
b1 o(
#71
0;$
b0 ](
b0 o(
#72
b100 (
1;$
1j'
b1 ](
b1 f(
b1 o(
b1 x(
#73
0;$
0j'
b0 ](
b0 f(
b0 o(
b0 x(
#74
b101 (
1;$
1j'
b1 ](
b1 f(
b1 o(
b1 x(
#75
0;$
0j'
b0 ](
b0 f(
b0 o(
b0 x(
#76
b110 (
1;$
1j'
b1 ](
b1 f(
b1 o(
b1 x(
#77
0;$
0j'
b0 ](
b0 f(
b0 o(
b0 x(
#78
b111 (
1;$
b1 ](
b1 o(
#79
0;$
b0 ](
b0 o(
#80
b100 (
1;$
1j'
b1 ](
b1 f(
b1 o(
b1 x(
#81
0;$
0j'
b0 ](
b0 f(
b0 o(
b0 x(
#82
b101 (
1;$
1j'
b1 ](
b1 f(
b1 o(
b1 x(
#83
0;$
0j'
b0 ](
b0 f(
b0 o(
b0 x(
#84
b110 (
1;$
1j'
b1 ](
b1 f(
b1 o(
b1 x(
#85
0;$
0j'
b0 ](
b0 f(
b0 o(
b0 x(
#86
b111 (
1;$
b1 ](
b1 o(
#87
0;$
b0 ](
b0 o(
#88
b100 (
1;$
1j'
b1 ](
b1 f(
b1 o(
b1 x(
#89
0;$
0j'
b0 ](
b0 f(
b0 o(
b0 x(
#90
b101 (
1;$
1j'
b1 ](
b1 f(
b1 o(
b1 x(
#91
0;$
0j'
b0 ](
b0 f(
b0 o(
b0 x(
#92
b110 (
1;$
1j'
1l'
b1 ](
b1 f(
b1 o(
b10 x(
#93
0;$
0j'
0l'
b0 ](
b0 f(
b0 o(
b0 x(
#94
b1001 (
1;$
b1 ](
b1 o(
#95
0;$
b0 ](
b0 o(
#96
b1 (
1;$
b1 ](
b1 o(
#97
0;$
b0 ](
b0 o(
#98
1;$
b1 ](
b1 o(
#99
0;$
b0 ](
b0 o(
#100
1;$
b1 ](
b1 o(
1~(
#101
0;$
b0 ](
b0 o(
#102
1;$
b1 ](
b1 o(
#103
0;$
b0 ](
b0 o(
#104
1;$
b1 ](
b1 o(
#105
0;$
b0 ](
b0 o(
#106
1;$
b1 ](
b1 o(
#107
0;$
b0 ](
b0 o(
#108
1;$
b1 ](
b1 o(
#109
0;$
b0 ](
b0 o(
#110
1;$
b1 ](
b1 o(
#111
0;$
b0 ](
b0 o(
#112
1;$
b1 ](
b1 o(
#113
0;$
b0 ](
b0 o(
#114
1;$
b1 ](
b1 o(
#115
0;$
b0 ](
b0 o(
#116
1;$
b1 ](
b1 o(
#117
0;$
b0 ](
b0 o(
#118
1;$
b1 ](
b1 o(
#119
0;$
b0 ](
b0 o(
#120
1;$
b1 ](
b1 o(
#121
0;$
b0 ](
b0 o(
#122
1;$
b1 ](
b1 o(
#123
0;$
b0 ](
b0 o(
#124
1;$
b1 ](
b1 o(
#125
0;$
b0 ](
b0 o(
#126
1;$
b1 ](
b1 o(
#127
0;$
b0 ](
b0 o(
#128
1;$
b1 ](
b1 o(
#129
0;$
b0 ](
b0 o(
#130
1;$
b1 ](
b1 o(
#131
0;$
b0 ](
b0 o(
#132
1;$
b1 ](
b1 o(
#133
0;$
b0 ](
b0 o(
#134
1;$
b1 ](
b1 o(
#135
0;$
b0 ](
b0 o(
#136
1;$
b1 ](
b1 o(
#137
0;$
b0 ](
b0 o(
#138
1;$
b1 ](
b1 o(
#139
0;$
b0 ](
b0 o(
#140
1;$
b1 ](
b1 o(
#141
0;$
b0 ](
b0 o(
#142
1;$
b1 ](
b1 o(
#143
0;$
b0 ](
b0 o(
#144
1;$
b1 ](
b1 o(
#145
0;$
b0 ](
b0 o(
#146
1;$
b1 ](
b1 o(
#147
0;$
b0 ](
b0 o(
#148
1;$
b1 ](
b1 o(
#149
0;$
b0 ](
b0 o(
#150
1;$
b1 ](
b1 o(
#151
0;$
b0 ](
b0 o(
#152
1;$
b1 ](
b1 o(
#153
0;$
b0 ](
b0 o(
#154
1;$
b1 ](
b1 o(
#155
0;$
b0 ](
b0 o(
#156
1;$
b1 ](
b1 o(
#157
0;$
b0 ](
b0 o(
#158
1;$
b1 ](
b1 o(
#159
0;$
b0 ](
b0 o(
#160
1;$
b1 ](
b1 o(
#161
0;$
b0 ](
b0 o(
#162
1;$
b1 ](
b1 o(
#163
0;$
b0 ](
b0 o(
#164
1;$
b10010111010011101010010001000000000000000000 m'
b11 O(
1Y(
b1 ](
b1 o(
b10 {(
#165
0;$
b1000100000000111111111111111111111111111111111111111111111111 m'
b11111111 O(
0X(
0Y(
b0 ](
b0 i(
b0 o(
b0 {(
#166
1;$
b1 ](
b1 o(
#167
0;$
1X(
b0 ](
b1 i(
b0 o(
b1 {(
#168
1;$
b100000000000000001000000100110011010001000011001100100010 m'
b1 ](
b1 o(
#169
0;$
b1100000000101111000000010000000000000100001111111010101110 m'
b0 ](
b0 o(
#170
1;$
b1011000000000000010100100001000000001110111 m'
b1 ](
b1 o(
#171
0;$
b1100101010001 m'
b0 ](
b0 o(
#172
1;$
b0 m'
b1 ](
b1 o(
#173
0;$
b0 ](
b0 o(
#174
1;$
b1 ](
b1 o(
#175
0;$
b0 ](
b0 o(
#176
1;$
b1 ](
b1 o(
#177
0;$
b0 ](
b0 o(
#178
1;$
b1 ](
b1 o(
#179
0;$
b0 ](
b0 o(
#180
1;$
b1 ](
b1 o(
#181
0;$
b0 ](
b0 o(
#182
b11101010010001000000000000000000000000000000000000000000000000000000000000000000000000000000000000000000000000000000000000000000 f"
1;$
b1 ](
b1 o(
#183
b1001011101001110101001000100000000000000000000000000000000000000100101110100 f"
b111111111111 *$
1=$
b10 o(
#184
0;$
b0 ](
b0 o(
#187
b0 "
b100001111111010101110001100110100010000110011001000100001000100000000111111111111111111111111111111111111111111111111 f"
b1111111111111111 *$
1;$
0=$
b1 ](
b1 o(
#188
0;$
b0 ](
b0 o(
#190
b1 "
b1100101010001000000000000000000000101100000000000001010010000100000000111011100000011000000001011110000000100 f"
1;$
b1 ](
b1 o(
#191
b0 f"
#192
0;$
b0 ](
b0 o(
#193
1;$
b1 ](
b1 o(
#194
0;$
b0 ](
b0 o(
#195
1;$
b1 ](
b1 o(
#196
b10 (
0;$
b0 ](
b0 o(
#197
b100 (
1;$
1j'
b1 ](
b1 f(
b1 o(
b1 x(
#198
0;$
0j'
b0 ](
b0 f(
b0 o(
b0 x(
#199
b101 (
1;$
1j'
b1 ](
b1 f(
b1 o(
b1 x(
#200
0;$
0j'
b0 ](
b0 f(
b0 o(
b0 x(
#201
b110 (
1;$
1j'
b1 ](
b1 f(
b1 o(
b1 x(
#202
0;$
0j'
b0 ](
b0 f(
b0 o(
b0 x(
#203
b111 (
1;$
b1 ](
b1 o(
#204
0;$
b0 ](
b0 o(
#205
b100 (
1;$
1j'
b1 ](
b1 f(
b1 o(
b1 x(
#206
0;$
0j'
b0 ](
b0 f(
b0 o(
b0 x(
#207
b101 (
1;$
1j'
b1 ](
b1 f(
b1 o(
b1 x(
#208
0;$
0j'
b0 ](
b0 f(
b0 o(
b0 x(
#209
b110 (
1;$
1j'
b1 ](
b1 f(
b1 o(
b1 x(
#210
0;$
0j'
b0 ](
b0 f(
b0 o(
b0 x(
#211
b111 (
1;$
b1 ](
b1 o(
#212
0;$
b0 ](
b0 o(
#213
b100 (
1;$
1j'
b1 ](
b1 f(
b1 o(
b1 x(
#214
0;$
0j'
b0 ](
b0 f(
b0 o(
b0 x(
#215
b101 (
1;$
1j'
b1 ](
b1 f(
b1 o(
b1 x(
#216
0;$
0j'
b0 ](
b0 f(
b0 o(
b0 x(
#217
b110 (
1;$
1j'
b1 ](
b1 f(
b1 o(
b1 x(
#218
0;$
0j'
b0 ](
b0 f(
b0 o(
b0 x(
#219
b111 (
1;$
b1 ](
b1 o(
#220
0;$
b0 ](
b0 o(
#221
b100 (
1;$
1j'
b1 ](
b1 f(
b1 o(
b1 x(
#222
0;$
0j'
b0 ](
b0 f(
b0 o(
b0 x(
#223
b101 (
1;$
1j'
b1 ](
b1 f(
b1 o(
b1 x(
#224
0;$
0j'
b0 ](
b0 f(
b0 o(
b0 x(
#225
b110 (
1;$
1j'
b1 ](
b1 f(
b1 o(
b1 x(
#226
0;$
0j'
b0 ](
b0 f(
b0 o(
b0 x(
#227
b111 (
1;$
b1 ](
b1 o(
#228
0;$
b0 ](
b0 o(
#229
b100 (
1;$
1j'
b1 ](
b1 f(
b1 o(
b1 x(
#230
0;$
0j'
b0 ](
b0 f(
b0 o(
b0 x(
#231
b101 (
1;$
1j'
b1 ](
b1 f(
b1 o(
b1 x(
#232
0;$
0j'
b0 ](
b0 f(
b0 o(
b0 x(
#233
b110 (
1;$
1j'
b1 ](
b1 f(
b1 o(
b1 x(
#234
0;$
0j'
b0 ](
b0 f(
b0 o(
b0 x(
#235
b111 (
1;$
b1 ](
b1 o(
#236
0;$
b0 ](
b0 o(
#237
b100 (
1;$
1j'
b1 ](
b1 f(
b1 o(
b1 x(
#238
0;$
0j'
b0 ](
b0 f(
b0 o(
b0 x(
#239
b101 (
1;$
1j'
b1 ](
b1 f(
b1 o(
b1 x(
#240
0;$
0j'
b0 ](
b0 f(
b0 o(
b0 x(
#241
b110 (
1;$
1j'
b1 ](
b1 f(
b1 o(
b1 x(
#242
0;$
0j'
b0 ](
b0 f(
b0 o(
b0 x(
#243
b111 (
1;$
b1 ](
b1 o(
#244
0;$
b0 ](
b0 o(
#245
b100 (
1;$
1j'
b1 ](
b1 f(
b1 o(
b1 x(
#246
0;$
0j'
b0 ](
b0 f(
b0 o(
b0 x(
#247
b101 (
1;$
1j'
b1 ](
b1 f(
b1 o(
b1 x(
#248
0;$
0j'
b0 ](
b0 f(
b0 o(
b0 x(
#249
b110 (
1;$
1j'
b1 ](
b1 f(
b1 o(
b1 x(
#250
0;$
0j'
b0 ](
b0 f(
b0 o(
b0 x(
#251
b111 (
1;$
b1 ](
b1 o(
#252
0;$
b0 ](
b0 o(
#253
b100 (
1;$
1j'
b1 ](
b1 f(
b1 o(
b1 x(
#254
0;$
0j'
b0 ](
b0 f(
b0 o(
b0 x(
#255
b101 (
1;$
1j'
b1 ](
b1 f(
b1 o(
b1 x(
#256
0;$
0j'
b0 ](
b0 f(
b0 o(
b0 x(
#257
b110 (
1;$
1j'
b1 ](
b1 f(
b1 o(
b1 x(
#258
0;$
0j'
b0 ](
b0 f(
b0 o(
b0 x(
#259
b111 (
1;$
b1 ](
b1 o(
#260
0;$
b0 ](
b0 o(
#261
b100 (
1;$
1j'
b1 ](
b1 f(
b1 o(
b1 x(
#262
0;$
0j'
b0 ](
b0 f(
b0 o(
b0 x(
#263
b101 (
1;$
1j'
b1 ](
b1 f(
b1 o(
b1 x(
#264
0;$
0j'
b0 ](
b0 f(
b0 o(
b0 x(
#265
b110 (
1;$
1j'
b1 ](
b1 f(
b1 o(
b1 x(
#266
0;$
0j'
b0 ](
b0 f(
b0 o(
b0 x(
#267
b111 (
1;$
b1 ](
b1 o(
#268
0;$
b0 ](
b0 o(
#269
b100 (
1;$
1j'
b1 ](
b1 f(
b1 o(
b1 x(
#270
0;$
0j'
b0 ](
b0 f(
b0 o(
b0 x(
#271
b101 (
1;$
1j'
b1 ](
b1 f(
b1 o(
b1 x(
#272
0;$
0j'
b0 ](
b0 f(
b0 o(
b0 x(
#273
b110 (
1;$
1j'
b1 ](
b1 f(
b1 o(
b1 x(
#274
0;$
0j'
b0 ](
b0 f(
b0 o(
b0 x(
#275
b111 (
1;$
b1 ](
b1 o(
#276
0;$
b0 ](
b0 o(
#277
b100 (
1;$
1j'
b1 ](
b1 f(
b1 o(
b1 x(
#278
0;$
0j'
b0 ](
b0 f(
b0 o(
b0 x(
#279
b101 (
1;$
1j'
b1 ](
b1 f(
b1 o(
b1 x(
#280
0;$
0j'
b0 ](
b0 f(
b0 o(
b0 x(
#281
b110 (
1;$
1j'
b1 ](
b1 f(
b1 o(
b1 x(
#282
0;$
0j'
b0 ](
b0 f(
b0 o(
b0 x(
#283
b111 (
1;$
b1 ](
b1 o(
#284
0;$
b0 ](
b0 o(
#285
b100 (
1;$
1j'
b1 ](
b1 f(
b1 o(
b1 x(
#286
0;$
0j'
b0 ](
b0 f(
b0 o(
b0 x(
#287
b101 (
1;$
1j'
b1 ](
b1 f(
b1 o(
b1 x(
#288
0;$
0j'
b0 ](
b0 f(
b0 o(
b0 x(
#289
b110 (
1;$
1j'
b1 ](
b1 f(
b1 o(
b1 x(
#290
0;$
0j'
b0 ](
b0 f(
b0 o(
b0 x(
#291
b111 (
1;$
b1 ](
b1 o(
#292
0;$
b0 ](
b0 o(
#293
b100 (
1;$
1j'
b1 ](
b1 f(
b1 o(
b1 x(
#294
0;$
0j'
b0 ](
b0 f(
b0 o(
b0 x(
#295
b101 (
1;$
1j'
b1 ](
b1 f(
b1 o(
b1 x(
#296
0;$
0j'
b0 ](
b0 f(
b0 o(
b0 x(
#297
b110 (
1;$
1j'
b1 ](
b1 f(
b1 o(
b1 x(
#298
0;$
0j'
b0 ](
b0 f(
b0 o(
b0 x(
#299
b111 (
1;$
b1 ](
b1 o(
#300
0;$
b0 ](
b0 o(
#301
b100 (
1;$
1j'
b1 ](
b1 f(
b1 o(
b1 x(
#302
0;$
0j'
b0 ](
b0 f(
b0 o(
b0 x(
#303
b101 (
1;$
1j'
b1 ](
b1 f(
b1 o(
b1 x(
#304
0;$
0j'
b0 ](
b0 f(
b0 o(
b0 x(
#305
b110 (
1;$
1j'
b1 ](
b1 f(
b1 o(
b1 x(
#306
0;$
0j'
b0 ](
b0 f(
b0 o(
b0 x(
#307
b111 (
1;$
b1 ](
b1 o(
#308
0;$
b0 ](
b0 o(
#309
b100 (
1;$
1j'
b1 ](
b1 f(
b1 o(
b1 x(
#310
0;$
0j'
b0 ](
b0 f(
b0 o(
b0 x(
#311
b101 (
1;$
1j'
b1 ](
b1 f(
b1 o(
b1 x(
#312
0;$
0j'
b0 ](
b0 f(
b0 o(
b0 x(
#313
b110 (
1;$
1j'
b1 ](
b1 f(
b1 o(
b1 x(
#314
0;$
0j'
b0 ](
b0 f(
b0 o(
b0 x(
#315
b111 (
1;$
b1 ](
b1 o(
#316
0;$
b0 ](
b0 o(
#317
b100 (
1;$
1j'
b1 ](
b1 f(
b1 o(
b1 x(
#318
0;$
0j'
b0 ](
b0 f(
b0 o(
b0 x(
#319
b101 (
1;$
1j'
b1 ](
b1 f(
b1 o(
b1 x(
#320
0;$
0j'
b0 ](
b0 f(
b0 o(
b0 x(
#321
b110 (
1;$
1j'
b100001001010011101001011011101110000000000000000 m'
b11 O(
1Y(
b1 ](
b1 f(
b1 o(
b1 x(
b10 {(
#322
0;$
0j'
b0 m'
b11111111 O(
0X(
0Y(
b0 ](
b0 f(
b0 i(
b0 o(
b0 x(
b0 {(
#323
b111 (
1;$
b1 ](
b1 o(
#324
0;$
b0 ](
b0 o(
#325
b100 (
1;$
1j'
b1 ](
b1 f(
b1 o(
b1 x(
#326
0;$
0j'
b0 ](
b0 f(
b0 o(
b0 x(
#327
b101 (
1;$
1j'
b1 ](
b1 f(
b1 o(
b1 x(
#328
0;$
0j'
b0 ](
b0 f(
b0 o(
b0 x(
#329
b110 (
1;$
1j'
b1 ](
b1 f(
b1 o(
b1 x(
#330
0;$
0j'
b0 ](
b0 f(
b0 o(
b0 x(
#331
b111 (
1;$
b1 ](
b1 o(
#332
0;$
b0 ](
b0 o(
#333
b100 (
1;$
1j'
b1 ](
b1 f(
b1 o(
b1 x(
#334
0;$
0j'
b0 ](
b0 f(
b0 o(
b0 x(
#335
b101 (
1;$
1j'
b1 ](
b1 f(
b1 o(
b1 x(
#336
0;$
0j'
b0 ](
b0 f(
b0 o(
b0 x(
#337
b110 (
1;$
1j'
b1 ](
b1 f(
b1 o(
b1 x(
#338
0;$
0j'
b0 ](
b0 f(
b0 o(
b0 x(
#339
b111 (
b1001011011101110000000000000000000000000000000000000000000000000000000000000000000000000000000000000000000000000000000000000000 f"
1;$
b1 ](
b1 o(
#340
b10000100101001110100101101110111000000000000000000000000000000001000010010100111 f"
b111111111111 *$
1=$
b10 o(
#341
b100 (
0;$
1j'
b0 ](
b1 f(
b0 o(
b1 x(
#342
0j'
b0 f(
b0 x(
#343
b101 (
1j'
b1 f(
b1 x(
#344
0j'
b0 f(
b0 x(
#345
b110 (
b111011101001011 H&
1j'
b1 f(
b1 x(
#346
b111 (
0j'
b0 f(
b0 x(
#9376
b1000100000000111111111111111111111111111111111111111111111111 m'
#9379
1X(
b1 i(
b1 {(
#9380
b100000000000000001000000100110011010001000011001100100010 m'
#9381
b111000000010100000000000100001111111010101110 m'
#9382
b1101000000000000010100100001000000001111000 m'
#9383
b1101100000000 m'
#9384
b0 m'
#9399
b0 "
b100001111111010101110001100110100010000110011001000100001000100000000111111111111111111111111111111111111111111111111 f"
b1111111111111111 *$
1;$
0=$
b1 ](
b1 o(
#9400
0;$
b0 ](
b0 o(
#9402
b1 "
b1101100000000000000000000000000000110100000000000001010010000100000000111100000000000000000000001110000000101 f"
1;$
b1 ](
b1 o(
#9403
b0 f"
b111011000001001100000000000100000000000000000000 m'
#9404
0;$
b1101000000010101110100100001000000001111000 m'
b0 ](
b0 o(
#9405
b100 (
1;$
b11111111111111111111111111111111111111111111111100000000000100010010001000110011010001000011001110101110111111100001000000000000 H&
1j'
b110101000000000 m'
b1 ](
b1 f(
b1 o(
b1 x(
#9406
0;$
b111111111111111111111111111111111111111100000000000100010010001000110011010001000011001110101110111111100001000000000000 H&
0j'
b0 m'
b0 ](
b0 f(
b0 o(
b0 x(
#9407
1;$
b1 ](
b1 o(
#9408
b101 (
0;$
b101000111000000000000000000011110001000000010010000000000101000000000000110000000000000000000000000000110110000000000000000 H&
1j'
b0 ](
b1 f(
b0 o(
b1 x(
#9409
b110 (
1;$
b0 H&
b1 ](
b1 o(
#9410
0;$
0j'
b0 ](
b0 f(
b0 o(
b0 x(
#9411
b111 (
1;$
b1 ](
b1 o(
#9412
0;$
b0 ](
b0 o(
#9413
b100 (
1;$
1j'
b1 ](
b1 f(
b1 o(
b1 x(
#9414
0;$
0j'
b0 ](
b0 f(
b0 o(
b0 x(
#9415
b101 (
1;$
1j'
b1 ](
b1 f(
b1 o(
b1 x(
#9416
0;$
0j'
b0 ](
b0 f(
b0 o(
b0 x(
#9417
b110 (
1;$
1j'
b1 ](
b1 f(
b1 o(
b1 x(
#9418
0;$
0j'
b0 ](
b0 f(
b0 o(
b0 x(
#9419
b111 (
1;$
b1 ](
b1 o(
#9420
0;$
b0 ](
b0 o(
#9421
b100 (
b100000000000000000000000000000000000000000000000000000000000000000000000000000000000000000000000000000000000000000000 f"
1;$
1j'
b1 ](
b1 f(
b1 o(
b1 x(
#9422
0;$
0j'
b0 ](
b0 f(
b0 o(
b0 x(
#9423
b101 (
b110101000000000000000000000000000000110100000001010111010010000100000000111100000000000000000001110110000010011 f"
1;$
1j'
b1 ](
b1 f(
b1 o(
b1 x(
#9424
0;$
0j'
b0 ](
b0 f(
b0 o(
b0 x(
#9425
b110 (
b0 f"
1;$
1j'
b1 ](
b1 f(
b1 o(
b1 x(
#9426
0;$
0j'
b0 ](
b0 f(
b0 o(
b0 x(
#9427
b111 (
1;$
b1 ](
b1 o(
#9428
0;$
b0 ](
b0 o(
