Looping_Hardware-design/project_1/.Xil/Vivado-15732-client70/hw_ila_data_1/zip_work/waveform.vcd
$date
        2021-Mar-10 18:19:27
$end
$version
        Vivado v2019.1 (64-bit)
$end
$timescale
        1ps
$end
$scope module dut $end
$var reg 3 " check_40G_sim_i/system_ila_0/inst/probe0_1 [2:0] $end
$var reg 128 % check_40G_sim_i/system_ila_0/inst/net_slot_0_axis_tdata [127:0] $end
$var reg 70 G" check_40G_sim_i/system_ila_0/inst/net_slot_0_axis_tuser [69:0] $end
$var reg 1 /# check_40G_sim_i/system_ila_0/inst/net_slot_0_axis_tvalid $end
$var reg 1 0# check_40G_sim_i/system_ila_0/inst/net_slot_0_axis_tready $end
$var reg 1 1# check_40G_sim_i/system_ila_0/inst/net_slot_0_axis_tlast $end
$var reg 128 2# check_40G_sim_i/system_ila_0/inst/net_slot_1_axis_tdata [127:0] $end
$var reg 70 T$ check_40G_sim_i/system_ila_0/inst/net_slot_1_axis_tuser [69:0] $end
$var reg 1 <% check_40G_sim_i/system_ila_0/inst/net_slot_1_axis_tvalid $end
$var reg 1 =% check_40G_sim_i/system_ila_0/inst/net_slot_1_axis_tready $end
$var reg 1 >% check_40G_sim_i/system_ila_0/inst/net_slot_1_axis_tlast $end
$var reg 3 ?% Interface__i1_s0___Ethernet_demux_0_cu_data_out_ [2:0] $end
$var reg 3 B% Interface__i1_s1___axis_data_fifo_8_M_AXIS_ [2:0] $end
$var reg 3 E% T_Channel__i1_s0___Ethernet_demux_0_cu_data_out_ [2:0] $end
$var reg 3 H% T_Channel__i1_s1___axis_data_fifo_8_M_AXIS_ [2:0] $end
$var reg 1 K% _TRIGGER $end
$var reg 1 L% _WINDOW $end
$var reg 1 M% _GAP $end
$upscope $end
$enddefinitions $end
#0
$dumpvars
b0 "
b0 %
b0 G"
0/#
10#
01#
b10000000001010111011111110010000010011101110111011000000000000000000000010111111111111111111111111111111111111111111111111 2#
b1000001101010101010101010101010101010101010101010101010111010101 T$
0<%
1=%
0>%
b0 ?%
b0 B%
b0 E%
b0 H%
0K%
1L%
0M%
$end
#97
1<%
b1 B%
b1 H%
#98
b110000000100100000000000000000000000010000101010000000011100100000010100000000000000000000000000000001000000000000000000000000 2#
b1000000101010101010101010101010101010101010101010101010111010101 T$
#99
b1110101000100010000101000000000000000000000100000000000010100000000000010001011111111110000111111111110111111110000100000000000 2#
#100
b10000000001010111011111110010000010011101110111011000000000000000000000010111111111111111111111111111111111111111111111111 %
b1000001101010101010101010101010101010101010101010101010111010101 G"
1/#
b11010101111111111010111111111001011110101111101001010001010010001011111011111010100001001111100001100000101010101100000001010101 2#
b1 ?%
b1 E%
1K%
#101
b1 "
b110000000100100000000000000000000000010000101010000000011100100000010100000000000000000000000000000001000000000000000000000000 %
b1000000101010101010101010101010101010101010101010101010111010101 G"
b10001100011011101101111110110000111011111101110101111011101011100001101010111000100011110101101000000111111000110111000011100110 2#
#102
b1110101000100010000101000000000000000000000100000000000010100000000000010001011111111110000111111111110111111110000100000000000 %
b1010000001110110111101111000010110011101101011011110101100011101010100110010100110111001011001111111001111010000111000000010001 2#
#103
b11010101111111111010111111111001011110101111101001010001010010001011111011111010100001001111100001100000101010101100000001010101 %
b11101000101111111011111010111110100011110011001001010111101101110011101000010000100010000010101010001010011110110111011101100000 2#
#104
b10001100011011101101111110110000111011111101110101111011101011100001101010111000100011110101101000000111111000110111000011100110 %
b11000111100000110000101100011011100101100001100011110010100111111110010010110100101000010001000010000111110011110000101000011000 2#
#105
b1010000001110110111101111000010110011101101011011110101100011101010100110010100110111001011001111111001111010000111000000010001 %
b1110001101110011101111100000111101110111011011001011010001001101010110001100000000101111001101000111011111001000110101110110111 2#
#106
b11101000101111111011111010111110100011110011001001010111101101110011101000010000100010000010101010001010011110110111011101100000 %
b1100111110010000000101000001111110111000011100011100010111110101010110101101110111100111100010111001111011001001010000101111101 2#
#107
b11000111100000110000101100011011100101100001100011110010100111111110010010110100101000010001000010000111110011110000101000011000 %
b100001111011101110100011100011001001001010111011011100100000000010110001111100110001011011010011000010100101001000101110111011 2#
#108
b1110001101110011101111100000111101110111011011001011010001001101010110001100000000101111001101000111011111001000110101110110111 %
b1111110100111001100111110000111101011010111001000101010010101101101110010000000111101111011000100110101110010100110011110110000 2#
#109
b1100111110010000000101000001111110111000011100011100010111110101010110101101110111100111100010111001111011001001010000101111101 %
b11110011000101000011010111011110111010010010001001010101001011110101111100100001111001000110010101101110111000010101111101111 2#
#110
b100001111011101110100011100011001001001010111011011100100000000010110001111100110001011011010011000010100101001000101110111011 %
b11101011010001101010010101010011000100010110011010010110111101001110001010111100001100011111001001110111111001111101111110110001 2#
#111
b1111110100111001100111110000111101011010111001000101010010101101101110010000000111101111011000100110101110010100110011110110000 %
b1011001001100100101011010111101000001110011100111101000101000010111111001101011011001000100011101001110010001000100111110011010 2#
#112
b11110011000101000011010111011110111010010010001001010101001011110101111100100001111001000110010101101110111000010101111101111 %
b1011100111000100000011001001101010111011110011001101110010011000100101101110000011100000100110100001001011100110111010110111110 2#
#113
b11101011010001101010010101010011000100010110011010010110111101001110001010111100001100011111001001110111111001111101111110110001 %
b11010010000101110101111100100010111101101011110110011000100001001101101001000001100001011010010010011001111011010101111010000111 2#
#114
b1011001001100100101011010111101000001110011100111101000101000010111111001101011011001000100011101001110010001000100111110011010 %
b1110010100010111110001110010000111001100100111000101010110100101100111011001110100000011011011100100000000101110001000101011000 2#
#115
b1011100111000100000011001001101010111011110011001101110010011000100101101110000011100000100110100001001011100110111010110111110 %
b100101000001000000000111001110101110110111101101001101001110001111100111000110111011010110100001000100101001100111101 2#
#116
b11010010000101110101111100100010111101101011110110011000100001001101101001000001100001011010010010011001111011010101111010000111 %
b0 2#
b101000000101010101010101010101010101010101010101010101010111010101 T$
#117
b1110010100010111110001110010000111001100100111000101010110100101100111011001110100000011011011100100000000101110001000101011000 %
b10000000001010111011111110010000010011101110111011000000000000000000000010111111111111111111111111111111111111111111111111 2#
b1000001101010101010101010101010101010101010101010101010111010101 T$
#118
b100101000001000000000111001110101110110111101101001101001110001111100111000110111011010110100001000100101001100111101 %
b1000000000100100000000000000000000000010000101010000000011100100000010100000000000000000000000000000001000000000000000000000000 2#
b1000000101010101010101010101010101010101010101010101010111010101 T$
#119
b0 %
b101000000101010101010101010101010101010101010101010101010111010101 G"
b10111001000100010000101100000000000000000000010000000000010100000000000010001011111111110000111111111110111111110000100000001000 2#
#120
b0 "
b10000000001010111011111110010000010011101110111011000000000000000000000010111111111111111111111111111111111111111111111111 %
b1000001101010101010101010101010101010101010101010101010111010101 G"
b101010111010110010100000010111001100111010101000001100100101000101010010000100010110100111000110111101010100010010110010001001 2#
#121
b1 "
b1000000000100100000000000000000000000010000101010000000011100100000010100000000000000000000000000000001000000000000000000000000 %
b1000000101010101010101010101010101010101010101010101010111010101 G"
b110000001001011100110111011101001001111001100110001001010011111101010001000101000000001111010011101000000001100011001100011001 2#
#122
b10111001000100010000101100000000000000000000010000000000010100000000000010001011111111110000111111111110111111110000100000001000 %
b1100101001100011101001111100000100101111001100001000000100111110111001011010111111101101100011011000111101110101101100001000001 2#
#123
b101010111010110010100000010111001100111010101000001100100101000101010010000100010110100111000110111101010100010010110010001001 %
b10011100100010010110110100101100010001101010110101010001101100110010110100100001111001001010101111111101011000000010010001001000 2#
#124
b110000001001011100110111011101001001111001100110001001010011111101010001000101000000001111010011101000000001100011001100011001 %
b10001000000110110110100100101111110000111101100011100111010010101110100010001010000001110010011011101010100111101011111111010010 2#
#125
b1100101001100011101001111100000100101111001100001000000100111110111001011010111111101101100011011000111101110101101100001000001 %
b1110000011100001010001100101111101000000000000101001001001000011011100000110101101101011010010111000000001100101010100001000100 2#
#126
b10011100100010010110110100101100010001101010110101010001101100110010110100100001111001001010101111111101011000000010010001001000 %
b11000010110101101011101010101000101110000001101011000110000001000101001001001101010000100101010110101000111011010110010101001111 2#
#127
b10001000000110110110100100101111110000111101100011100111010010101110100010001010000001110010011011101010100111101011111111010010 %
b10000011110001001010100010010100000000011111000000010100110000111001010101101100011100110000000111111001001001101111000100001110 2#
#128
b1110000011100001010001100101111101000000000000101001001001000011011100000110101101101011010010111000000001100101010100001000100 %
b1010100000001111010000011111010011011011101011001111111111011100110111110010101110110100000000101110010110011001000100111000 2#
#129
b11000010110101101011101010101000101110000001101011000110000001000101001001001101010000100101010110101000111011010110010101001111 %
b1011010111000110101001001001100101011101111101010001110111010001101111111110001001110000001011111111001101100010001011111100 2#
#130
b10000011110001001010100010010100000000011111000000010100110000111001010101101100011100110000000111111001001001101111000100001110 %
b10110100000100000101111011010101101110000011111011111001101000101111111000000101111011111010001010001001010010000100110101100011 2#
#131
b1010100000001111010000011111010011011011101011001111111111011100110111110010101110110100000000101110010110011001000100111000 %
b10010011001111101101110101001000100101001101101011011101000010000101101100001010101101001001010100000101000110101111111000010111 2#
#132
b1011010111000110101001001001100101011101111101010001110111010001101111111110001001110000001011111111001101100010001011111100 %
b1011100110000111110010111000011001011001111111111111101100110101101101110001101111000100000001001100010000010000110000011001110 2#
#133
b10110100000100000101111011010101101110000011111011111001101000101111111000000101111011111010001010001001010010000100110101100011 %
b10111111110110001001100001100100010010000000111100001100110010110100011010001011100010011011011101000000101110000100100100001 2#
#134
b10010011001111101101110101001000100101001101101011011101000010000101101100001010101101001001010100000101000110101111111000010111 %
b11110101101001010100110010110111101100000110101111011001011110011010110001101001011101010111100100111000110110100010100000111110 2#
#135
b1011100110000111110010111000011001011001111111111111101100110101101101110001101111000100000001001100010000010000110000011001110 %
b10011011111011110111100001111111111010100001110110010101010001001011001101001001111110101011111101011010011100110001100 2#
#136
b10111111110110001001100001100100010010000000111100001100110010110100011010001011100010011011011101000000101110000100100100001 %
b11010000010000100101101000010101000010111001111001110110111001000010001100100011001011101011001010100101000000010001001000001011 2#
#137
b11110101101001010100110010110111101100000110101111011001011110011010110001101001011101010111100100111000110110100010100000111110 %
b10010011011010100111101100111101011100111100110000101100100010110110101111010111001101110000100010000110000011101100110111010100 2#
#138
b10011011111011110111100001111111111010100001110110010101010001001011001101001001111110101011111101011010011100110001100 %
b1101110010000100100001000010111111110010011010101001110001110011011100100111000100001000110011101000011101101001011100100111110 2#
#139
b11010000010000100101101000010101000010111001111001110110111001000010001100100011001011101011001010100101000000010001001000001011 %
b1110001010100000010101001010000000011000110011011000111010000011011101110110100100110111100100111011001100110000011011000000010 2#
#140
b10010011011010100111101100111101011100111100110000101100100010110110101111010111001101110000100010000110000011101100110111010100 %
b11010110101011111110100001001000010110101000001000111000111011010010011000000111110111111010111100011001110101000010101111010101 2#
#141
b1101110010000100100001000010111111110010011010101001110001110011011100100111000100001000110011101000011101101001011100100111110 %
b1001100100001001010000000010010110011100110010000011100000110010110000100100000110011000000110000100110001110000111100010000010 2#
#142
b1110001010100000010101001010000000011000110011011000111010000011011101110110100100110111100100111011001100110000011011000000010 %
b1011101101000110011101011011000011100111001100000100110010010011001000100100001000010001011001011010011100111001010000001100010 2#
#143
b11010110101011111110100001001000010110101000001000111000111011010010011000000111110111111010111100011001110101000010101111010101 %
b10111000011110000001000100101000100111110001010011100010010111001001101100000101001101010101000101110101101000001111011011100011 2#
#144
b1001100100001001010000000010010110011100110010000011100000110010110000100100000110011000000110000100110001110000111100010000010 %
b100011011011011100110010100011001101001100110010001011000010000000110100111000100010101110010010111111111111000101001011110011 2#
#145
b1011101101000110011101011011000011100111001100000100110010010011001000100100001000010001011001011010011100111001010000001100010 %
b1101110101100011100111100001010001111011001110001110010010110100101110101110010000001001110110010110001010100110010000011101110 2#
#146
b10111000011110000001000100101000100111110001010011100010010111001001101100000101001101010101000101110101101000001111011011100011 %
b111100110000110110010111000000000011101011101111101101110101010100111110001000000001001011101101100011100100000111100100110010 2#
#147
b100011011011011100110010100011001101001100110010001011000010000000110100111000100010101110010010111111111111000101001011110011 %
b11010111001111000001101100001101111101011101011000100000001111010110101100110010001000100101111010000100110000001001011010001001 2#
#148
b1101110101100011100111100001010001111011001110001110010010110100101110101110010000001001110110010110001010100110010000011101110 %
b10011110110010110111010001110000111100110010110001110011001011001011010000000011100111011101110010101000100001000000001100 2#
#149
b111100110000110110010111000000000011101011101111101101110101010100111110001000000001001011101101100011100100000111100100110010 %
b100100000111111111000100111010101101101010110000011001110011000001110101110101010100010111011111100000110001011001110 2#
#150
b11010111001111000001101100001101111101011101011000100000001111010110101100110010001000100101111010000100110000001001011010001001 %
b1011111111011101110001000111111100010101011000100111100000010001011111000010110010111101010011101110001000000010001001101101100 2#
#151
b10011110110010110111010001110000111100110010110001110011001011001011010000000011100111011101110010101000100001000000001100 %
b10010101000111010001100111111011001111000000011111111111000011111101011110100001110010101100011011001101100011100001001000 2#
#152
b100100000111111111000100111010101101101010110000011001110011000001110101110101010100010111011111100000110001011001110 %
b1010100101000101 2#
b101000000101010101010101010101010101010101010101010101010111010101 T$
#153
b1011111111011101110001000111111100010101011000100111100000010001011111000010110010111101010011101110001000000010001001101101100 %
b10000000001010111011111110010000010011101110111011000000000000000000000010111111111111111111111111111111111111111111111111 2#
b1000001101010101010101010101010101010101010101010101010111010101 T$
#154
b10010101000111010001100111111011001111000000011111111111000011111101011110100001110010101100011011001101100011100001001000 %
b1010000000100100000000000000000000000010000101010000000011100100000010100000000000000000000000000000001000000000000000000000000 2#
b1000000101010101010101010101010101010101010101010101010111010101 T$
#155
b1010100101000101 %
b101000000101010101010101010101010101010101010101010101010111010101 G"
b1000110000100010000110000000000000000000000010000000000010100000000000010001011111111110000111111111110111111110000110000010000 2#
#156
b0 "
b10000000001010111011111110010000010011101110111011000000000000000000000010111111111111111111111111111111111111111111111111 %
b1000001101010101010101010101010101010101010101010101010111010101 G"
b1010010111110001110111010101111011000111010100100011010001110010011000101000101100110011111100111100101111011100100110001010100 2#
#157
b1 "
b1010000000100100000000000000000000000010000101010000000011100100000010100000000000000000000000000000001000000000000000000000000 %
b1000000101010101010101010101010101010101010101010101010111010101 G"
b10101010010110100001111001011101001100101001110001110010101111010011010000010010100010010001110010110010101000110010100000100001 2#
#158
b1000110000100010000110000000000000000000000010000000000010100000000000010001011111111110000111111111110111111110000110000010000 %
b1111100000010011101000110111010111001110000010010111010011110111110011000100010011000111100110100111101110010000000000100101100 2#
#159
b1010010111110001110111010101111011000111010100100011010001110010011000101000101100110011111100111100101111011100100110001010100 %
b110110110110111001101111101001110000101111011101011011111011000111100010010011001001111010110111010010110100100011100110100100 2#
#160
b10101010010110100001111001011101001100101001110001110010101111010011010000010010100010010001110010110010101000110010100000100001 %
b11011110011100111011001101100001110101111110010110101011101010110101101101010001000001110101010010101101011001001001000011110000 2#
#161
b1111100000010011101000110111010111001110000010010111010011110111110011000100010011000111100110100111101110010000000000100101100 %
b11110011010011011111001000010110001111010110010111101100000010011000011101110101111000001100100101000010110010111010011010011110 2#
#162
b110110110110111001101111101001110000101111011101011011111011000111100010010011001001111010110111010010110100100011100110100100 %
b11100111100100010111010011110100011111000100000110111000100001110010011011100111111010001010011100101100101000110000110100010000 2#
#163
b11011110011100111011001101100001110101111110010110101011101010110101101101010001000001110101010010101101011001001001000011110000 %
b110101001101100100010011011110111111011000100111100110111010111001110110110111101010000100010010011010110110001111001001001 2#
#164
b11110011010011011111001000010110001111010110010111101100000010011000011101110101111000001100100101000010110010111010011010011110 %
b101110000010111010101011011011111001110100000000100010110101011110100010110111111101001101111001111100000011101110001010001010 2#
#165
b11100111100100010111010011110100011111000100000110111000100001110010011011100111111010001010011100101100101000110000110100010000 %
b110110010001111000000010001011001100110000111111100000101001100011001110110001100100110000011110111000010000011010000010000101 2#
#166
b110101001101100100010011011110111111011000100111100110111010111001110110110111101010000100010010011010110110001111001001001 %
b100110001010101010111110000111110001101100101000110110010111011011000001110111001000010000110101010111110010011010001110100001 2#
#167
b101110000010111010101011011011111001110100000000100010110101011110100010110111111101001101111001111100000011101110001010001010 %
b10010111111000110010001101101101011101110010111100100110111111100010110001101111000110011101010011011011011001111010110011001 2#
#168
b110110010001111000000010001011001100110000111111100000101001100011001110110001100100110000011110111000010000011010000010000101 %
b11010101001011101001101000100001000100011010110101001101110101100100100010110000110010000000010111001101100011111100100100111001 2#
#169
b100110001010101010111110000111110001101100101000110110010111011011000001110111001000010000110101010111110010011010001110100001 %
b110001000100011111011000111000111000100001001101110000111100101111101000011110001001101011000010111010100001110101100100100100 2#
#170
b10010111111000110010001101101101011101110010111100100110111111100010110001101111000110011101010011011011011001111010110011001 %
b11101100101100010111010010101111011110000010101011101011101110100111100110100001001110010001101111101001010001110000110101101011 2#
#171
b11010101001011101001101000100001000100011010110101001101110101100100100010110000110010000000010111001101100011111100100100111001 %
b10010001011011000000001100001111101110000011110111001101101010111000000011001010110001110000011001000100111101111010101 2#
#172
b110001000100011111011000111000111000100001001101110000111100101111101000011110001001101011000010111010100001110101100100100100 %
b10111100000110001000100101110100010100011001100111011110110111101111101101101110101101100000100000001110000100100001001000001100 2#
#173
b11101100101100010111010010101111011110000010101011101011101110100111100110100001001110010001101111101001010001110000110101101011 %
b11011000011010100100010001011111000101100111100100001111000011010111000000011111010000010101111111000001100000000100111001011000 2#
#174
b10010001011011000000001100001111101110000011110111001101101010111000000011001010110001110000011001000100111101111010101 %
b11111110000101010101000010010001110000101111011011100000010011111001101011100101101100110101110011110011010010110000001101001010 2#
#175
b10111100000110001000100101110100010100011001100111011110110111101111101101101110101101100000100000001110000100100001001000001100 %
b10110110001100011110001111001100010011010101001000110111100010011111010000010110001011101001001111001010011111000000001000101001 2#
#176
b11011000011010100100010001011111000101100111100100001111000011010111000000011111010000010101111111000001100000000100111001011000 %
b10010001000111011011011001000011100100100000111011100010111001001010101001000100110011111001111011010000000010010001001001101001 2#
#177
b11111110000101010101000010010001110000101111011011100000010011111001101011100101101100110101110011110011010010110000001101001010 %
b11100100001101001100010011101000001001000100111111111101001001100011010011000000100111101101101101101100101011001000010001000010 2#
#178
b10110110001100011110001111001100010011010101001000110111100010011111010000010110001011101001001111001010011111000000001000101001 %
b1100001000011001010000101010100011100100111010111001111011101000000110000000001000101000000001101110111000000011001111110100010 2#
#179
b10010001000111011011011001000011100100100000111011100010111001001010101001000100110011111001111011010000000010010001001001101001 %
b100100010010101000110000101000100101111100100000101110101100101011111110001111010001001011011100101101001100011001101100110111 2#
#180
b11100100001101001100010011101000001001000100111111111101001001100011010011000000100111101101101101101100101011001000010001000010 %
b1100110111010000111100100010011111001010110000111110110010101001100000001010110011110000001010010100100011101100111110001010111 2#
#181
b1100001000011001010000101010100011100100111010111001111011101000000110000000001000101000000001101110111000000011001111110100010 %
b1011011111110100000101100110010111111000010101001110000010010100000110011000101110110110011111001100010100001000111110000010011 2#
#182
b100100010010101000110000101000100101111100100000101110101100101011111110001111010001001011011100101101001100011001101100110111 %
b1100000101110010011010011001011111000010000101011011101001110001110111110001010000010000100110010100100011110110010111010001100 2#
#183
b1100110111010000111100100010011111001010110000111110110010101001100000001010110011110000001010010100100011101100111110001010111 %
b11111010001111011011010010101110000111011101010010111010111110010111011110011001111101000111101000011110110110001010010110100111 2#
#184
b1011011111110100000101100110010111111000010101001110000010010100000110011000101110110110011111001100010100001000111110000010011 %
b10000110000101000010100011010000110100111011010010100000010100001101000101010111111110001100011010010000111001110110100111010011 2#
#185
b1100000101110010011010011001011111000010000101011011101001110001110111110001010000010000100110010100100011110110010111010001100 %
b10100111001111000000111000111111110110011111101010110111100011000010010111111000001001101110001100000001110100001010000101000010 2#
#186
b11111010001111011011010010101110000111011101010010111010111110010111011110011001111101000111101000011110110110001010010110100111 %
b10000011010001010001110101011000001001001011000101101111000110011010000111000111111111101000100100110011010011100001101110101101 2#
#187
b10000110000101000010100011010000110100111011010010100000010100001101000101010111111110001100011010010000111001110110100111010011 %
b10010011001011111111100011000100110011111010011111111000010000100001100000001001001100101101100101101101001100101010001101101010 2#
#188
b10100111001111000000111000111111110110011111101010110111100011000010010111111000001001101110001100000001110100001010000101000010 %
b10110000010000111001011001101000000100001000100011011101010000100000111111100101011010100001001100001100000000001011110011110000 2#
#189
b10000011010001010001110101011000001001001011000101101111000110011010000111000111111111101000100100110011010011100001101110101101 %
b1110011000011101001100101010000000010110010001110001001111000001101111000100011001110101100011110111010111100001010100001111100 2#
#190
b10010011001011111111100011000100110011111010011111111000010000100001100000001001001100101101100101101101001100101010001101101010 %
b10000100100011011000011010001101011000011111010111100110111010101110010111100110110001010011111111011000001110101010010011100011 2#
#191
b10110000010000111001011001101000000100001000100011011101010000100000111111100101011010100001001100001100000000001011110011110000 %
b11010110010010011001111000100010010110011001100010011000001001110000000100101110101010110110011000000101001111001100111011101011 2#
#192
b1110011000011101001100101010000000010110010001110001001111000001101111000100011001110101100011110111010111100001010100001111100 %
b11111001001111110010001101001001111111000010001100011010100011101010000010101100100001100101100000011100011010001011000100110110 2#
#193
b10000100100011011000011010001101011000011111010111100110111010101110010111100110110001010011111111011000001110101010010011100011 %
b1001011100101101011100011111111110100011110100110110011011000111001011001111011001010110001011011110010001011101001011110110110 2#
#194
b11010110010010011001111000100010010110011001100010011000001001110000000100101110101010110110011000000101001111001100111011101011 %
b10100000100000001000011011011000111110101110011111110100010111000110100111101000101010011001111000111110101000010100110110100100 2#
#195
b11111001001111110010001101001001111111000010001100011010100011101010000010101100100001100101100000011100011010001011000100110110 %
b10111110010001101010110101010010010000101000111010001011011000101100111100010011111110000010110101101111011000101000010110010100 2#
#196
b1001011100101101011100011111111110100011110100110110011011000111001011001111011001010110001011011110010001011101001011110110110 %
b10101000011001100011110111011100011111111011011000111000100100100101100010101000100011000010011000110100111001010001001011100 2#
#197
b10100000100000001000011011011000111110101110011111110100010111000110100111101000101010011001111000111110101000010100110110100100 %
b1000001010011011110011111110011010110000001011001101000010001101011001010110110011110000001011010111100101000011000110110101110 2#
#198
b10111110010001101010110101010010010000101000111010001011011000101100111100010011111110000010110101101111011000101000010110010100 %
b10001010001100110110111001110000011110010000011000011010100000101010000111111001101001001101001011111100101100100111111000 2#
#199
b10101000011001100011110111011100011111111011011000111000100100100101100010101000100011000010011000110100111001010001001011100 %
b1101011100101100110010101100110010111001001011101011101100001100110111000100010011100110001101000110000111110011100100111100001 2#
#200
b1000001010011011110011111110011010110000001011001101000010001101011001010110110011110000001011010111100101000011000110110101110 %
b1100100001101111100000111001100111010111010001101111000001100011010010011100110110110011001010101000011001010011011001011010111 2#
#201
b10001010001100110110111001110000011110010000011000011010100000101010000111111001101001001101001011111100101100100111111000 %
b10110110010001001011100110100001100101101001001100101111110011000011101101010101100010101000010001000011001010001001001100101011 2#
#202
b1101011100101100110010101100110010111001001011101011101100001100110111000100010011100110001101000110000111110011100100111100001 %
b10110011010111100001110000011110111010101010000101110000100010101000001001001110011000000010100101101111010110000001110110011000 2#
#203
b1100100001101111100000111001100111010111010001101111000001100011010010011100110110110011001010101000011001010011011001011010111 %
b110011111111011110010111101100111011010110101010100001011010000100000001111001001100011111000101001101010101110010100001001 2#
#204
b10110110010001001011100110100001100101101001001100101111110011000011101101010101100010101000010001000011001010001001001100101011 %
b1101110111101000011001010111000010000010 2#
b101000000101010101010101010101010101010101010101010101010111010101 T$
#205
b10110011010111100001110000011110111010101010000101110000100010101000001001001110011000000010100101101111010110000001110110011000 %
b10000000001010111011111110010000010011101110111011000000000000000000000010111111111111111111111111111111111111111111111111 2#
b1000001101010101010101010101010101010101010101010101010111010101 T$
#206
b110011111111011110010111101100111011010110101010100001011010000100000001111001001100011111000101001101010101110010100001001 %
b1100000000100100000000000000000000000010000101010000000011100100000010100000000000000000000000000000001000000000000000000000000 2#
b1000000101010101010101010101010101010101010101010101010111010101 T$
#207
b1101110111101000011001010111000010000010 %
b101000000101010101010101010101010101010101010101010101010111010101 G"
b10010111000100010000110100000000000000000000010100000000010100000000000010001011111111110000111111111110111111110001010000011100 2#
#208
b0 "
b10000000001010111011111110010000010011101110111011000000000000000000000010111111111111111111111111111111111111111111111111 %
b1000001101010101010101010101010101010101010101010101010111010101 G"
b10100100010100001001111001001100111101010011111111110011110101011000010000000100001001101011101110011111010001000000011010110 2#
#209
b1 "
b1100000000100100000000000000000000000010000101010000000011100100000010100000000000000000000000000000001000000000000000000000000 %
b1000000101010101010101010101010101010101010101010101010111010101 G"
b1101011000010001000100001111010111011001001011010000000011111101001000110101000011011001101000110011000111011100010111001 2#
#210
b10010111000100010000110100000000000000000000010100000000010100000000000010001011111111110000111111111110111111110001010000011100 %
b100111000010000011011110011101010001111001010111110100110111010100010100101001100001000111101011111001111000011111100001011010 2#
#211
b10100100010100001001111001001100111101010011111111110011110101011000010000000100001001101011101110011111010001000000011010110 %
b110111001000111100001001111010001100110010101000110111111111101110111110101100010000101110100101001001000001110111001001011101 2#
#212
b1101011000010001000100001111010111011001001011010000000011111101001000110101000011011001101000110011000111011100010111001 %
b11101010011111010111010001001011101110100010010011001000011110111010111111101111110000001101010100101011101110001010100001011001 2#
#213
b100111000010000011011110011101010001111001010111110100110111010100010100101001100001000111101011111001111000011111100001011010 %
b11010001100101000001111010000111000000111001100100001011100010000110110111111000111010100001011101101110011100110100011000011101 2#
#214
b110111001000111100001001111010001100110010101000110111111111101110111110101100010000101110100101001001000001110111001001011101 %
b11111011001111100000001100111000000111101111001011010111110001000010001110001001110100001010011010111001010101100011100111100 2#
#215
b11101010011111010111010001001011101110100010010011001000011110111010111111101111110000001101010100101011101110001010100001011001 %
b1101100001010100000001000101011010010010010001000101001111000111101001001100110111010011011000000010100001000111101000010011000 2#
#216
b11010001100101000001111010000111000000111001100100001011100010000110110111111000111010100001011101101110011100110100011000011101 %
b10100111001010111001001110011000001011110110011100001100001101011101101010111111000010011001101001101101011111010000001000010011 2#
#217
b11111011001111100000001100111000000111101111001011010111110001000010001110001001110100001010011010111001010101100011100111100 %
b111011011001010001100010101010100001001000011011001001101101010111000011000000100000111100111011001001010001010100101000110001 2#
#218
b1101100001010100000001000101011010010010010001000101001111000111101001001100110111010011011000000010100001000111101000010011000 %
b10010101011110101001110101100001101110011110110111011010011101110000101011101011000001101100001110110001110001111100010110000000 2#
#219
b10100111001010111001001110011000001011110110011100001100001101011101101010111111000010011001101001101101011111010000001000010011 %
b1100101000101110111110100111000010010100110000011111010110101010001110111110110011000001001111101101010010101010000011001110 2#
#220
b111011011001010001100010101010100001001000011011001001101101010111000011000000100000111100111011001001010001010100101000110001 %
b10010000110000000110100001110100111011010111100100101000011101110100111010111101111101111011010100111001100000001000100111000101 2#
#221
b10010101011110101001110101100001101110011110110111011010011101110000101011101011000001101100001110110001110001111100010110000000 %
b10111100000000000101001010110000101101001100100001010000111100110101111000010101001100010101100110111111111001000100110011110110 2#
#222
b1100101000101110111110100111000010010100110000011111010110101010001110111110110011000001001111101101010010101010000011001110 %
b10011101010100011111101111010001001000100000111101000111100101101111000001111000111111010000001000111000100110100111000101000010 2#
#223
b10010000110000000110100001110100111011010111100100101000011101110100111010111101111101111011010100111001100000001000100111000101 %
b110110101001100010100001010110011001001110000101010100001000101011000001110011010111001101010101011101011110110010010000 2#
#224
b10111100000000000101001010110000101101001100100001010000111100110101111000010101001100010101100110111111111001000100110011110110 %
b10100001010000010110010001100000111011110001010101101100000111010011101000010000010111101110000000000010011100000001001000001101 2#
#225
b10011101010100011111101111010001001000100000111101000111100101101111000001111000111111010000001000111000100110100111000101000010 %
b1100101011111110011111010011000010011110000010001101000011111110011000001101010110100001101101001110010100110011010100111010011 2#
#226
b110110101001100010100001010110011001001110000101010100001000101011000001110011010111001101010101011101011110110010010000 %
b1110110100101101000001101011001111000011000011110011100100011111000001110100000100110001010001010111001100101110010100001100110 2#
#227
b10100001010000010110010001100000111011110001010101101100000111010011101000010000010111101110000000000010011100000001001000001101 %
b110001001101100100010110010001001000101000000010111000100010111110001110111010101110111001111111111000010000010011110010010 2#
#228
b1100101011111110011111010011000010011110000010001101000011111110011000001101010110100001101101001110010100110011010100111010011 %
b10001100111011111011111000110111101000000000000111100101000000010100010000111010010101010111100111111001010101010101110010011 2#
#229
b1110110100101101000001101011001111000011000011110011100100011111000001110100000100110001010001010111001100101110010100001100110 %
b110010111101011011110111111001101101101011100011100101011100100011001110101011010010001001011011011011100110000010101010001100 2#
#230
b110001001101100100010110010001001000101000000010111000100010111110001110111010101110111001111111111000010000010011110010010 %
b111100101100111100110111100011100001011110001011100110110101011011101111111001100011011101111001101011011111010001100011010011 2#
#231
b10001100111011111011111000110111101000000000000111100101000000010100010000111010010101010111100111111001010101010101110010011 %
b1110111011111010001010100010110110101010011001101100111000110110110110010010001001000100011110100001010101010100000111100101001 2#
#232
b110010111101011011110111111001101101101011100011100101011100100011001110101011010010001001011011011011100110000010101010001100 %
b110000000000000010011110101110110001010001101110001111001010110000111000110000010011000001001000001010111100011010100001010100 2#
#233
b111100101100111100110111100011100001011110001011100110110101011011101111111001100011011101111001101011011111010001100011010011 %
b10110000110011100100000010100010101111010111010010001101110100110100001010111011011100101011111100010101011000111110100011101100 2#
#234
b1110111011111010001010100010110110101010011001101100111000110110110110010010001001000100011110100001010101010100000111100101001 %
b1111001000011011011110010101110101101111100110110001110010101011000001000001000000101110000001111011010110100001011000101110111 2#
#235
b110000000000000010011110101110110001010001101110001111001010110000111000110000010011000001001000001010111100011010100001010100 %
b11000111101111101000101111101100000111110011100001101011101001000101111100101001101011000100001101001000000010010100110000000001 2#
#236
b10110000110011100100000010100010101111010111010010001101110100110100001010111011011100101011111100010101011000111110100011101100 %
b1110000100111111000100110001110010001001011001111001000100001010011110100001101000010010001001010101010001111110010100101101 2#
#237
b1111001000011011011110010101110101101111100110110001110010101011000001000001000000101110000001111011010110100001011000101110111 %
b11011010011101001100101010100000000111100100111001010010101101000100001010110111001010010011100001110011101010010011111110111010 2#
