Looping_Hardware-design/project_1/.Xil/Vivado-25000-client70/hw_ila_data_1/zip_work/waveform.vcd
$date
        2021-Apr-09 15:46:52
$end
$version
        Vivado v2019.1 (64-bit)
$end
$timescale
        1ps
$end
$scope module dut $end
$var reg 12 " check_40G_sim_i/system_ila_0/inst/probe0_1 [11:0] $end
$var reg 4 . check_40G_sim_i/system_ila_0/inst/probe1_1 [3:0] $end
$var reg 8 2 check_40G_sim_i/system_ila_0/inst/probe2_1 [7:0] $end
$var reg 128 : check_40G_sim_i/system_ila_0/inst/net_slot_0_axis_tdata [127:0] $end
$var reg 1 \" check_40G_sim_i/system_ila_0/inst/net_slot_0_axis_tvalid $end
$var reg 1 ]" check_40G_sim_i/system_ila_0/inst/net_slot_0_axis_tready $end
$var reg 1 ^" check_40G_sim_i/system_ila_0/inst/net_slot_0_axis_tlast $end
$var reg 128 _" check_40G_sim_i/system_ila_0/inst/net_slot_1_axis_tdata [127:0] $end
$var reg 1 #$ check_40G_sim_i/system_ila_0/inst/net_slot_1_axis_tvalid $end
$var reg 1 $$ check_40G_sim_i/system_ila_0/inst/net_slot_1_axis_tready $end
$var reg 1 %$ check_40G_sim_i/system_ila_0/inst/net_slot_1_axis_tlast $end
$var reg 64 &$ check_40G_sim_i/system_ila_0/inst/net_slot_2_axis_tdata [63:0] $end
$var reg 1 f$ check_40G_sim_i/system_ila_0/inst/net_slot_2_axis_tvalid $end
$var reg 1 g$ check_40G_sim_i/system_ila_0/inst/net_slot_2_axis_tready $end
$var reg 1 h$ check_40G_sim_i/system_ila_0/inst/net_slot_2_axis_tlast $end
$var reg 3 i$ Interface__i1_s0___uplane_depacketiser_0_data_out_ [2:0] $end
$var reg 3 l$ Interface__i1_s1___cplane_depacketizer_0_beam_data_ [2:0] $end
$var reg 3 o$ Interface__i1_s2___cplane_depacketizer_0_beam_info_V_ [2:0] $end
$var reg 3 r$ T_Channel__i1_s0___uplane_depacketiser_0_data_out_ [2:0] $end
$var reg 3 u$ T_Channel__i1_s1___cplane_depacketizer_0_beam_data_ [2:0] $end
$var reg 3 x$ T_Channel__i1_s2___cplane_depacketizer_0_beam_info_V_ [2:0] $end
$var reg 1 {$ _TRIGGER $end
$var reg 1 |$ _WINDOW $end
$var reg 1 }$ _GAP $end
$upscope $end
$enddefinitions $end
#0
$dumpvars
b0 "
b0 .
b1 2
b0 :
0\"
1]"
0^"
b101110100111010011000110000000011110100111010111101011100101001110101100011010010011010101100010111011001000110000000100001000 _"
1#$
1$$
0%$
b1111111111111000000000011111011111001000101001001110011100000 &$
0f$
1g$
0h$
b0 i$
b0 l$
b0 o$
b0 r$
b0 u$
b0 x$
0{$
1|$
0}$
$end
#1
b10001110011100110001100001011000100101100111110110111011110000010111111000011011111111010111000011000111111100011101011100101110 _"
b1 l$
b1 u$
#2
b1110010011010010111110010000001001011101011110001100101101010111000101011110010001011110100011001001000100010001000001010111001 _"
#3
b10011010110101000010001010010010101011111000111011111100101011001000011100101111000000101111001001000100110010101000111111011110 _"
#4
b1011011111011111000100000100010011011000100100101101001011010010010110010001101101000010100011010110001001101101001111011100001 _"
#5
b101011001000100101010011001110110110010111100100100000110010001000111110011001000110000101111110100001100111011000010011011100 _"
#6
b1111101000101110111100001111100110011001001000111111011011001010100101110010101010100111110000111111010000101001001011100110101 _"
#7
b11110111001100101011111010111011110000000001011111100100001010110111111111111100110100100011010000001111000100100111011010101 _"
#8
b1001100111110011110001111001011100000000111111011111111100110100100011010000001111000100100111011010101100101101111000011100111 _"
0#$
b0 l$
b0 u$
#9
b1001100111110011110001111001011100000001010111011011111110011001111101100111000001000000010010111010100000101011110111100000110 _"
1#$
b1111111111111000000000111000011111000000101001001110011100000 &$
1f$
b1 l$
b1 o$
b1 u$
b1 x$
#10
b11001011010010000011111000101101000011001111111001010011010100110110100010010000011110100111100011100111000110000001000000000010 _"
b1111111111111000000000000000000000000000101001001110011100000 &$
0f$
b0 o$
b0 x$
#11
b11001011010010000011111000101101000011000111111011010100000101011110111100000110111000100100111011111000100101101111000011100111 _"
0#$
b0 l$
b0 u$
#13
b1111111111111000000000000010100010001010100001011000011100000 &$
1f$
b1 o$
b1 x$
#14
b10001000000101100110110001010001101000001101101101101110000101100100010110011001001100110110101110011100000111011011000100001111 _"
1#$
b1111111111111000000000011001101101011010100001011000011100000 &$
0f$
b1 l$
b0 o$
b1 u$
b0 x$
#15
b1010000100010111010100111101001110001110000011111001100011110001010111011000000110100101011000111000001000111010011000000010010 _"
b1111111111111000000000101001010110001010100001011000011100000 &$
#16
b1100110011000000011000100001110010001100011110111001101010111100000110110111101001100100000001000101000000001111100110011100000 _"
b1111111111111000000000011001000000010010100001011000011100000 &$
#17
b100011000010111000011110100100101001011000111010001011110010000101101001101101011100001000101100011100000110000010010010101011 _"
b1111111111111000000000111000010001011010100001011000011100000 &$
#18
b101000100011110111100101110011101111011100110000010010101001100010001010010101111101010100101100100100100001001000100000111000 _"
b1111111111111000000000111010101001011010100001011000011100000 &$
#19
b10110011001001111001001001100000100010001111000110001011010110111111100110100111110000011111111111011111011001001000011011000 _"
b1111111111111000000000111100000111111010100001011000011100000 &$
#20
b11110111100110101000011110010110110010010110110111010101010001110010100000100101111000010100011001010111001010001110101000110001 _"
b1111111111111000000000110000101000110010100001011000011100000 &$
#21
b11011111111101011100101011101111100001010111001011011011101011110001000001110110100111101000001010000011000000010100110000001 _"
b1111111111111000000000101001111010000010100001011000011100000 &$
#22
b10101110111100111000110110000101111110110101101110110010111011110000010101010010111000101010010100000111000110010100101110010 _"
b1111111111111000000000101110001010100010100001011000011100000 &$
#23
b110010010001110110100011010010001000001100001010011010110001101101110110001101000000100011110110111111011000100000001100011001 _"
b1111111111111000000000000001000111101010100001011000011100000 &$
#24
b10110000100010101001000010001111110011011001000101001011100010101001001110101001111101110000101110110000000111101000011011011000 _"
b1111111111111000000000111011100001011010100001011000011100000 &$
#25
b101110000110010100011011000111010100000011101110010111111010011110011000100000101110001000110101001110011010000010100110111000 _"
b1111111111111000000000011100010001101010100001011000011100000 &$
#26
b11111101111111010111010101011000010010000001111110000101000011110111110101010100001011010011010010111000000111001011010000011011 _"
b1111111111111000000000010110100110100010100001011000011100000 &$
#27
b11000100001011111111111001100110001011100011001001000110011010011010010111110000100100100001111010111011010011111011010011101101 _"
b1111111111111000000000001001000011110010100001011000011100000 &$
#28
b1000101011000011001101110010000001000110111000100011000101011000010001011111110110010101110010011011000011001111001011101100001 _"
b1111111111111000000000100101011100100010100001011000011100000 &$
#29
b10000111111000111110100101111100100011001001000110000010100100110100000100101111000111001101101000100010100101110000011111110101 _"
#30
b10000111010010000011111000101101000011000111111000010010011111001000110010010001100000101001001101000001001011110001110011011010 _"
0#$
b1111111111111000000000000010100010010010100001011000011100000 &$
1f$
b0 l$
b1 o$
b0 u$
b1 x$
#31
b11101101001110100011101110011100011110101101010000010001011110110010011110100100101110100101011010101100000000101101110010011110 _"
1#$
b1111111111111000000000100101011100100010100001011000011100000 &$
0f$
b1 l$
b0 o$
b1 u$
b0 x$
#32
b11111100111010000000101000101000010000111010110011010001100011111110111101100010001000111000100101101000110101011100001111111101 _"
#33
b10010110111011010000011111011011010101110111000100000101011111110010000000011111101111010110101001111101111000010010101010 _"
#34
b10010110101000001001000001100110111010100111111010001101010111010001101100110000100001001000001100100110101100000101100111101010 _"
#35
b11111000101000001011010100010010110110001100111011010000111000010111010110000100111010010110011001101010100001110101011010000101 _"
#36
b10010111001111110001000010010101110000110110011010100011011001010110000101110101100001111111111000001011101100010110111010110000 _"
#37
b11110111010001010000001111101101110101000100011111111000001001101100101110111011111110111010110110010000011110101011010011100110 _"
#38
b10011010001011010001010100110000001110111101111001000111111001000011101111010100111101111110100011100001111000110100011000001100 _"
#39
b10010011011001100000011001101001101010110001101111101111001010000101110011011110011000011001111011011110100110100101101111100 _"
#40
b100101011111110010010111111101110000000110110010100001010010101100000100011010110110111001110011111100111010011001100100001 _"
#41
b10011101001110111111001000001000101101011000111110110001001101010111110101001011100110100110011010010101100100000001001101011101 _"
#42
b100001000001010010010100100101000000011110111100110100011100010101011110011101011110010101010100110011100010111000001100000 _"
#43
b10001101110111000000000011111001011110101111110010111001010011100001011101110111000100001100011110111000110100011110110101100 _"
#44
b1101001111010011101010001001000110011000100101010010101110111010010001110110111101011101101100010100111100000100000100111010000 _"
#45
b11101001100100011010100001000101001111101011010011011011010110100111101001011011000111101110110001010111001001110110010110011000 _"
#46
b110101111010001110000110010111011000010111000010110001111011011001011000110100111010100100010111000010010010101111001000001010 _"
b1111111111111000000000000010100010011010100001011000011100000 &$
1f$
b1 o$
b1 x$
#47
b1111110001010101001101001011000111101110000111101000100011111011001010110111001010110101100111010101101001011100011101001010000 _"
b1111111111111000000000100101011100100010100001011000011100000 &$
0f$
b0 o$
b0 x$
#48
b1010101100111101101010011000010101010111110100000111011001111111000111110100111111000001100010100110111010000001001101101100010 _"
#49
b10010011010100001001100100110110110011010100000111011011001110011010110111011011100100010110010001100100100110011000000111001111 _"
#50
b11011110101101001010101011111010001111001001010010001111110011001111101100000110100110101100011000110010011001011000000111000 _"
#51
b101100101101001111101111110000000000001010011011111001010011001101011101100001110110011111110010111111011001110010001110011 _"
#52
b10010001000010101000100010111011011101111010010110011111110100101110011111001000010100010100101010101110001111000100110010110 _"
#53
b11111000111011110110111010111000110111110001100011000110011110111111000101111110011110101111000100101000100110010110111100100111 _"
#54
b10100110110000011111100000010101111011001001111111100101001100110101001010011111110000000110111001011011000010010110111001111111 _"
#55
b10100011001001100001000010010011101101101011000110101000001100011010111110000010111101111000010100001011000000100000000010000111 _"
#56
b11101111100110011000101110111001000101010111111101101010101110100001100110101100011100111010001100001011100001011010011001111 _"
#57
b1110001100011100010110111111000111101101010010001101110000101100001110010001001110011001100100100100000011010110011101011111101 _"
#58
b10010110010111011101011001001000001011011010100101010100110000100010100010101010000001000001101000001001000000100000000111001011 _"
#59
b1111100011000110101011101011101101110101000001111100110010101000010111000000101111010010001101000100101111111100000000111101100 _"
#60
b10101011101111000000000110010101010000001000110011100011110101010000100010110101001001001100110111111010010110101100100101000 _"
#61
b11101100000110110001000000010000100110111010110000101111000001010101101001011100111110111111100001001110110100101000110000001000 _"
#62
b10101110100010011001111110111100001100001110011011000010111111101011001001001001110010110101111101011001010100000101000010101001 _"
b1111111111111000000000000010100010100010100001011000011100000 &$
1f$
b1 o$
b1 x$
#63
b1010101010011110111111100110100000100110011000100000101110111100100011101110110010001010010100011011111010010000101010011010101 _"
b1111111111111000000000100101011100100010100001011000011100000 &$
0f$
b0 o$
b0 x$
#64
b1101010011101000011100010001000001100110101010100110111011100101100101110001011111101100010111111110111011110000010010101101000 _"
#65
b11101110101010010010011100111111111001010101100100001100011000110010110010111011010011110101110010100101011010101101011011011001 _"
#66
b1100101000100111111001001000010010101110011011110011011001100000010111001111011001110011110101110010010110100101100101101010100 _"
#67
b10001000010001000110010101011000111100111100100101010110101101101011111000001000101100111101000110101111001100100111000110010000 _"
#68
b1110100001101011111111110010000101100100010111111100101111011100010111110111011110001010101100001010110101111001010101010010111 _"
#69
b10101010010000101001111001100001110000101101110010000010010101010101101111100101001111100110011010101101111100110000000101011010 _"
#70
b11010100000100110110100101100010101110110001000110110101100111100101110101000010001010111001010010011111100110000001001001000110 _"
#71
b10010010011011100001010100010000011000100111010000000110000110111101001000011111110101100000011111000100110100011100001111100110 _"
#72
b11011111011000010001101010000111011000000101101101010101010111010101000000111111100111101010101011110000011110100011000101111100 _"
#73
b10011110011101101111100101011110001110000100101101010100001001010010100001111101001000001001001110010100110110000000100110001100 _"
#74
b11011100000111111100011001010101010011101100110101010111101100101100111000110111101101101000110010001100011101000111010100001 _"
#75
b10110100010010000110010000111010100000110110110110100001111011100001010101001110011001110010001011011100001101110011101010110010 _"
#76
b111011000001010110111100100001010011100011010010110001011100100010000001000011101110001110101110100001101110101010001001101100 _"
#77
b1001001001111000110100010000100111001000001101111111100100000110110101001110010111000100100100001001001001111101110011000011010 _"
#78
b11000000101011001000101010001000110100100110100101011110110011111011101101001101100100010001100110000100111001010000110101001001 _"
b1111111111111000000000000010100010101010100001011000011100000 &$
1f$
b1 o$
b1 x$
#79
b10111001110100000101110111001110101101101001110010011001100000100110110000001000111000001110010000101000111101111100011101110 _"
b1111111111111000000000111100011101110010100001011000011100000 &$
0f$
b0 o$
b0 x$
#80
b100110001111011000101000010000010100110000010100001010100111100011100010100111000111100010001010001110110110000111000000010010 _"
b1111111111111000000000111000000010010010100001011000011100000 &$
#81
b100010110100011100101000101011011001110101010100001000111000010000000111011001100000110110011011000101111011010001110001001101 _"
b1111111111111000000000001110001001101010100001011000011100000 &$
#82
b10011110011001001110011010010001110001000011001101100000001100101100000010101011111011011100100110101100001101010110111010001 _"
b1111111111111000000000010110111010001010100001011000011100000 &$
#83
b1110011011010001111010000011111000110101010111101100001011101001011001101111001100011101000110011101001000011111001001011101011 _"
b1111111111111000000000001001011101011010100001011000011100000 &$
#84
b11101011110111101000110110101011011000110110110011011100011100011101010010000101001011101001010000011100110011011000000010000001 _"
b1111111111111000000000000000010000001010100001011000011100000 &$
#85
b11010010110111100010100010000101100110100011010011110010010010010000101000110100111001110111010100011010100000001001110010111010 _"
b1111111111111000000000001110010111010010100001011000011100000 &$
#86
b11110101000000011101010101100001111011101101011010100110011101001001101010100101001010111111110100111011111111010011110101101011 _"
b1111111111111000000000011110101101011010100001011000011100000 &$
#87
b1100100010001011110010001100100010010001000010111110101010001000000111101000100001000100001100011111101001110111011001100110100 _"
b1111111111111000000000011001100110100010100001011000011100000 &$
#88
b11010100100000111001101101010111101001010010101100101010001110001110111100011011101100001011001100101110111100110100111110001110 _"
b1111111111111000000000100111110001110010100001011000011100000 &$
#89
b10011100001000100100100110001011101010111101001100110111100110101010000101110101011100010010010110010100101111111000010011110001 _"
b1111111111111000000000000010011110001010100001011000011100000 &$
#90
b10001100001101101001000001001110100111100101001001001101000110101100000100000110001000110001011100100000011010111101010000100011 _"
b1111111111111000000000101010000100011010100001011000011100000 &$
#91
b101000101000110110100100111000111011110000000101011001000100110100010010110111000000011101000001011010101100100110110010001010 _"
b1111111111111000000000110110010001010010100001011000011100000 &$
#92
b11001101010110101110101111000111110110010010000001101100100111101111110011100000111011111011000101111001010111111010010110100000 _"
b1111111111111000000000010010110100000010100001011000011100000 &$
#93
b100110000000101011000100111100101100010111111001110010111000100100100001001001001111101110011000011010001011110001110011011010 _"
0#$
b0 l$
b0 u$
#95
b100110000000101011000100111100101100010110100101011110110011110010100010000110100100000110100101001001001010010101110111100000 _"
1#$
b1111111111111000000000011101111010110010100001011000011100000 &$
1f$
b1 l$
b1 o$
b1 u$
b1 x$
#96
b10011110010010001111010010101010100110010010010001101101111100011110100111101100010111101000011100001110011010111101101110110110 _"
0f$
b0 o$
b0 x$
#97
0#$
b0 l$
b0 u$
#99
b100011 "
b1 .
b10 2
#100
b0 "
b11 2
b1 :
1\"
b1 i$
b1 r$
1{$
#101
b100 2
b10 :
#102
b101 2
b11 :
#103
b11 2
b100 :
#104
b100 2
b101 :
#105
b101 2
b110 :
#106
b11 2
b111 :
#107
b100 2
b1000 :
#108
b101 2
b1001 :
#109
b11 2
b1010 :
#110
b100 2
b1011 :
#111
b101 2
b1100 :
#112
b11 2
b1101 :
#113
b100 2
b1110 :
#114
b101 2
b1111 :
#115
b11 2
b10000 :
#116
b100 2
b10001 :
#117
b101 2
b10010 :
#118
b11 2
b10011 :
#119
b100 2
b10100 :
#120
b101 2
b10101 :
#121
b11 2
b10110 :
#122
b100 2
b10111 :
#123
b101 2
b11000 :
#124
b11 2
b11001 :
#125
b100 2
b11010 :
#126
b101 2
b11011 :
#127
b11 2
b11100 :
#128
b100 2
b11101 :
#129
b101 2
b11110 :
#130
b11 2
b11111 :
#131
b100 2
b100000 :
#132
b101 2
b100001 :
#133
b11 2
b100010 :
#134
b100 2
b100011 :
#135
b101 2
b100100 :
#136
b11 2
b100101 :
#137
b100 2
b100110 :
#138
b101 2
b100111 :
#139
b11 2
b101000 :
#140
b100 2
b101001 :
#141
b101 2
b101010 :
#142
b11 2
b101011 :
#143
b100 2
b101100 :
#144
b101 2
b101101 :
#145
b11 2
b101110 :
#146
b100 2
b101111 :
#147
b101 2
b110000 :
#148
b11 2
b110001 :
#149
b100 2
b110010 :
#150
b101 2
b110011 :
#151
b11 2
b110100 :
#152
b100 2
b110101 :
#153
b101 2
b110110 :
#154
b11 2
b110111 :
#155
b100 2
b111000 :
#156
b101 2
b111001 :
#157
b11 2
b111010 :
#158
b100 2
b111011 :
#159
b101 2
b111100 :
#160
b11 2
b111101 :
#161
b100 2
b111110 :
#162
b101 2
b111111 :
#163
b11 2
b1000000 :
#164
b100 2
b1000001 :
#165
b101 2
b1000010 :
#166
b11 2
b1000011 :
#167
b100 2
b1000100 :
#168
b101 2
b1000101 :
#169
b11 2
b1000110 :
#170
b100 2
b1000111 :
#171
b101 2
b1001000 :
#172
b11 2
b1001001 :
#173
b100 2
b1001010 :
#174
b101 2
b1001011 :
#175
b11 2
b1001100 :
#176
b100 2
b1001101 :
#177
b101 2
b1001110 :
#178
b11 2
b1001111 :
#179
b100 2
b1010000 :
#180
b101 2
b1010001 :
#181
b11 2
b1010010 :
#182
b100 2
b1010011 :
#183
b101 2
b1010100 :
#184
b11 2
b1010101 :
#185
b100 2
b1010110 :
#186
b101 2
b1010111 :
#187
b11 2
b1011000 :
#188
0\"
b0 i$
b0 r$
#189
b100 2
b1011001 :
1\"
b1 i$
b1 r$
#190
b101 2
b11111111111111111111111111111111111111111111111100000000000010100011010100000000000000000000000111111110101011100000000100000000 :
1^"
b10 r$
#191
b1 2
0\"
0^"
b0 i$
b0 r$
#286
b10 2
#287
b11 2
b1010001 :
1\"
b1 i$
b1 r$
#288
b100 2
b1010010 :
#289
b101 2
b1010011 :
#290
b11 2
b1010100 :
#291
b100 2
b1010101 :
#292
b101 2
b1010110 :
#293
b11 2
b1010111 :
#294
b100 2
b1011000 :
#295
b101 2
b1011001 :
#296
b11 2
b1011010 :
#297
b100 2
b1011011 :
#298
b101 2
b1011100 :
#299
b11 2
b1011101 :
#300
b100 2
b1011110 :
#301
b101 2
b1011111 :
#302
b100011 "
b110 2
0\"
b0 i$
b0 r$
#303
b11 2
